forward_view.vcd
$date
	Tue Dec 06 19:26:53 2022
$end
$version
	Icarus Verilog
$end
$timescale
	1ps
$end
$scope module forward_view_tb $end
$var wire 12 ! pixel_out [11:0] $end
$var reg 1 " clk_in $end
$var reg 9 # direction [8:0] $end
$var reg 11 $ hcount_in [10:0] $end
$var reg 11 % opponent_x [10:0] $end
$var reg 11 & opponent_y [10:0] $end
$var reg 11 ' player_x [10:0] $end
$var reg 11 ( player_y [10:0] $end
$var reg 1 ) rst_in $end
$var reg 10 * vcount_in [9:0] $end
$scope module uut $end
$var wire 1 " clk_in $end
$var wire 9 + direction [8:0] $end
$var wire 11 , hcount_in [10:0] $end
$var wire 1 - in_opponent $end
$var wire 1 . in_player $end
$var wire 11 / opponent_x [10:0] $end
$var wire 11 0 opponent_y [10:0] $end
$var wire 11 1 player_x [10:0] $end
$var wire 11 2 player_y [10:0] $end
$var wire 1 ) rst_in $end
$var wire 10 3 vcount_in [9:0] $end
$var wire 8 4 track_addr [7:0] $end
$var wire 4 5 sprite_type [3:0] $end
$var wire 10 6 sprite_addr [9:0] $end
$var wire 11 7 sin [10:0] $end
$var wire 10 8 player_addr [9:0] $end
$var wire 80 9 palette_addr [79:0] $end
$var wire 192 : output_color [191:0] $end
$var wire 10 ; opponent_addr [9:0] $end
$var wire 13 < log [12:0] $end
$var wire 11 = cos [10:0] $end
$var reg 22 > conv_x [21:0] $end
$var reg 22 ? conv_y [21:0] $end
$var reg 22 @ hcount_pipe [21:0] $end
$var reg 4 A in_opponent_pipe [3:0] $end
$var reg 4 B in_player_pipe [3:0] $end
$var reg 12 C loc_x [11:0] $end
$var reg 12 D loc_y [11:0] $end
$var reg 12 E pixel_out [11:0] $end
$var reg 20 F player_addr_pipe [19:0] $end
$var reg 8 G sprite_type_pipe [7:0] $end
$var reg 20 H vcount_pipe [19:0] $end
$scope module cosine_2 $end
$var wire 9 I addra [8:0] $end
$var wire 1 " clka $end
$var wire 11 J dina [10:0] $end
$var wire 1 K ena $end
$var wire 1 L regcea $end
$var wire 1 ) rsta $end
$var wire 1 M wea $end
$var wire 11 N douta [10:0] $end
$var parameter 96 O INIT_FILE $end
$var parameter 32 P RAM_DEPTH $end
$var parameter 128 Q RAM_PERFORMANCE $end
$var parameter 32 R RAM_WIDTH $end
$var reg 11 S ram_data [10:0] $end
$scope function clogb2 $end
$var integer 32 T depth [31:0] $end
$upscope $end
$scope begin output_register $end
$var reg 11 U douta_reg [10:0] $end
$upscope $end
$scope begin use_init_file $end
$upscope $end
$upscope $end
$scope module i0_type $end
$var wire 10 V addra [9:0] $end
$var wire 1 " clka $end
$var wire 8 W dina [7:0] $end
$var wire 1 X ena $end
$var wire 1 Y regcea $end
$var wire 1 ) rsta $end
$var wire 1 Z wea $end
$var wire 8 [ douta [7:0] $end
$var parameter 128 \ INIT_FILE $end
$var parameter 32 ] RAM_DEPTH $end
$var parameter 128 ^ RAM_PERFORMANCE $end
$var parameter 32 _ RAM_WIDTH $end
$var reg 8 ` ram_data [7:0] $end
$scope function clogb2 $end
$var integer 32 a depth [31:0] $end
$upscope $end
$scope begin output_register $end
$var reg 8 b douta_reg [7:0] $end
$upscope $end
$scope begin use_init_file $end
$upscope $end
$upscope $end
$scope module i1_type $end
$var wire 10 c addra [9:0] $end
$var wire 1 " clka $end
$var wire 8 d dina [7:0] $end
$var wire 1 e ena $end
$var wire 1 f regcea $end
$var wire 1 ) rsta $end
$var wire 1 g wea $end
$var wire 8 h douta [7:0] $end
$var parameter 184 i INIT_FILE $end
$var parameter 32 j RAM_DEPTH $end
$var parameter 128 k RAM_PERFORMANCE $end
$var parameter 32 l RAM_WIDTH $end
$var reg 8 m ram_data [7:0] $end
$scope function clogb2 $end
$var integer 32 n depth [31:0] $end
$upscope $end
$scope begin output_register $end
$var reg 8 o douta_reg [7:0] $end
$upscope $end
$scope begin use_init_file $end
$upscope $end
$upscope $end
$scope module i2_type $end
$var wire 10 p addra [9:0] $end
$var wire 1 " clka $end
$var wire 8 q dina [7:0] $end
$var wire 1 r ena $end
$var wire 1 s regcea $end
$var wire 1 ) rsta $end
$var wire 1 t wea $end
$var wire 8 u douta [7:0] $end
$var parameter 40 v INIT_FILE $end
$var parameter 32 w RAM_DEPTH $end
$var parameter 128 x RAM_PERFORMANCE $end
$var parameter 32 y RAM_WIDTH $end
$var reg 8 z ram_data [7:0] $end
$scope function clogb2 $end
$var integer 32 { depth [31:0] $end
$upscope $end
$scope begin output_register $end
$var reg 8 | douta_reg [7:0] $end
$upscope $end
$scope begin use_init_file $end
$upscope $end
$upscope $end
$scope module i3_type $end
$var wire 10 } addra [9:0] $end
$var wire 1 " clka $end
$var wire 8 ~ dina [7:0] $end
$var wire 1 !" ena $end
$var wire 1 "" regcea $end
$var wire 1 ) rsta $end
$var wire 1 #" wea $end
$var wire 8 $" douta [7:0] $end
$var parameter 40 %" INIT_FILE $end
$var parameter 32 &" RAM_DEPTH $end
$var parameter 128 '" RAM_PERFORMANCE $end
$var parameter 32 (" RAM_WIDTH $end
$var reg 8 )" ram_data [7:0] $end
$scope function clogb2 $end
$var integer 32 *" depth [31:0] $end
$upscope $end
$scope begin output_register $end
$var reg 8 +" douta_reg [7:0] $end
$upscope $end
$scope begin use_init_file $end
$upscope $end
$upscope $end
$scope module i4_type $end
$var wire 10 ," addra [9:0] $end
$var wire 1 " clka $end
$var wire 8 -" dina [7:0] $end
$var wire 1 ." ena $end
$var wire 1 /" regcea $end
$var wire 1 ) rsta $end
$var wire 1 0" wea $end
$var wire 8 1" douta [7:0] $end
$var parameter 40 2" INIT_FILE $end
$var parameter 32 3" RAM_DEPTH $end
$var parameter 128 4" RAM_PERFORMANCE $end
$var parameter 32 5" RAM_WIDTH $end
$var reg 8 6" ram_data [7:0] $end
$scope function clogb2 $end
$var integer 32 7" depth [31:0] $end
$upscope $end
$scope begin output_register $end
$var reg 8 8" douta_reg [7:0] $end
$upscope $end
$scope begin use_init_file $end
$upscope $end
$upscope $end
$scope module i5_type $end
$var wire 10 9" addra [9:0] $end
$var wire 1 " clka $end
$var wire 8 :" dina [7:0] $end
$var wire 1 ;" ena $end
$var wire 1 <" regcea $end
$var wire 1 ) rsta $end
$var wire 1 =" wea $end
$var wire 8 >" douta [7:0] $end
$var parameter 40 ?" INIT_FILE $end
$var parameter 32 @" RAM_DEPTH $end
$var parameter 128 A" RAM_PERFORMANCE $end
$var parameter 32 B" RAM_WIDTH $end
$var reg 8 C" ram_data [7:0] $end
$scope function clogb2 $end
$var integer 32 D" depth [31:0] $end
$upscope $end
$scope begin output_register $end
$var reg 8 E" douta_reg [7:0] $end
$upscope $end
$scope begin use_init_file $end
$upscope $end
$upscope $end
$scope module i6_type $end
$var wire 10 F" addra [9:0] $end
$var wire 1 " clka $end
$var wire 8 G" dina [7:0] $end
$var wire 1 H" ena $end
$var wire 1 I" regcea $end
$var wire 1 ) rsta $end
$var wire 1 J" wea $end
$var wire 8 K" douta [7:0] $end
$var parameter 40 L" INIT_FILE $end
$var parameter 32 M" RAM_DEPTH $end
$var parameter 128 N" RAM_PERFORMANCE $end
$var parameter 32 O" RAM_WIDTH $end
$var reg 8 P" ram_data [7:0] $end
$scope function clogb2 $end
$var integer 32 Q" depth [31:0] $end
$upscope $end
$scope begin output_register $end
$var reg 8 R" douta_reg [7:0] $end
$upscope $end
$scope begin use_init_file $end
$upscope $end
$upscope $end
$scope module i7_type $end
$var wire 10 S" addra [9:0] $end
$var wire 1 " clka $end
$var wire 8 T" dina [7:0] $end
$var wire 1 U" ena $end
$var wire 1 V" regcea $end
$var wire 1 ) rsta $end
$var wire 1 W" wea $end
$var wire 8 X" douta [7:0] $end
$var parameter 40 Y" INIT_FILE $end
$var parameter 32 Z" RAM_DEPTH $end
$var parameter 128 [" RAM_PERFORMANCE $end
$var parameter 32 \" RAM_WIDTH $end
$var reg 8 ]" ram_data [7:0] $end
$scope function clogb2 $end
$var integer 32 ^" depth [31:0] $end
$upscope $end
$scope begin output_register $end
$var reg 8 _" douta_reg [7:0] $end
$upscope $end
$scope begin use_init_file $end
$upscope $end
$upscope $end
$scope module i8_mario $end
$var wire 10 `" addra [9:0] $end
$var wire 1 " clka $end
$var wire 8 a" dina [7:0] $end
$var wire 1 . ena $end
$var wire 1 b" regcea $end
$var wire 1 ) rsta $end
$var wire 1 c" wea $end
$var wire 8 d" douta [7:0] $end
$var parameter 176 e" INIT_FILE $end
$var parameter 32 f" RAM_DEPTH $end
$var parameter 128 g" RAM_PERFORMANCE $end
$var parameter 32 h" RAM_WIDTH $end
$var reg 8 i" ram_data [7:0] $end
$scope function clogb2 $end
$var integer 32 j" depth [31:0] $end
$upscope $end
$scope begin output_register $end
$var reg 8 k" douta_reg [7:0] $end
$upscope $end
$scope begin use_init_file $end
$upscope $end
$upscope $end
$scope module i9_luigi $end
$var wire 10 l" addra [9:0] $end
$var wire 1 " clka $end
$var wire 8 m" dina [7:0] $end
$var wire 1 - ena $end
$var wire 1 n" regcea $end
$var wire 1 ) rsta $end
$var wire 1 o" wea $end
$var wire 8 p" douta [7:0] $end
$var parameter 176 q" INIT_FILE $end
$var parameter 32 r" RAM_DEPTH $end
$var parameter 128 s" RAM_PERFORMANCE $end
$var parameter 32 t" RAM_WIDTH $end
$var reg 8 u" ram_data [7:0] $end
$scope function clogb2 $end
$var integer 32 v" depth [31:0] $end
$upscope $end
$scope begin output_register $end
$var reg 8 w" douta_reg [7:0] $end
$upscope $end
$scope begin use_init_file $end
$upscope $end
$upscope $end
$scope module logarithm $end
$var wire 8 x" addra [7:0] $end
$var wire 1 " clka $end
$var wire 13 y" dina [12:0] $end
$var wire 1 z" ena $end
$var wire 1 {" regcea $end
$var wire 1 ) rsta $end
$var wire 1 |" wea $end
$var wire 13 }" douta [12:0] $end
$var parameter 96 ~" INIT_FILE $end
$var parameter 32 !# RAM_DEPTH $end
$var parameter 128 "# RAM_PERFORMANCE $end
$var parameter 32 ## RAM_WIDTH $end
$var reg 13 $# ram_data [12:0] $end
$scope function clogb2 $end
$var integer 32 %# depth [31:0] $end
$upscope $end
$scope begin output_register $end
$var reg 13 &# douta_reg [12:0] $end
$upscope $end
$scope begin use_init_file $end
$upscope $end
$upscope $end
$scope module p0_black_square_pal $end
$var wire 8 '# addra [7:0] $end
$var wire 1 " clka $end
$var wire 12 (# dina [11:0] $end
$var wire 1 )# ena $end
$var wire 1 *# regcea $end
$var wire 1 ) rsta $end
$var wire 1 +# wea $end
$var wire 12 ,# douta [11:0] $end
$var parameter 160 -# INIT_FILE $end
$var parameter 32 .# RAM_DEPTH $end
$var parameter 128 /# RAM_PERFORMANCE $end
$var parameter 32 0# RAM_WIDTH $end
$var reg 12 1# ram_data [11:0] $end
$scope function clogb2 $end
$var integer 32 2# depth [31:0] $end
$upscope $end
$scope begin output_register $end
$var reg 12 3# douta_reg [11:0] $end
$upscope $end
$scope begin use_init_file $end
$upscope $end
$upscope $end
$scope module p1_type $end
$var wire 8 4# addra [7:0] $end
$var wire 1 " clka $end
$var wire 12 5# dina [11:0] $end
$var wire 1 6# ena $end
$var wire 1 7# regcea $end
$var wire 1 ) rsta $end
$var wire 1 8# wea $end
$var wire 12 9# douta [11:0] $end
$var parameter 216 :# INIT_FILE $end
$var parameter 32 ;# RAM_DEPTH $end
$var parameter 128 <# RAM_PERFORMANCE $end
$var parameter 32 =# RAM_WIDTH $end
$var reg 12 ># ram_data [11:0] $end
$scope function clogb2 $end
$var integer 32 ?# depth [31:0] $end
$upscope $end
$scope begin output_register $end
$var reg 12 @# douta_reg [11:0] $end
$upscope $end
$scope begin use_init_file $end
$upscope $end
$upscope $end
$scope module p2_type $end
$var wire 8 A# addra [7:0] $end
$var wire 1 " clka $end
$var wire 12 B# dina [11:0] $end
$var wire 1 C# ena $end
$var wire 1 D# regcea $end
$var wire 1 ) rsta $end
$var wire 1 E# wea $end
$var wire 12 F# douta [11:0] $end
$var parameter 40 G# INIT_FILE $end
$var parameter 32 H# RAM_DEPTH $end
$var parameter 128 I# RAM_PERFORMANCE $end
$var parameter 32 J# RAM_WIDTH $end
$var reg 12 K# ram_data [11:0] $end
$scope function clogb2 $end
$var integer 32 L# depth [31:0] $end
$upscope $end
$scope begin output_register $end
$var reg 12 M# douta_reg [11:0] $end
$upscope $end
$scope begin use_init_file $end
$upscope $end
$upscope $end
$scope module p3_type $end
$var wire 8 N# addra [7:0] $end
$var wire 1 " clka $end
$var wire 12 O# dina [11:0] $end
$var wire 1 P# ena $end
$var wire 1 Q# regcea $end
$var wire 1 ) rsta $end
$var wire 1 R# wea $end
$var wire 12 S# douta [11:0] $end
$var parameter 40 T# INIT_FILE $end
$var parameter 32 U# RAM_DEPTH $end
$var parameter 128 V# RAM_PERFORMANCE $end
$var parameter 32 W# RAM_WIDTH $end
$var reg 12 X# ram_data [11:0] $end
$scope function clogb2 $end
$var integer 32 Y# depth [31:0] $end
$upscope $end
$scope begin output_register $end
$var reg 12 Z# douta_reg [11:0] $end
$upscope $end
$scope begin use_init_file $end
$upscope $end
$upscope $end
$scope module p4_type $end
$var wire 8 [# addra [7:0] $end
$var wire 1 " clka $end
$var wire 12 \# dina [11:0] $end
$var wire 1 ]# ena $end
$var wire 1 ^# regcea $end
$var wire 1 ) rsta $end
$var wire 1 _# wea $end
$var wire 12 `# douta [11:0] $end
$var parameter 40 a# INIT_FILE $end
$var parameter 32 b# RAM_DEPTH $end
$var parameter 128 c# RAM_PERFORMANCE $end
$var parameter 32 d# RAM_WIDTH $end
$var reg 12 e# ram_data [11:0] $end
$scope function clogb2 $end
$var integer 32 f# depth [31:0] $end
$upscope $end
$scope begin output_register $end
$var reg 12 g# douta_reg [11:0] $end
$upscope $end
$scope begin use_init_file $end
$upscope $end
$upscope $end
$scope module p5_type $end
$var wire 8 h# addra [7:0] $end
$var wire 1 " clka $end
$var wire 12 i# dina [11:0] $end
$var wire 1 j# ena $end
$var wire 1 k# regcea $end
$var wire 1 ) rsta $end
$var wire 1 l# wea $end
$var wire 12 m# douta [11:0] $end
$var parameter 40 n# INIT_FILE $end
$var parameter 32 o# RAM_DEPTH $end
$var parameter 128 p# RAM_PERFORMANCE $end
$var parameter 32 q# RAM_WIDTH $end
$var reg 12 r# ram_data [11:0] $end
$scope function clogb2 $end
$var integer 32 s# depth [31:0] $end
$upscope $end
$scope begin output_register $end
$var reg 12 t# douta_reg [11:0] $end
$upscope $end
$scope begin use_init_file $end
$upscope $end
$upscope $end
$scope module p6_type $end
$var wire 8 u# addra [7:0] $end
$var wire 1 " clka $end
$var wire 12 v# dina [11:0] $end
$var wire 1 w# ena $end
$var wire 1 x# regcea $end
$var wire 1 ) rsta $end
$var wire 1 y# wea $end
$var wire 12 z# douta [11:0] $end
$var parameter 40 {# INIT_FILE $end
$var parameter 32 |# RAM_DEPTH $end
$var parameter 128 }# RAM_PERFORMANCE $end
$var parameter 32 ~# RAM_WIDTH $end
$var reg 12 !$ ram_data [11:0] $end
$scope function clogb2 $end
$var integer 32 "$ depth [31:0] $end
$upscope $end
$scope begin output_register $end
$var reg 12 #$ douta_reg [11:0] $end
$upscope $end
$scope begin use_init_file $end
$upscope $end
$upscope $end
$scope module p7_type $end
$var wire 8 $$ addra [7:0] $end
$var wire 1 " clka $end
$var wire 12 %$ dina [11:0] $end
$var wire 1 &$ ena $end
$var wire 1 '$ regcea $end
$var wire 1 ) rsta $end
$var wire 1 ($ wea $end
$var wire 12 )$ douta [11:0] $end
$var parameter 40 *$ INIT_FILE $end
$var parameter 32 +$ RAM_DEPTH $end
$var parameter 128 ,$ RAM_PERFORMANCE $end
$var parameter 32 -$ RAM_WIDTH $end
$var reg 12 .$ ram_data [11:0] $end
$scope function clogb2 $end
$var integer 32 /$ depth [31:0] $end
$upscope $end
$scope begin output_register $end
$var reg 12 0$ douta_reg [11:0] $end
$upscope $end
$scope begin use_init_file $end
$upscope $end
$upscope $end
$scope module p8_mario $end
$var wire 8 1$ addra [7:0] $end
$var wire 1 " clka $end
$var wire 12 2$ dina [11:0] $end
$var wire 1 3$ ena $end
$var wire 1 4$ regcea $end
$var wire 1 ) rsta $end
$var wire 1 5$ wea $end
$var wire 12 6$ douta [11:0] $end
$var parameter 208 7$ INIT_FILE $end
$var parameter 32 8$ RAM_DEPTH $end
$var parameter 128 9$ RAM_PERFORMANCE $end
$var parameter 32 :$ RAM_WIDTH $end
$var reg 12 ;$ ram_data [11:0] $end
$scope function clogb2 $end
$var integer 32 <$ depth [31:0] $end
$upscope $end
$scope begin output_register $end
$var reg 12 =$ douta_reg [11:0] $end
$upscope $end
$scope begin use_init_file $end
$upscope $end
$upscope $end
$scope module p9_luigi $end
$var wire 8 >$ addra [7:0] $end
$var wire 1 " clka $end
$var wire 12 ?$ dina [11:0] $end
$var wire 1 @$ ena $end
$var wire 1 A$ regcea $end
$var wire 1 ) rsta $end
$var wire 1 B$ wea $end
$var wire 12 C$ douta [11:0] $end
$var parameter 208 D$ INIT_FILE $end
$var parameter 32 E$ RAM_DEPTH $end
$var parameter 128 F$ RAM_PERFORMANCE $end
$var parameter 32 G$ RAM_WIDTH $end
$var reg 12 H$ ram_data [11:0] $end
$scope function clogb2 $end
$var integer 32 I$ depth [31:0] $end
$upscope $end
$scope begin output_register $end
$var reg 12 J$ douta_reg [11:0] $end
$upscope $end
$scope begin use_init_file $end
$upscope $end
$upscope $end
$scope module sine_2 $end
$var wire 9 K$ addra [8:0] $end
$var wire 1 " clka $end
$var wire 11 L$ dina [10:0] $end
$var wire 1 M$ ena $end
$var wire 1 N$ regcea $end
$var wire 1 ) rsta $end
$var wire 1 O$ wea $end
$var wire 11 P$ douta [10:0] $end
$var parameter 96 Q$ INIT_FILE $end
$var parameter 32 R$ RAM_DEPTH $end
$var parameter 128 S$ RAM_PERFORMANCE $end
$var parameter 32 T$ RAM_WIDTH $end
$var reg 11 U$ ram_data [10:0] $end
$scope function clogb2 $end
$var integer 32 V$ depth [31:0] $end
$upscope $end
$scope begin output_register $end
$var reg 11 W$ douta_reg [10:0] $end
$upscope $end
$scope begin use_init_file $end
$upscope $end
$upscope $end
$scope module track_2 $end
$var wire 8 X$ addra [7:0] $end
$var wire 1 " clka $end
$var wire 4 Y$ dina [3:0] $end
$var wire 1 Z$ ena $end
$var wire 1 [$ regcea $end
$var wire 1 ) rsta $end
$var wire 1 \$ wea $end
$var wire 4 ]$ douta [3:0] $end
$var parameter 112 ^$ INIT_FILE $end
$var parameter 32 _$ RAM_DEPTH $end
$var parameter 128 `$ RAM_PERFORMANCE $end
$var parameter 32 a$ RAM_WIDTH $end
$var reg 4 b$ ram_data [3:0] $end
$scope function clogb2 $end
$var integer 32 c$ depth [31:0] $end
$upscope $end
$scope begin output_register $end
$var reg 4 d$ douta_reg [3:0] $end
$upscope $end
$scope begin use_init_file $end
$upscope $end
$upscope $end
$scope begin $ivl_for_loop2 $end
$var integer 32 e$ i [31:0] $end
$upscope $end
$upscope $end
$scope begin $ivl_for_loop0 $end
$var integer 32 f$ i [31:0] $end
$scope begin $ivl_for_loop1 $end
$var integer 32 g$ j [31:0] $end
$upscope $end
$upscope $end
$upscope $end
$enddefinitions $end
$comment Show the parameter values. $end
$dumpall
b100 a$
b1001000010010010100011101001000010111110101000001000101010100100100011001001111010100100100110101000001010011100100001101000101 `$
b100000000 _$
b110010001100001011101000110000100101111011101000111001001100001011000110110101100101110011011010110010101101101 ^$
b1011 T$
b1001000010010010100011101001000010111110101000001000101010100100100011001001111010100100100110101000001010011100100001101000101 S$
b101101000 R$
b11001000110000101110100011000010010111101110011011010010110111000101110011011010110010101101101 Q$
b1100 G$
b1001000010010010100011101001000010111110101000001000101010100100100011001001111010100100100110101000001010011100100001101000101 F$
b100000000 E$
b110010001100001011101000110000100101111001100000011100101011111011011000111010101101001011001110110100101011111011010010110001101101111011011100101111101110000011000010110110000101110011011010110010101101101 D$
b1100 :$
b1001000010010010100011101001000010111110101000001000101010100100100011001001111010100100100110101000001010011100100001101000101 9$
b100000000 8$
b110010001100001011101000110000100101111001100000011100001011111011011010110000101110010011010010110111101011111011010010110001101101111011011100101111101110000011000010110110000101110011011010110010101101101 7$
b1100 -$
b1001000010010010100011101001000010111110101000001000101010100100100011001001111010100100100110101000001010011100100001101000101 ,$
b100000000 +$
b110010001100001011101000110000100101111 *$
b1100 ~#
b1001000010010010100011101001000010111110101000001000101010100100100011001001111010100100100110101000001010011100100001101000101 }#
b100000000 |#
b110010001100001011101000110000100101111 {#
b1100 q#
b1001000010010010100011101001000010111110101000001000101010100100100011001001111010100100100110101000001010011100100001101000101 p#
b100000000 o#
b110010001100001011101000110000100101111 n#
b1100 d#
b1001000010010010100011101001000010111110101000001000101010100100100011001001111010100100100110101000001010011100100001101000101 c#
b100000000 b#
b110010001100001011101000110000100101111 a#
b1100 W#
b1001000010010010100011101001000010111110101000001000101010100100100011001001111010100100100110101000001010011100100001101000101 V#
b100000000 U#
b110010001100001011101000110000100101111 T#
b1100 J#
b1001000010010010100011101001000010111110101000001000101010100100100011001001111010100100100110101000001010011100100001101000101 I#
b100000000 H#
b110010001100001011101000110000100101111 G#
b1100 =#
b1001000010010010100011101001000010111110101000001000101010100100100011001001111010100100100110101000001010011100100001101000101 <#
b100000000 ;#
b11001000110000101110100011000010010111100110000001100010101111101101110011011110111001001101101011000010110110001011111011100110110000101101110011001000101111101110000011000010110110000101110011011010110010101101101 :#
b1100 0#
b1001000010010010100011101001000010111110101000001000101010100100100011001001111010100100100110101000001010011100100001101000101 /#
b100000000 .#
b110010001100001011101000110000100101111001100000011000001011111011100100110111101100001011001000101111101110000011000010110110000101110011011010110010101101101 -#
b1101 ##
b1001000010010010100011101001000010111110101000001000101010100100100011001001111010100100100110101000001010011100100001101000101 "#
b100000000 !#
b11001000110000101110100011000010010111101101100011011110110011100101110011011010110010101101101 ~"
b1000 t"
b1001000010010010100011101001000010111110101000001000101010100100100011001001111010100100100110101000001010011100100001101000101 s"
b10000000000 r"
b1100100011000010111010001100001001011110011000000111001010111110110110001110101011010010110011101101001010111110110100101100011011011110110111000101110011011010110010101101101 q"
b1000 h"
b1001000010010010100011101001000010111110101000001000101010100100100011001001111010100100100110101000001010011100100001101000101 g"
b10000000000 f"
b1100100011000010111010001100001001011110011000000111000010111110110110101100001011100100110100101101111010111110110100101100011011011110110111000101110011011010110010101101101 e"
b1000 \"
b1001000010010010100011101001000010111110101000001000101010100100100011001001111010100100100110101000001010011100100001101000101 ["
b10000000000 Z"
b110010001100001011101000110000100101111 Y"
b1000 O"
b1001000010010010100011101001000010111110101000001000101010100100100011001001111010100100100110101000001010011100100001101000101 N"
b10000000000 M"
b110010001100001011101000110000100101111 L"
b1000 B"
b1001000010010010100011101001000010111110101000001000101010100100100011001001111010100100100110101000001010011100100001101000101 A"
b10000000000 @"
b110010001100001011101000110000100101111 ?"
b1000 5"
b1001000010010010100011101001000010111110101000001000101010100100100011001001111010100100100110101000001010011100100001101000101 4"
b10000000000 3"
b110010001100001011101000110000100101111 2"
b1000 ("
b1001000010010010100011101001000010111110101000001000101010100100100011001001111010100100100110101000001010011100100001101000101 '"
b10000000000 &"
b110010001100001011101000110000100101111 %"
b1000 y
b1001000010010010100011101001000010111110101000001000101010100100100011001001111010100100100110101000001010011100100001101000101 x
b10000000000 w
b110010001100001011101000110000100101111 v
b1000 l
b1001000010010010100011101001000010111110101000001000101010100100100011001001111010100100100110101000001010011100100001101000101 k
b10000000000 j
b110010001100001011101000110000100101111001100000011000101011111011011100110111101110010011011010110000101101100010111110111001101100001011011100110010000101110011011010110010101101101 i
b1000 _
b1001000010010010100011101001000010111110101000001000101010100100100011001001111010100100100110101000001010011100100001101000101 ^
b10000000000 ]
b1100100011000010111010001100001001011110011000000110000010111110111001001101111011000010110010000101110011011010110010101101101 \
b1011 R
b1001000010010010100011101001000010111110101000001000101010100100100011001001111010100100100110101000001010011100100001101000101 Q
b101101000 P
b11001000110000101110100011000010010111101100011011011110111001100101110011011010110010101101101 O
$end
#0
$dumpvars
b0 g$
b0 f$
b0 e$
b0 d$
bx c$
b0 b$
b0 ]$
0\$
1[$
1Z$
b0 Y$
bx X$
b0 W$
bx V$
b0 U$
b0 P$
0O$
1N$
1M$
b0 L$
bx K$
b0 J$
bx I$
b0 H$
b0 C$
0B$
1A$
x@$
b0 ?$
b0 >$
b0 =$
bx <$
b0 ;$
b0 6$
05$
14$
x3$
b0 2$
b0 1$
b0 0$
bx /$
b0 .$
b0 )$
0($
1'$
0&$
b0 %$
b0 $$
b0 #$
bx "$
b0 !$
b0 z#
0y#
1x#
0w#
b0 v#
b0 u#
b0 t#
bx s#
b0 r#
b0 m#
0l#
1k#
0j#
b0 i#
b0 h#
b0 g#
bx f#
b0 e#
b0 `#
0_#
1^#
0]#
b0 \#
b0 [#
b0 Z#
bx Y#
b0 X#
b0 S#
0R#
1Q#
0P#
b0 O#
b0 N#
b0 M#
bx L#
b0 K#
b0 F#
0E#
1D#
0C#
b0 B#
b0 A#
b0 @#
bx ?#
b0 >#
b0 9#
08#
17#
06#
b0 5#
b0 4#
b0 3#
bx 2#
b0 1#
b0 ,#
0+#
1*#
1)#
b0 (#
b0 '#
b0 &#
bx %#
b0 $#
b0 }"
0|"
1{"
1z"
b0 y"
bx x"
b0 w"
bx v"
b0 u"
b0 p"
0o"
1n"
b0 m"
bx l"
b0 k"
bx j"
b0 i"
b0 d"
0c"
1b"
b0 a"
bx `"
b0 _"
bx ^"
b0 ]"
b0 X"
0W"
1V"
1U"
b0 T"
bx S"
b0 R"
bx Q"
b0 P"
b0 K"
0J"
1I"
1H"
b0 G"
bx F"
b0 E"
bx D"
b0 C"
b0 >"
0="
1<"
1;"
b0 :"
bx 9"
b0 8"
bx 7"
b0 6"
b0 1"
00"
1/"
1."
b0 -"
bx ,"
b0 +"
bx *"
b0 )"
b0 $"
0#"
1""
1!"
b0 ~
bx }
b0 |
bx {
b0 z
b0 u
0t
1s
1r
b0 q
bx p
b0 o
bx n
b0 m
b0 h
0g
1f
1e
b0 d
bx c
b0 b
bx a
b0 `
b0 [
0Z
1Y
1X
b0 W
bx V
b0 U
bx T
b0 S
b0 N
0M
1L
1K
b0 J
bx I
bx H
bx G
bx F
bx E
bx D
bx C
bx B
bx A
bx @
bx ?
bx >
b0 =
b0 <
bx ;
bz000000000000000000000000000000000000000000000000000000000000000000000000000000000000000000000000000000000000000000000000 :
b0 9
bx 8
b0 7
bx 6
b0 5
bx 4
bx 3
bx 2
bx 1
bx 0
bx /
x.
x-
bx ,
bx +
bx *
1)
bx (
bx '
bx &
bx %
bx $
bx #
0"
bx !
$end
#10000
bx $#
bx b$
bx S
bx U$
bx `
b110011001100 1#
bx m
bx z
bx )"
bx 6"
bx C"
bx P"
bx ]"
b10000100000 ?
bx0000 G
b10 e$
1"
#20000
0"
b100001110 #
b100001110 +
b100001110 I
b100001110 K$
b10111111 &
b10111111 0
b10100110000 %
b10100110000 /
b10111111 (
b10111111 2
b10010110000 '
b10010110000 1
0)
#30000
bx $$
bx u#
bx h#
bx [#
bx N#
bx A#
bx 4#
bx '#
b0 G
bx X"
bx _"
bx K"
bx R"
bx >"
bx E"
bx 1"
bx 8"
bx $"
bx +"
bx u
bx |
bx h
bx o
bz000000000000000000000000000000000000000000000000000000000000000000000000000000000000000000000000000000000000110011001100 :
b110011001100 ,#
b110011001100 3#
b0xxxxxxxxxxxxxxxxxxxxxxxxxxxxxxxxxxxxxxxxxxxxxxxxxxxxxxxxxxxxxxxx 9
bx [
bx b
b11000000000 U$
bx 7
bx P$
bx W$
b0 S
bx =
bx N
bx U
x&$
xw#
xj#
x]#
xP#
xC#
x6#
x)#
bx 5
bx ]$
bx d$
bx <
bx }"
bx &#
b10 e$
1"
#40000
b11111111 x"
0"
b1000000000 *
b1000000000 3
b1011111111 $
b1011111111 ,
b1011111111 g$
b1000000000 f$
#50000
b0 $#
b0 =
b0 N
b0 U
b11000000000 7
b11000000000 P$
b11000000000 W$
bx01011111111 @
bx1000000000 H
bx ?
b110011001100 !
b110011001100 E
b0xxxx G
b10 e$
1"
#60000
b11111110 x"
0"
b1000000001 *
b1000000001 3
b1000000001 f$
b1011111111 g$
#70000
bx G
b1000000000 $#
b0 <
b0 }"
b0 &#
b101111111101011111111 @
b10000000001000000001 H
b10 e$
1"
#80000
b11111101 x"
0"
b1000000010 *
b1000000010 3
b1000000010 f$
b1011111111 g$
#90000
b1000000000 <
b1000000000 }"
b1000000000 &#
b1100101011 $#
b10000000011000000010 H
b10000100000 ?
bx !
bx E
b10 e$
1"
#100000
b11111100 x"
0"
b1000000011 *
b1000000011 3
b1000000011 f$
b1011111111 g$
#110000
b10000000000 $#
b1100101011 <
b1100101011 }"
b1100101011 &#
b10000000101000000011 H
b0 >
b1110100000 ?
b10 e$
1"
#120000
b11111011 x"
0"
b1000000100 *
b1000000100 3
b1000000100 f$
b1011111111 g$
#130000
0.
0-
b10000 4
b10000 X$
b111110111 8
b111110111 `"
b111110111 ;
b111110111 l"
b111110100 6
b111110100 V
b111110100 c
b111110100 p
b111110100 }
b111110100 ,"
b111110100 9"
b111110100 F"
b111110100 S"
b10000000000 <
b10000000000 }"
b10000000000 &#
b10010100100 $#
b10000000111000000100 H
b10111111 D
b100001010000 C
b1101010110 ?
b10 e$
1"
#140000
b11111010 x"
0"
b1000000101 *
b1000000101 3
b1000000101 f$
b1011111111 g$
