forward_view.vcd
$date
	Tue Dec 13 00:23:02 2022
$end
$version
	Icarus Verilog
$end
$timescale
	1ps
$end
$scope module forward_view_tb $end
$var wire 12 ! pixel_out [11:0] $end
$var reg 1 " clk_in $end
$var reg 9 # direction [8:0] $end
$var reg 11 $ hcount_in [10:0] $end
$var reg 11 % opponent_x [10:0] $end
$var reg 11 & opponent_y [10:0] $end
$var reg 11 ' player_x [10:0] $end
$var reg 11 ( player_y [10:0] $end
$var reg 1 ) rst_in $end
$var reg 10 * vcount_in [9:0] $end
$scope module uut $end
$var wire 1 " clk_in $end
$var wire 9 + direction [8:0] $end
$var wire 11 , hcount_in [10:0] $end
$var wire 1 - in_opponent $end
$var wire 1 . in_player $end
$var wire 11 / opponent_x [10:0] $end
$var wire 11 0 opponent_y [10:0] $end
$var wire 11 1 player_x [10:0] $end
$var wire 11 2 player_y [10:0] $end
$var wire 1 ) rst_in $end
$var wire 10 3 vcount_in [9:0] $end
$var wire 8 4 track_addr [7:0] $end
$var wire 4 5 sprite_type [3:0] $end
$var wire 10 6 sprite_addr [9:0] $end
$var wire 11 7 sin [10:0] $end
$var wire 10 8 player_addr [9:0] $end
$var wire 80 9 palette_addr [79:0] $end
$var wire 192 : output_color [191:0] $end
$var wire 10 ; opponent_addr [9:0] $end
$var wire 4 < obstacle_type [3:0] $end
$var wire 13 = log [12:0] $end
$var wire 11 > cos [10:0] $end
$var reg 22 ? conv_x [21:0] $end
$var reg 22 @ conv_y [21:0] $end
$var reg 22 A hcount_pipe [21:0] $end
$var reg 4 B in_opponent_pipe [3:0] $end
$var reg 4 C in_player_pipe [3:0] $end
$var reg 12 D loc_x [11:0] $end
$var reg 12 E loc_y [11:0] $end
$var reg 8 F obstacle_type_pipe [7:0] $end
$var reg 12 G pixel_out [11:0] $end
$var reg 20 H player_addr_pipe [19:0] $end
$var reg 8 I sprite_type_pipe [7:0] $end
$var reg 20 J vcount_pipe [19:0] $end
$scope module i0_type $end
$var wire 10 K addra [9:0] $end
$var wire 1 " clka $end
$var wire 8 L dina [7:0] $end
$var wire 1 M ena $end
$var wire 1 N regcea $end
$var wire 1 ) rsta $end
$var wire 1 O wea $end
$var wire 8 P douta [7:0] $end
$var parameter 168 Q INIT_FILE $end
$var parameter 32 R RAM_DEPTH $end
$var parameter 128 S RAM_PERFORMANCE $end
$var parameter 32 T RAM_WIDTH $end
$var reg 8 U ram_data [7:0] $end
$scope function clogb2 $end
$var integer 32 V depth [31:0] $end
$upscope $end
$scope begin output_register $end
$var reg 8 W douta_reg [7:0] $end
$upscope $end
$scope begin use_init_file $end
$upscope $end
$upscope $end
$scope module i1_type $end
$var wire 10 X addra [9:0] $end
$var wire 1 " clka $end
$var wire 8 Y dina [7:0] $end
$var wire 1 Z ena $end
$var wire 1 [ regcea $end
$var wire 1 ) rsta $end
$var wire 1 \ wea $end
$var wire 8 ] douta [7:0] $end
$var parameter 184 ^ INIT_FILE $end
$var parameter 32 _ RAM_DEPTH $end
$var parameter 128 ` RAM_PERFORMANCE $end
$var parameter 32 a RAM_WIDTH $end
$var reg 8 b ram_data [7:0] $end
$scope function clogb2 $end
$var integer 32 c depth [31:0] $end
$upscope $end
$scope begin output_register $end
$var reg 8 d douta_reg [7:0] $end
$upscope $end
$scope begin use_init_file $end
$upscope $end
$upscope $end
$scope module i2_type $end
$var wire 10 e addra [9:0] $end
$var wire 1 " clka $end
$var wire 8 f dina [7:0] $end
$var wire 1 g ena $end
$var wire 1 h regcea $end
$var wire 1 ) rsta $end
$var wire 1 i wea $end
$var wire 8 j douta [7:0] $end
$var parameter 176 k INIT_FILE $end
$var parameter 32 l RAM_DEPTH $end
$var parameter 128 m RAM_PERFORMANCE $end
$var parameter 32 n RAM_WIDTH $end
$var reg 8 o ram_data [7:0] $end
$scope function clogb2 $end
$var integer 32 p depth [31:0] $end
$upscope $end
$scope begin output_register $end
$var reg 8 q douta_reg [7:0] $end
$upscope $end
$scope begin use_init_file $end
$upscope $end
$upscope $end
$scope module i3_type $end
$var wire 10 r addra [9:0] $end
$var wire 1 " clka $end
$var wire 8 s dina [7:0] $end
$var wire 1 t ena $end
$var wire 1 u regcea $end
$var wire 1 ) rsta $end
$var wire 1 v wea $end
$var wire 8 w douta [7:0] $end
$var parameter 40 x INIT_FILE $end
$var parameter 32 y RAM_DEPTH $end
$var parameter 128 z RAM_PERFORMANCE $end
$var parameter 32 { RAM_WIDTH $end
$var reg 8 | ram_data [7:0] $end
$scope function clogb2 $end
$var integer 32 } depth [31:0] $end
$upscope $end
$scope begin output_register $end
$var reg 8 ~ douta_reg [7:0] $end
$upscope $end
$scope begin use_init_file $end
$upscope $end
$upscope $end
$scope module i4_type $end
$var wire 10 !" addra [9:0] $end
$var wire 1 " clka $end
$var wire 8 "" dina [7:0] $end
$var wire 1 #" ena $end
$var wire 1 $" regcea $end
$var wire 1 ) rsta $end
$var wire 1 %" wea $end
$var wire 8 &" douta [7:0] $end
$var parameter 40 '" INIT_FILE $end
$var parameter 32 (" RAM_DEPTH $end
$var parameter 128 )" RAM_PERFORMANCE $end
$var parameter 32 *" RAM_WIDTH $end
$var reg 8 +" ram_data [7:0] $end
$scope function clogb2 $end
$var integer 32 ," depth [31:0] $end
$upscope $end
$scope begin output_register $end
$var reg 8 -" douta_reg [7:0] $end
$upscope $end
$scope begin use_init_file $end
$upscope $end
$upscope $end
$scope module i5_type $end
$var wire 10 ." addra [9:0] $end
$var wire 1 " clka $end
$var wire 8 /" dina [7:0] $end
$var wire 1 0" ena $end
$var wire 1 1" regcea $end
$var wire 1 ) rsta $end
$var wire 1 2" wea $end
$var wire 8 3" douta [7:0] $end
$var parameter 144 4" INIT_FILE $end
$var parameter 32 5" RAM_DEPTH $end
$var parameter 128 6" RAM_PERFORMANCE $end
$var parameter 32 7" RAM_WIDTH $end
$var reg 8 8" ram_data [7:0] $end
$scope function clogb2 $end
$var integer 32 9" depth [31:0] $end
$upscope $end
$scope begin output_register $end
$var reg 8 :" douta_reg [7:0] $end
$upscope $end
$scope begin use_init_file $end
$upscope $end
$upscope $end
$scope module i6_type $end
$var wire 10 ;" addra [9:0] $end
$var wire 1 " clka $end
$var wire 8 <" dina [7:0] $end
$var wire 1 =" ena $end
$var wire 1 >" regcea $end
$var wire 1 ) rsta $end
$var wire 1 ?" wea $end
$var wire 8 @" douta [7:0] $end
$var parameter 168 A" INIT_FILE $end
$var parameter 32 B" RAM_DEPTH $end
$var parameter 128 C" RAM_PERFORMANCE $end
$var parameter 32 D" RAM_WIDTH $end
$var reg 8 E" ram_data [7:0] $end
$scope function clogb2 $end
$var integer 32 F" depth [31:0] $end
$upscope $end
$scope begin output_register $end
$var reg 8 G" douta_reg [7:0] $end
$upscope $end
$scope begin use_init_file $end
$upscope $end
$upscope $end
$scope module i7_type $end
$var wire 10 H" addra [9:0] $end
$var wire 1 " clka $end
$var wire 8 I" dina [7:0] $end
$var wire 1 J" ena $end
$var wire 1 K" regcea $end
$var wire 1 ) rsta $end
$var wire 1 L" wea $end
$var wire 8 M" douta [7:0] $end
$var parameter 40 N" INIT_FILE $end
$var parameter 32 O" RAM_DEPTH $end
$var parameter 128 P" RAM_PERFORMANCE $end
$var parameter 32 Q" RAM_WIDTH $end
$var reg 8 R" ram_data [7:0] $end
$scope function clogb2 $end
$var integer 32 S" depth [31:0] $end
$upscope $end
$scope begin output_register $end
$var reg 8 T" douta_reg [7:0] $end
$upscope $end
$scope begin use_init_file $end
$upscope $end
$upscope $end
$scope module i8_mario $end
$var wire 10 U" addra [9:0] $end
$var wire 1 " clka $end
$var wire 8 V" dina [7:0] $end
$var wire 1 . ena $end
$var wire 1 W" regcea $end
$var wire 1 ) rsta $end
$var wire 1 X" wea $end
$var wire 8 Y" douta [7:0] $end
$var parameter 176 Z" INIT_FILE $end
$var parameter 32 [" RAM_DEPTH $end
$var parameter 128 \" RAM_PERFORMANCE $end
$var parameter 32 ]" RAM_WIDTH $end
$var reg 8 ^" ram_data [7:0] $end
$scope function clogb2 $end
$var integer 32 _" depth [31:0] $end
$upscope $end
$scope begin output_register $end
$var reg 8 `" douta_reg [7:0] $end
$upscope $end
$scope begin use_init_file $end
$upscope $end
$upscope $end
$scope module i9_luigi $end
$var wire 10 a" addra [9:0] $end
$var wire 1 " clka $end
$var wire 8 b" dina [7:0] $end
$var wire 1 - ena $end
$var wire 1 c" regcea $end
$var wire 1 ) rsta $end
$var wire 1 d" wea $end
$var wire 8 e" douta [7:0] $end
$var parameter 176 f" INIT_FILE $end
$var parameter 32 g" RAM_DEPTH $end
$var parameter 128 h" RAM_PERFORMANCE $end
$var parameter 32 i" RAM_WIDTH $end
$var reg 8 j" ram_data [7:0] $end
$scope function clogb2 $end
$var integer 32 k" depth [31:0] $end
$upscope $end
$scope begin output_register $end
$var reg 8 l" douta_reg [7:0] $end
$upscope $end
$scope begin use_init_file $end
$upscope $end
$upscope $end
$scope module logarithm $end
$var wire 8 m" addra [7:0] $end
$var wire 1 " clka $end
$var wire 13 n" dina [12:0] $end
$var wire 1 o" ena $end
$var wire 1 p" regcea $end
$var wire 1 ) rsta $end
$var wire 1 q" wea $end
$var wire 13 r" douta [12:0] $end
$var parameter 96 s" INIT_FILE $end
$var parameter 32 t" RAM_DEPTH $end
$var parameter 128 u" RAM_PERFORMANCE $end
$var parameter 32 v" RAM_WIDTH $end
$var reg 13 w" ram_data [12:0] $end
$scope function clogb2 $end
$var integer 32 x" depth [31:0] $end
$upscope $end
$scope begin output_register $end
$var reg 13 y" douta_reg [12:0] $end
$upscope $end
$scope begin use_init_file $end
$upscope $end
$upscope $end
$scope module p0_black_square_pal $end
$var wire 8 z" addra [7:0] $end
$var wire 1 " clka $end
$var wire 12 {" dina [11:0] $end
$var wire 1 |" ena $end
$var wire 1 }" regcea $end
$var wire 1 ) rsta $end
$var wire 1 ~" wea $end
$var wire 12 !# douta [11:0] $end
$var parameter 200 "# INIT_FILE $end
$var parameter 32 ## RAM_DEPTH $end
$var parameter 128 $# RAM_PERFORMANCE $end
$var parameter 32 %# RAM_WIDTH $end
$var reg 12 &# ram_data [11:0] $end
$scope function clogb2 $end
$var integer 32 '# depth [31:0] $end
$upscope $end
$scope begin output_register $end
$var reg 12 (# douta_reg [11:0] $end
$upscope $end
$scope begin use_init_file $end
$upscope $end
$upscope $end
$scope module p1_type $end
$var wire 8 )# addra [7:0] $end
$var wire 1 " clka $end
$var wire 12 *# dina [11:0] $end
$var wire 1 +# ena $end
$var wire 1 ,# regcea $end
$var wire 1 ) rsta $end
$var wire 1 -# wea $end
$var wire 12 .# douta [11:0] $end
$var parameter 216 /# INIT_FILE $end
$var parameter 32 0# RAM_DEPTH $end
$var parameter 128 1# RAM_PERFORMANCE $end
$var parameter 32 2# RAM_WIDTH $end
$var reg 12 3# ram_data [11:0] $end
$scope function clogb2 $end
$var integer 32 4# depth [31:0] $end
$upscope $end
$scope begin output_register $end
$var reg 12 5# douta_reg [11:0] $end
$upscope $end
$scope begin use_init_file $end
$upscope $end
$upscope $end
$scope module p2_type $end
$var wire 8 6# addra [7:0] $end
$var wire 1 " clka $end
$var wire 12 7# dina [11:0] $end
$var wire 1 8# ena $end
$var wire 1 9# regcea $end
$var wire 1 ) rsta $end
$var wire 1 :# wea $end
$var wire 12 ;# douta [11:0] $end
$var parameter 208 <# INIT_FILE $end
$var parameter 32 =# RAM_DEPTH $end
$var parameter 128 ># RAM_PERFORMANCE $end
$var parameter 32 ?# RAM_WIDTH $end
$var reg 12 @# ram_data [11:0] $end
$scope function clogb2 $end
$var integer 32 A# depth [31:0] $end
$upscope $end
$scope begin output_register $end
$var reg 12 B# douta_reg [11:0] $end
$upscope $end
$scope begin use_init_file $end
$upscope $end
$upscope $end
$scope module p3_type $end
$var wire 8 C# addra [7:0] $end
$var wire 1 " clka $end
$var wire 12 D# dina [11:0] $end
$var wire 1 E# ena $end
$var wire 1 F# regcea $end
$var wire 1 ) rsta $end
$var wire 1 G# wea $end
$var wire 12 H# douta [11:0] $end
$var parameter 40 I# INIT_FILE $end
$var parameter 32 J# RAM_DEPTH $end
$var parameter 128 K# RAM_PERFORMANCE $end
$var parameter 32 L# RAM_WIDTH $end
$var reg 12 M# ram_data [11:0] $end
$scope function clogb2 $end
$var integer 32 N# depth [31:0] $end
$upscope $end
$scope begin output_register $end
$var reg 12 O# douta_reg [11:0] $end
$upscope $end
$scope begin use_init_file $end
$upscope $end
$upscope $end
$scope module p4_type $end
$var wire 8 P# addra [7:0] $end
$var wire 1 " clka $end
$var wire 12 Q# dina [11:0] $end
$var wire 1 R# ena $end
$var wire 1 S# regcea $end
$var wire 1 ) rsta $end
$var wire 1 T# wea $end
$var wire 12 U# douta [11:0] $end
$var parameter 40 V# INIT_FILE $end
$var parameter 32 W# RAM_DEPTH $end
$var parameter 128 X# RAM_PERFORMANCE $end
$var parameter 32 Y# RAM_WIDTH $end
$var reg 12 Z# ram_data [11:0] $end
$scope function clogb2 $end
$var integer 32 [# depth [31:0] $end
$upscope $end
$scope begin output_register $end
$var reg 12 \# douta_reg [11:0] $end
$upscope $end
$scope begin use_init_file $end
$upscope $end
$upscope $end
$scope module p5_type $end
$var wire 8 ]# addra [7:0] $end
$var wire 1 " clka $end
$var wire 12 ^# dina [11:0] $end
$var wire 1 _# ena $end
$var wire 1 `# regcea $end
$var wire 1 ) rsta $end
$var wire 1 a# wea $end
$var wire 12 b# douta [11:0] $end
$var parameter 176 c# INIT_FILE $end
$var parameter 32 d# RAM_DEPTH $end
$var parameter 128 e# RAM_PERFORMANCE $end
$var parameter 32 f# RAM_WIDTH $end
$var reg 12 g# ram_data [11:0] $end
$scope function clogb2 $end
$var integer 32 h# depth [31:0] $end
$upscope $end
$scope begin output_register $end
$var reg 12 i# douta_reg [11:0] $end
$upscope $end
$scope begin use_init_file $end
$upscope $end
$upscope $end
$scope module p6_type $end
$var wire 8 j# addra [7:0] $end
$var wire 1 " clka $end
$var wire 12 k# dina [11:0] $end
$var wire 1 l# ena $end
$var wire 1 m# regcea $end
$var wire 1 ) rsta $end
$var wire 1 n# wea $end
$var wire 12 o# douta [11:0] $end
$var parameter 200 p# INIT_FILE $end
$var parameter 32 q# RAM_DEPTH $end
$var parameter 128 r# RAM_PERFORMANCE $end
$var parameter 32 s# RAM_WIDTH $end
$var reg 12 t# ram_data [11:0] $end
$scope function clogb2 $end
$var integer 32 u# depth [31:0] $end
$upscope $end
$scope begin output_register $end
$var reg 12 v# douta_reg [11:0] $end
$upscope $end
$scope begin use_init_file $end
$upscope $end
$upscope $end
$scope module p7_type $end
$var wire 8 w# addra [7:0] $end
$var wire 1 " clka $end
$var wire 12 x# dina [11:0] $end
$var wire 1 y# ena $end
$var wire 1 z# regcea $end
$var wire 1 ) rsta $end
$var wire 1 {# wea $end
$var wire 12 |# douta [11:0] $end
$var parameter 40 }# INIT_FILE $end
$var parameter 32 ~# RAM_DEPTH $end
$var parameter 128 !$ RAM_PERFORMANCE $end
$var parameter 32 "$ RAM_WIDTH $end
$var reg 12 #$ ram_data [11:0] $end
$scope function clogb2 $end
$var integer 32 $$ depth [31:0] $end
$upscope $end
$scope begin output_register $end
$var reg 12 %$ douta_reg [11:0] $end
$upscope $end
$scope begin use_init_file $end
$upscope $end
$upscope $end
$scope module p8_mario $end
$var wire 8 &$ addra [7:0] $end
$var wire 1 " clka $end
$var wire 12 '$ dina [11:0] $end
$var wire 1 ($ ena $end
$var wire 1 )$ regcea $end
$var wire 1 ) rsta $end
$var wire 1 *$ wea $end
$var wire 12 +$ douta [11:0] $end
$var parameter 208 ,$ INIT_FILE $end
$var parameter 32 -$ RAM_DEPTH $end
$var parameter 128 .$ RAM_PERFORMANCE $end
$var parameter 32 /$ RAM_WIDTH $end
$var reg 12 0$ ram_data [11:0] $end
$scope function clogb2 $end
$var integer 32 1$ depth [31:0] $end
$upscope $end
$scope begin output_register $end
$var reg 12 2$ douta_reg [11:0] $end
$upscope $end
$scope begin use_init_file $end
$upscope $end
$upscope $end
$scope module p9_luigi $end
$var wire 8 3$ addra [7:0] $end
$var wire 1 " clka $end
$var wire 12 4$ dina [11:0] $end
$var wire 1 5$ ena $end
$var wire 1 6$ regcea $end
$var wire 1 ) rsta $end
$var wire 1 7$ wea $end
$var wire 12 8$ douta [11:0] $end
$var parameter 208 9$ INIT_FILE $end
$var parameter 32 :$ RAM_DEPTH $end
$var parameter 128 ;$ RAM_PERFORMANCE $end
$var parameter 32 <$ RAM_WIDTH $end
$var reg 12 =$ ram_data [11:0] $end
$scope function clogb2 $end
$var integer 32 >$ depth [31:0] $end
$upscope $end
$scope begin output_register $end
$var reg 12 ?$ douta_reg [11:0] $end
$upscope $end
$scope begin use_init_file $end
$upscope $end
$upscope $end
$scope module track_2 $end
$var wire 8 @$ addra [7:0] $end
$var wire 1 " clka $end
$var wire 4 A$ dina [3:0] $end
$var wire 1 B$ ena $end
$var wire 1 C$ regcea $end
$var wire 1 ) rsta $end
$var wire 1 D$ wea $end
$var wire 4 E$ douta [3:0] $end
$var parameter 112 F$ INIT_FILE $end
$var parameter 32 G$ RAM_DEPTH $end
$var parameter 128 H$ RAM_PERFORMANCE $end
$var parameter 32 I$ RAM_WIDTH $end
$var reg 4 J$ ram_data [3:0] $end
$scope function clogb2 $end
$var integer 32 K$ depth [31:0] $end
$upscope $end
$scope begin output_register $end
$var reg 4 L$ douta_reg [3:0] $end
$upscope $end
$scope begin use_init_file $end
$upscope $end
$upscope $end
$scope module track_obstacles $end
$var wire 8 M$ addra [7:0] $end
$var wire 1 " clka $end
$var wire 4 N$ dina [3:0] $end
$var wire 1 O$ ena $end
$var wire 1 P$ regcea $end
$var wire 1 ) rsta $end
$var wire 1 Q$ wea $end
$var wire 4 R$ douta [3:0] $end
$var parameter 112 S$ INIT_FILE $end
$var parameter 32 T$ RAM_DEPTH $end
$var parameter 128 U$ RAM_PERFORMANCE $end
$var parameter 32 V$ RAM_WIDTH $end
$var reg 4 W$ ram_data [3:0] $end
$scope function clogb2 $end
$var integer 32 X$ depth [31:0] $end
$upscope $end
$scope begin output_register $end
$var reg 4 Y$ douta_reg [3:0] $end
$upscope $end
$scope begin use_init_file $end
$upscope $end
$upscope $end
$scope module trig $end
$var wire 9 Z$ addra [8:0] $end
$var wire 9 [$ addrb [8:0] $end
$var wire 1 " clka $end
$var wire 11 \$ dina [10:0] $end
$var wire 11 ]$ dinb [10:0] $end
$var wire 1 ^$ ena $end
$var wire 1 _$ enb $end
$var wire 1 `$ regcea $end
$var wire 1 a$ regceb $end
$var wire 1 ) rsta $end
$var wire 1 ) rstb $end
$var wire 1 b$ wea $end
$var wire 1 c$ web $end
$var wire 11 d$ doutb [10:0] $end
$var wire 11 e$ douta [10:0] $end
$var parameter 96 f$ INIT_FILE $end
$var parameter 32 g$ RAM_DEPTH $end
$var parameter 128 h$ RAM_PERFORMANCE $end
$var parameter 32 i$ RAM_WIDTH $end
$var reg 11 j$ ram_data_a [10:0] $end
$var reg 11 k$ ram_data_b [10:0] $end
$scope function clogb2 $end
$var integer 32 l$ depth [31:0] $end
$upscope $end
$scope begin output_register $end
$var reg 11 m$ douta_reg [10:0] $end
$var reg 11 n$ doutb_reg [10:0] $end
$upscope $end
$scope begin use_init_file $end
$upscope $end
$upscope $end
$upscope $end
$scope begin $ivl_for_loop0 $end
$var integer 32 o$ i [31:0] $end
$scope begin $ivl_for_loop1 $end
$var integer 32 p$ j [31:0] $end
$upscope $end
$upscope $end
$upscope $end
$enddefinitions $end
$comment Show the parameter values. $end
$dumpall
b1011 i$
b1001000010010010100011101001000010111110101000001000101010100100100011001001111010100100100110101000001010011100100001101000101 h$
b101101000 g$
b11001000110000101110100011000010010111101100011011011110111001100101110011011010110010101101101 f$
b100 V$
b1001000010010010100011101001000010111110101000001000101010100100100011001001111010100100100110101000001010011100100001101000101 U$
b100000000 T$
b110010001100001011101000110000100101111011101000111001001100001011000110110101100101110011011010110010101101101 S$
b100 I$
b1001000010010010100011101001000010111110101000001000101010100100100011001001111010100100100110101000001010011100100001101000101 H$
b100000000 G$
b110010001100001011101000110000100101111011101000111001001100001011000110110101100101110011011010110010101101101 F$
b1100 <$
b1001000010010010100011101001000010111110101000001000101010100100100011001001111010100100100110101000001010011100100001101000101 ;$
b100000000 :$
b110010001100001011101000110000100101111001100000011100101011111011011000111010101101001011001110110100101011111011010010110001101101111011011100101111101110000011000010110110000101110011011010110010101101101 9$
b1100 /$
b1001000010010010100011101001000010111110101000001000101010100100100011001001111010100100100110101000001010011100100001101000101 .$
b100000000 -$
b110010001100001011101000110000100101111001100000011100001011111011011010110000101110010011010010110111101011111011010010110001101101111011011100101111101110000011000010110110000101110011011010110010101101101 ,$
b1100 "$
b1001000010010010100011101001000010111110101000001000101010100100100011001001111010100100100110101000001010011100100001101000101 !$
b100000000 ~#
b110010001100001011101000110000100101111 }#
b1100 s#
b1001000010010010100011101001000010111110101000001000101010100100100011001001111010100100100110101000001010011100100001101000101 r#
b100000000 q#
b1100100011000010111010001100001001011110011000000110110010111110110111101101001011011000101111101110011011100000110100101101100011011000101111101110000011000010110110000101110011011010110010101101101 p#
b1100 f#
b1001000010010010100011101001000010111110101000001000101010100100100011001001111010100100100110101000001010011100100001101000101 e#
b100000000 d#
b1100100011000010111010001100001001011110011000000110101010111110110011001101001011011100110100101110011011010000101111101110000011000010110110000101110011011010110010101101101 c#
b1100 Y#
b1001000010010010100011101001000010111110101000001000101010100100100011001001111010100100100110101000001010011100100001101000101 X#
b100000000 W#
b110010001100001011101000110000100101111 V#
b1100 L#
b1001000010010010100011101001000010111110101000001000101010100100100011001001111010100100100110101000001010011100100001101000101 K#
b100000000 J#
b110010001100001011101000110000100101111 I#
b1100 ?#
b1001000010010010100011101001000010111110101000001000101010100100100011001001111010100100100110101000001010011100100001101000101 >#
b100000000 =#
b110010001100001011101000110000100101111001100000011001001011111011100100110111101100001011001000101111101101000011011110111001001101001011110100101111101110000011000010110110000101110011011010110010101101101 <#
b1100 2#
b1001000010010010100011101001000010111110101000001000101010100100100011001001111010100100100110101000001010011100100001101000101 1#
b100000000 0#
b11001000110000101110100011000010010111100110000001100010101111101101110011011110111001001101101011000010110110001011111011100110110000101101110011001000101111101110000011000010110110000101110011011010110010101101101 /#
b1100 %#
b1001000010010010100011101001000010111110101000001000101010100100100011001001111010100100100110101000001010011100100001101000101 $#
b100000000 ##
b1100100011000010111010001100001001011110011000000110000010111110111001001101111011000010110010001011111011101100110010101110010011101000101111101110000011000010110110000101110011011010110010101101101 "#
b1101 v"
b1001000010010010100011101001000010111110101000001000101010100100100011001001111010100100100110101000001010011100100001101000101 u"
b100000000 t"
b11001000110000101110100011000010010111101101100011011110110011100101110011011010110010101101101 s"
b1000 i"
b1001000010010010100011101001000010111110101000001000101010100100100011001001111010100100100110101000001010011100100001101000101 h"
b10000000000 g"
b1100100011000010111010001100001001011110011000000111001010111110110110001110101011010010110011101101001010111110110100101100011011011110110111000101110011011010110010101101101 f"
b1000 ]"
b1001000010010010100011101001000010111110101000001000101010100100100011001001111010100100100110101000001010011100100001101000101 \"
b10000000000 ["
b1100100011000010111010001100001001011110011000000111000010111110110110101100001011100100110100101101111010111110110100101100011011011110110111000101110011011010110010101101101 Z"
b1000 Q"
b1001000010010010100011101001000010111110101000001000101010100100100011001001111010100100100110101000001010011100100001101000101 P"
b10000000000 O"
b110010001100001011101000110000100101111 N"
b1000 D"
b1001000010010010100011101001000010111110101000001000101010100100100011001001111010100100100110101000001010011100100001101000101 C"
b10000000000 B"
b11001000110000101110100011000010010111100110000001101100101111101101111011010010110110001011111011100110111000001101001011011000110110000101110011011010110010101101101 A"
b1000 7"
b1001000010010010100011101001000010111110101000001000101010100100100011001001111010100100100110101000001010011100100001101000101 6"
b10000000000 5"
b11001000110000101110100011000010010111100110000001101010101111101100110011010010110111001101001011100110110100000101110011011010110010101101101 4"
b1000 *"
b1001000010010010100011101001000010111110101000001000101010100100100011001001111010100100100110101000001010011100100001101000101 )"
b10000000000 ("
b110010001100001011101000110000100101111 '"
b1000 {
b1001000010010010100011101001000010111110101000001000101010100100100011001001111010100100100110101000001010011100100001101000101 z
b10000000000 y
b110010001100001011101000110000100101111 x
b1000 n
b1001000010010010100011101001000010111110101000001000101010100100100011001001111010100100100110101000001010011100100001101000101 m
b10000000000 l
b1100100011000010111010001100001001011110011000000110010010111110111001001101111011000010110010001011111011010000110111101110010011010010111101000101110011011010110010101101101 k
b1000 a
b1001000010010010100011101001000010111110101000001000101010100100100011001001111010100100100110101000001010011100100001101000101 `
b10000000000 _
b110010001100001011101000110000100101111001100000011000101011111011011100110111101110010011011010110000101101100010111110111001101100001011011100110010000101110011011010110010101101101 ^
b1000 T
b1001000010010010100011101001000010111110101000001000101010100100100011001001111010100100100110101000001010011100100001101000101 S
b10000000000 R
b11001000110000101110100011000010010111100110000001100000101111101110010011011110110000101100100010111110111011001100101011100100111010000101110011011010110010101101101 Q
$end
#0
$dumpvars
b0 p$
b0 o$
b0 n$
b0 m$
bx l$
b0 k$
b0 j$
b0 e$
b0 d$
0c$
0b$
1a$
1`$
1_$
1^$
b0 ]$
b0 \$
bx [$
bx Z$
b0 Y$
bx X$
b0 W$
b0 R$
0Q$
1P$
1O$
b0 N$
bx M$
b0 L$
bx K$
b0 J$
b0 E$
0D$
1C$
1B$
b0 A$
bx @$
b0 ?$
bx >$
b0 =$
b0 8$
07$
16$
x5$
b0 4$
b0 3$
b0 2$
bx 1$
b0 0$
b0 +$
0*$
1)$
x($
b0 '$
b0 &$
b0 %$
bx $$
b0 #$
b0 |#
0{#
1z#
0y#
b0 x#
b0 w#
b0 v#
bx u#
b0 t#
b0 o#
0n#
1m#
0l#
b0 k#
b0 j#
b0 i#
bx h#
b0 g#
b0 b#
0a#
1`#
0_#
b0 ^#
b0 ]#
b0 \#
bx [#
b0 Z#
b0 U#
0T#
1S#
0R#
b0 Q#
b0 P#
b0 O#
bx N#
b0 M#
b0 H#
0G#
1F#
0E#
b0 D#
b0 C#
b0 B#
bx A#
b0 @#
b0 ;#
0:#
19#
08#
b0 7#
b0 6#
b0 5#
bx 4#
b0 3#
b0 .#
0-#
1,#
0+#
b0 *#
b0 )#
b0 (#
bx '#
b0 &#
b0 !#
0~"
1}"
1|"
b0 {"
b0 z"
b0 y"
bx x"
b0 w"
b0 r"
0q"
1p"
1o"
b0 n"
bx m"
b0 l"
bx k"
b0 j"
b0 e"
0d"
1c"
b0 b"
bx a"
b0 `"
bx _"
b0 ^"
b0 Y"
0X"
1W"
b0 V"
bx U"
b0 T"
bx S"
b0 R"
b0 M"
0L"
1K"
1J"
b0 I"
bx H"
b0 G"
bx F"
b0 E"
b0 @"
0?"
1>"
1="
b0 <"
bx ;"
b0 :"
bx 9"
b0 8"
b0 3"
02"
11"
10"
b0 /"
bx ."
b0 -"
bx ,"
b0 +"
b0 &"
0%"
1$"
1#"
b0 ""
bx !"
b0 ~
bx }
b0 |
b0 w
0v
1u
1t
b0 s
bx r
b0 q
bx p
b0 o
b0 j
0i
1h
1g
b0 f
bx e
b0 d
bx c
b0 b
b0 ]
0\
1[
1Z
b0 Y
bx X
b0 W
bx V
b0 U
b0 P
0O
1N
1M
b0 L
bx K
bx J
bx I
bx H
bx G
bx F
bx E
bx D
bx C
bx B
bx A
bx @
bx ?
b0 >
b0 =
b0 <
bx ;
bz000000000000000000000000000000000000000000000000000000000000000000000000000000000000000000000000000000000000000000000000 :
b0 9
bx 8
b0 7
bx 6
b0 5
bx 4
bx 3
bx 2
bx 1
bx 0
bx /
x.
x-
bx ,
bx +
bx *
1)
bx (
bx '
bx &
bx %
bx $
bx #
0"
bx !
$end
#10000
bx w"
bx J$
bx W$
bx j$
bx k$
bx U
b101110111011 &#
bx b
bx o
bx |
bx +"
bx 8"
bx E"
bx R"
b10000100000 @
bx0000 F
bx0000 I
1"
#20000
b0 [$
0"
b1011010 #
b1011010 +
b1011010 Z$
b10111111 &
b10111111 0
b10100110000 %
b10100110000 /
b11110000000 (
b11110000000 2
b1111000000 '
b1111000000 1
0)
#30000
bx w#
bx j#
bx ]#
bx P#
bx C#
bx 6#
bx )#
bx z"
b0 F
b0 I
bx M"
bx T"
bx @"
bx G"
bx 3"
bx :"
bx &"
bx -"
bx w
bx ~
bx j
bx q
bx ]
bx d
bz000000000000000000000000000000000000000000000000000000000000000000000000000000000000000000000000000000000000101110111011 :
b101110111011 !#
b101110111011 (#
b0xxxxxxxxxxxxxxxxxxxxxxxxxxxxxxxxxxxxxxxxxxxxxxxxxxxxxxxxxxxxxxxx 9
bx P
bx W
b1000000000 k$
b0 j$
bx 7
bx d$
bx n$
bx >
bx e$
bx m$
xy#
xl#
x_#
bx <
bx R$
bx Y$
xR#
xE#
x8#
x+#
x|"
bx 5
bx E$
bx L$
bx =
bx r"
bx y"
1"
#40000
b11111111 m"
0"
b1000000000 *
b1000000000 3
b1011111111 $
b1011111111 ,
b1011111111 p$
b1000000000 o$
#50000
b0 w"
b0 >
b0 e$
b0 m$
b1000000000 7
b1000000000 d$
b1000000000 n$
bx01011111111 A
bx1000000000 J
bx @
b101110111011 !
b101110111011 G
b0xxxx F
b0xxxx I
1"
#60000
b11111110 m"
0"
b1000000001 *
b1000000001 3
b1000000001 o$
b1011111111 p$
#70000
b101111111101011111111 A
b10000000001000000001 J
bx F
bx I
b1000000000 w"
b0 =
b0 r"
b0 y"
1"
#80000
b11111101 m"
0"
b1000000010 *
b1000000010 3
b1000000010 o$
b1011111111 p$
#90000
b1000000000 =
b1000000000 r"
b1000000000 y"
b1100101011 w"
b10000000011000000010 J
b10000100000 @
bx !
bx G
1"
#100000
b11111100 m"
0"
b1000000011 *
b1000000011 3
b1000000011 o$
b1011111111 p$
