game.vcd
$date
	Mon Dec 12 12:23:10 2022
$end
$version
	Icarus Verilog
$end
$timescale
	1ps
$end
$scope module game_tb $end
$var wire 11 ! player_y [10:0] $end
$var wire 11 " player_x [10:0] $end
$var wire 9 # player_direction [8:0] $end
$var wire 11 $ opponent_y [10:0] $end
$var wire 11 % opponent_x [10:0] $end
$var wire 3 & game_stat [2:0] $end
$var reg 1 ' btnu $end
$var reg 1 ( clk $end
$var reg 11 ) hcount [10:0] $end
$var reg 9 * r_opp_dir [8:0] $end
$var reg 3 + r_opp_game [2:0] $end
$var reg 1 , r_opp_rst $end
$var reg 1 - rst $end
$var reg 16 . sw [15:0] $end
$var reg 10 / vcount [9:0] $end
$scope module uut $end
$var wire 1 ' btnu $end
$var wire 1 ( clk $end
$var wire 11 0 hcount [10:0] $end
$var wire 9 1 r_opp_dir [8:0] $end
$var wire 3 2 r_opp_game [2:0] $end
$var wire 1 , r_opp_rst $end
$var wire 1 - rst $end
$var wire 11 3 speed [10:0] $end
$var wire 16 4 sw [15:0] $end
$var wire 10 5 vcount [9:0] $end
$var wire 11 6 p_s [10:0] $end
$var wire 11 7 p_c [10:0] $end
$var wire 11 8 o_s [10:0] $end
$var wire 11 9 o_c [10:0] $end
$var reg 3 : game_stat [2:0] $end
$var reg 1 ; game_state $end
$var reg 3 < game_status [2:0] $end
$var reg 12 = i_opp_x [11:0] $end
$var reg 12 > i_opp_y [11:0] $end
$var reg 12 ? i_player_x [11:0] $end
$var reg 12 @ i_player_y [11:0] $end
$var reg 3 A laps [2:0] $end
$var reg 9 B opp_dir [8:0] $end
$var reg 11 C opponent_x [10:0] $end
$var reg 11 D opponent_y [10:0] $end
$var reg 9 E player_direction [8:0] $end
$var reg 11 F player_x [10:0] $end
$var reg 11 G player_y [10:0] $end
$scope module o_cos $end
$var wire 9 H addra [8:0] $end
$var wire 1 ( clka $end
$var wire 11 I dina [10:0] $end
$var wire 1 J ena $end
$var wire 1 K regcea $end
$var wire 1 - rsta $end
$var wire 1 L wea $end
$var wire 11 M douta [10:0] $end
$var parameter 96 N INIT_FILE $end
$var parameter 32 O RAM_DEPTH $end
$var parameter 128 P RAM_PERFORMANCE $end
$var parameter 32 Q RAM_WIDTH $end
$var reg 11 R ram_data [10:0] $end
$scope function clogb2 $end
$var integer 32 S depth [31:0] $end
$upscope $end
$scope begin output_register $end
$var reg 11 T douta_reg [10:0] $end
$upscope $end
$scope begin use_init_file $end
$upscope $end
$upscope $end
$scope module o_sin $end
$var wire 9 U addra [8:0] $end
$var wire 1 ( clka $end
$var wire 11 V dina [10:0] $end
$var wire 1 W ena $end
$var wire 1 X regcea $end
$var wire 1 - rsta $end
$var wire 1 Y wea $end
$var wire 11 Z douta [10:0] $end
$var parameter 96 [ INIT_FILE $end
$var parameter 32 \ RAM_DEPTH $end
$var parameter 128 ] RAM_PERFORMANCE $end
$var parameter 32 ^ RAM_WIDTH $end
$var reg 11 _ ram_data [10:0] $end
$scope function clogb2 $end
$var integer 32 ` depth [31:0] $end
$upscope $end
$scope begin output_register $end
$var reg 11 a douta_reg [10:0] $end
$upscope $end
$scope begin use_init_file $end
$upscope $end
$upscope $end
$scope module p_cos $end
$var wire 9 b addra [8:0] $end
$var wire 1 ( clka $end
$var wire 11 c dina [10:0] $end
$var wire 1 d ena $end
$var wire 1 e regcea $end
$var wire 1 - rsta $end
$var wire 1 f wea $end
$var wire 11 g douta [10:0] $end
$var parameter 96 h INIT_FILE $end
$var parameter 32 i RAM_DEPTH $end
$var parameter 128 j RAM_PERFORMANCE $end
$var parameter 32 k RAM_WIDTH $end
$var reg 11 l ram_data [10:0] $end
$scope function clogb2 $end
$var integer 32 m depth [31:0] $end
$upscope $end
$scope begin output_register $end
$var reg 11 n douta_reg [10:0] $end
$upscope $end
$scope begin use_init_file $end
$upscope $end
$upscope $end
$scope module p_sin $end
$var wire 9 o addra [8:0] $end
$var wire 1 ( clka $end
$var wire 11 p dina [10:0] $end
$var wire 1 q ena $end
$var wire 1 r regcea $end
$var wire 1 - rsta $end
$var wire 1 s wea $end
$var wire 11 t douta [10:0] $end
$var parameter 96 u INIT_FILE $end
$var parameter 32 v RAM_DEPTH $end
$var parameter 128 w RAM_PERFORMANCE $end
$var parameter 32 x RAM_WIDTH $end
$var reg 11 y ram_data [10:0] $end
$scope function clogb2 $end
$var integer 32 z depth [31:0] $end
$upscope $end
$scope begin output_register $end
$var reg 11 { douta_reg [10:0] $end
$upscope $end
$scope begin use_init_file $end
$upscope $end
$upscope $end
$upscope $end
$scope begin $ivl_for_loop0 $end
$var integer 32 | i [31:0] $end
$scope begin $ivl_for_loop1 $end
$var integer 32 } j [31:0] $end
$upscope $end
$upscope $end
$upscope $end
$enddefinitions $end
$comment Show the parameter values. $end
$dumpall
b1011 x
b1001000010010010100011101001000010111110101000001000101010100100100011001001111010100100100110101000001010011100100001101000101 w
b101101000 v
b11001000110000101110100011000010010111101110011011010010110111000101110011011010110010101101101 u
b1011 k
b1001000010010010100011101001000010111110101000001000101010100100100011001001111010100100100110101000001010011100100001101000101 j
b101101000 i
b11001000110000101110100011000010010111101100011011011110111001100101110011011010110010101101101 h
b1011 ^
b1001000010010010100011101001000010111110101000001000101010100100100011001001111010100100100110101000001010011100100001101000101 ]
b101101000 \
b11001000110000101110100011000010010111101110011011010010110111000101110011011010110010101101101 [
b1011 Q
b1001000010010010100011101001000010111110101000001000101010100100100011001001111010100100100110101000001010011100100001101000101 P
b101101000 O
b11001000110000101110100011000010010111101100011011011110111001100101110011011010110010101101101 N
$end
#0
$dumpvars
b0 }
b0 |
b0 {
bx z
b0 y
b0 t
0s
1r
1q
b0 p
bx o
b0 n
bx m
b0 l
b0 g
0f
1e
1d
b0 c
bx b
b0 a
bx `
b0 _
b0 Z
0Y
1X
1W
b0 V
bx U
b0 T
bx S
b0 R
b0 M
0L
1K
1J
b0 I
bx H
bx G
bx F
bx E
bx D
bx C
bx B
bx A
bx @
bx ?
bx >
bx =
bx <
x;
bx :
b0 9
b0 8
b0 7
b0 6
bx 5
bx 4
b110 3
bx 2
bx 1
bx 0
bx /
bx .
1-
x,
bx +
bx *
bx )
0(
x'
bx &
bx %
bx $
bx #
bx "
bx !
$end
#10000
bx l
bx y
bx R
bx _
b0 >
b0 =
b0 @
b0 ?
b1011010 B
b10110100 #
b10110100 E
b10110100 b
b10110100 o
b1100100 $
b1100100 D
b100101100 %
b100101100 C
b1100100 !
b1100100 G
b11111000000 "
b11111000000 F
b0 A
b0 <
0;
1(
#20000
0(
0-
#30000
bx 8
bx Z
bx a
bx 9
bx M
bx T
b0 y
bx 6
bx t
bx {
b11000000000 l
bx 7
bx g
bx n
1(
#40000
0(
b1100100000 /
b1100100000 5
b0 .
b0 4
b0 +
b0 2
0,
b0 *
b0 1
b0 H
b0 U
0'
#50000
b11000000000 7
b11000000000 g
b11000000000 n
b0 6
b0 t
b0 {
b1000000000 R
b0 _
1(
#60000
0(
b10010101110 )
b10010101110 0
b10010101110 }
#70000
bx >
bx =
b111111111010 ?
b0 8
b0 Z
b0 a
b1000000000 9
b1000000000 M
b1000000000 T
1(
#80000
0(
b10010101111 )
b10010101111 0
b10010101111 }
#90000
1(
#100000
0(
b10010110000 )
b10010110000 0
b10010110000 }
#110000
bx $
bx D
bx %
bx C
b11110111010 "
b11110111010 F
1(
#120000
0(
b10010101110 )
b10010101110 0
b1 |
b10010101110 }
#130000
b0 >
b110 =
1(
#140000
0(
b10010101111 )
b10010101111 0
b10010101111 }
#150000
1(
#160000
0(
b10010110000 )
b10010110000 0
b10010110000 }
#170000
b11110110100 "
b11110110100 F
1(
#180000
0(
b10010101110 )
b10010101110 0
b10 |
b10010101110 }
#190000
1(
#200000
0(
b10010101111 )
b10010101111 0
b10010101111 }
#210000
1(
#220000
0(
b10010110000 )
b10010110000 0
b10010110000 }
#230000
b11110101110 "
b11110101110 F
1(
#240000
0(
b10010101110 )
b10010101110 0
b11 |
b10010101110 }
#250000
1(
#260000
0(
b10010101111 )
b10010101111 0
b10010101111 }
#270000
1(
#280000
0(
b10010110000 )
b10010110000 0
b10010110000 }
#290000
b11110101000 "
b11110101000 F
1(
#300000
0(
b10010101110 )
b10010101110 0
b100 |
b10010101110 }
#310000
1(
#320000
0(
b10010101111 )
b10010101111 0
b10010101111 }
#330000
1(
#340000
0(
b10010110000 )
b10010110000 0
b10010110000 }
#350000
b11110100010 "
b11110100010 F
1(
#360000
0(
b10010101110 )
b10010101110 0
b101 |
b10010101110 }
#370000
1(
#380000
0(
b10010101111 )
b10010101111 0
b10010101111 }
#390000
1(
#400000
0(
b10010110000 )
b10010110000 0
b10010110000 }
#410000
b11110011100 "
b11110011100 F
1(
#420000
0(
b10010101110 )
b10010101110 0
b110 |
b10010101110 }
#430000
1(
#440000
0(
b10010101111 )
b10010101111 0
b10010101111 }
#450000
1(
#460000
0(
b10010110000 )
b10010110000 0
b10010110000 }
#470000
b11110010110 "
b11110010110 F
1(
#480000
0(
b10010101110 )
b10010101110 0
b111 |
b10010101110 }
#490000
1(
#500000
0(
b10010101111 )
b10010101111 0
b10010101111 }
#510000
1(
#520000
0(
b10010110000 )
b10010110000 0
b10010110000 }
#530000
b11110010000 "
b11110010000 F
1(
#540000
0(
b10010101110 )
b10010101110 0
b1000 |
b10010101110 }
#550000
1(
#560000
0(
b10010101111 )
b10010101111 0
b10010101111 }
#570000
1(
#580000
0(
b10010110000 )
b10010110000 0
b10010110000 }
#590000
b11110001010 "
b11110001010 F
1(
#600000
0(
b10010101110 )
b10010101110 0
b1001 |
b10010101110 }
#610000
1(
#620000
0(
b10010101111 )
b10010101111 0
b10010101111 }
#630000
1(
#640000
0(
b10010110000 )
b10010110000 0
b10010110000 }
#650000
b11110000100 "
b11110000100 F
1(
#660000
0(
b1010 |
b10010110001 }
#670000
b11101111110 "
b11101111110 F
1(
#680000
0(
#690000
b11101111000 "
b11101111000 F
1(
#700000
0(
#710000
b11101110010 "
b11101110010 F
1(
#720000
0(
#730000
b11101101100 "
b11101101100 F
1(
#740000
0(
#750000
b11101100110 "
b11101100110 F
1(
#760000
0(
#770000
b11101100000 "
b11101100000 F
1(
#780000
0(
#790000
b11101011010 "
b11101011010 F
1(
#800000
0(
#810000
b11101010100 "
b11101010100 F
1(
#820000
0(
#830000
b11101001110 "
b11101001110 F
1(
#840000
0(
#850000
b11101001000 "
b11101001000 F
1(
#860000
0(
#870000
b11101000010 "
b11101000010 F
1(
#880000
0(
#890000
b11100111100 "
b11100111100 F
1(
#900000
0(
#910000
b11100110110 "
b11100110110 F
1(
#920000
0(
#930000
b11100110000 "
b11100110000 F
1(
#940000
0(
#950000
b11100101010 "
b11100101010 F
1(
#960000
0(
#970000
b11100100100 "
b11100100100 F
1(
#980000
0(
#990000
b11100011110 "
b11100011110 F
1(
#1000000
0(
#1010000
b11100011000 "
b11100011000 F
1(
#1020000
0(
#1030000
b11100010010 "
b11100010010 F
1(
#1040000
0(
#1050000
b11100001100 "
b11100001100 F
1(
#1060000
0(
#1070000
b11100000110 "
b11100000110 F
1(
#1080000
0(
#1090000
b11100000000 "
b11100000000 F
1(
#1100000
0(
#1110000
b11011111010 "
b11011111010 F
1(
#1120000
0(
#1130000
b11011110100 "
b11011110100 F
1(
#1140000
0(
#1150000
b11011101110 "
b11011101110 F
1(
#1160000
0(
#1170000
b11011101000 "
b11011101000 F
1(
#1180000
0(
#1190000
b11011100010 "
b11011100010 F
1(
#1200000
0(
#1210000
b11011011100 "
b11011011100 F
1(
#1220000
0(
#1230000
b11011010110 "
b11011010110 F
1(
#1240000
0(
#1250000
b11011010000 "
b11011010000 F
1(
#1260000
0(
#1270000
b11011001010 "
b11011001010 F
1(
#1280000
0(
#1290000
b11011000100 "
b11011000100 F
1(
#1300000
0(
#1310000
b11010111110 "
b11010111110 F
1(
#1320000
0(
#1330000
b11010111000 "
b11010111000 F
1(
#1340000
0(
#1350000
b11010110010 "
b11010110010 F
1(
#1360000
0(
#1370000
b11010101100 "
b11010101100 F
1(
#1380000
0(
#1390000
b11010100110 "
b11010100110 F
1(
#1400000
0(
#1410000
b11010100000 "
b11010100000 F
1(
#1420000
0(
#1430000
b11010011010 "
b11010011010 F
1(
#1440000
0(
#1450000
b11010010100 "
b11010010100 F
1(
#1460000
0(
#1470000
b11010001110 "
b11010001110 F
1(
#1480000
0(
#1490000
b11010001000 "
b11010001000 F
1(
#1500000
0(
#1510000
b11010000010 "
b11010000010 F
1(
#1520000
0(
#1530000
b11001111100 "
b11001111100 F
1(
#1540000
0(
#1550000
b11001110110 "
b11001110110 F
1(
#1560000
0(
#1570000
b11001110000 "
b11001110000 F
1(
#1580000
0(
#1590000
b11001101010 "
b11001101010 F
1(
#1600000
0(
#1610000
b11001100100 "
b11001100100 F
1(
#1620000
0(
#1630000
b11001011110 "
b11001011110 F
1(
#1640000
0(
#1650000
b11001011000 "
b11001011000 F
1(
#1660000
0(
#1670000
b11001010010 "
b11001010010 F
1(
#1680000
0(
#1690000
b11001001100 "
b11001001100 F
1(
#1700000
0(
#1710000
b11001000110 "
b11001000110 F
1(
#1720000
0(
#1730000
b11001000000 "
b11001000000 F
1(
#1740000
0(
#1750000
b11000111010 "
b11000111010 F
1(
#1760000
0(
#1770000
b11000110100 "
b11000110100 F
1(
#1780000
0(
#1790000
b11000101110 "
b11000101110 F
1(
#1800000
0(
#1810000
b11000101000 "
b11000101000 F
1(
#1820000
0(
#1830000
b11000100010 "
b11000100010 F
1(
#1840000
0(
#1850000
b11000011100 "
b11000011100 F
1(
#1860000
0(
#1870000
b11000010110 "
b11000010110 F
1(
#1880000
0(
#1890000
b11000010000 "
b11000010000 F
1(
#1900000
0(
#1910000
b11000001010 "
b11000001010 F
1(
#1920000
0(
#1930000
b11000000100 "
b11000000100 F
1(
#1940000
0(
#1950000
b10111111110 "
b10111111110 F
1(
#1960000
0(
#1970000
b10111111000 "
b10111111000 F
1(
#1980000
0(
#1990000
b10111110010 "
b10111110010 F
1(
#2000000
0(
#2010000
b10111101100 "
b10111101100 F
1(
#2020000
0(
#2030000
b10111100110 "
b10111100110 F
1(
#2040000
0(
#2050000
b10111100000 "
b10111100000 F
1(
#2060000
0(
#2070000
b10111011010 "
b10111011010 F
1(
#2080000
0(
#2090000
b10111010100 "
b10111010100 F
1(
#2100000
0(
#2110000
b10111001110 "
b10111001110 F
1(
#2120000
0(
#2130000
b10111001000 "
b10111001000 F
1(
#2140000
0(
#2150000
b10111000010 "
b10111000010 F
1(
#2160000
0(
#2170000
b10110111100 "
b10110111100 F
1(
#2180000
0(
#2190000
b10110110110 "
b10110110110 F
1(
#2200000
0(
#2210000
b10110110000 "
b10110110000 F
1(
#2220000
0(
#2230000
b10110101010 "
b10110101010 F
1(
#2240000
0(
#2250000
b10110100100 "
b10110100100 F
1(
#2260000
0(
#2270000
b10110011110 "
b10110011110 F
1(
#2280000
0(
#2290000
b10110011000 "
b10110011000 F
1(
#2300000
0(
#2310000
b10110010010 "
b10110010010 F
1(
#2320000
0(
#2330000
b10110001100 "
b10110001100 F
1(
#2340000
0(
#2350000
b10110000110 "
b10110000110 F
1(
#2360000
0(
#2370000
b10110000000 "
b10110000000 F
1(
#2380000
0(
#2390000
b10101111010 "
b10101111010 F
1(
#2400000
0(
#2410000
b10101110100 "
b10101110100 F
1(
#2420000
0(
#2430000
b10101101110 "
b10101101110 F
1(
#2440000
0(
#2450000
b10101101000 "
b10101101000 F
1(
#2460000
0(
#2470000
b10101100010 "
b10101100010 F
1(
#2480000
0(
#2490000
b10101011100 "
b10101011100 F
1(
#2500000
0(
#2510000
b10101010110 "
b10101010110 F
1(
#2520000
0(
#2530000
b10101010000 "
b10101010000 F
1(
#2540000
0(
#2550000
b10101001010 "
b10101001010 F
1(
#2560000
0(
#2570000
b10101000100 "
b10101000100 F
1(
#2580000
0(
#2590000
b10100111110 "
b10100111110 F
1(
#2600000
0(
#2610000
b10100111000 "
b10100111000 F
1(
#2620000
0(
#2630000
b10100110010 "
b10100110010 F
1(
#2640000
0(
#2650000
b10100101100 "
b10100101100 F
1(
#2660000
0(
#2670000
b10100100110 "
b10100100110 F
1(
#2680000
0(
#2690000
b10100100000 "
b10100100000 F
1(
#2700000
0(
#2710000
b10100011010 "
b10100011010 F
1(
#2720000
0(
#2730000
b10100010100 "
b10100010100 F
1(
#2740000
0(
#2750000
b10100001110 "
b10100001110 F
1(
#2760000
0(
#2770000
b10100001000 "
b10100001000 F
1(
#2780000
0(
#2790000
b10100000010 "
b10100000010 F
1(
#2800000
0(
#2810000
b10011111100 "
b10011111100 F
1(
#2820000
0(
#2830000
b10011110110 "
b10011110110 F
1(
#2840000
0(
#2850000
b10011110000 "
b10011110000 F
1(
#2860000
0(
#2870000
b10011101010 "
b10011101010 F
1(
#2880000
0(
#2890000
b10011100100 "
b10011100100 F
1(
#2900000
0(
#2910000
b10011011110 "
b10011011110 F
1(
#2920000
0(
#2930000
b10011011000 "
b10011011000 F
1(
#2940000
0(
#2950000
b10011010010 "
b10011010010 F
1(
#2960000
0(
#2970000
b10011001100 "
b10011001100 F
1(
#2980000
0(
#2990000
b10011000110 "
b10011000110 F
1(
#3000000
0(
#3010000
b10011000000 "
b10011000000 F
1(
#3020000
0(
#3030000
b10010111010 "
b10010111010 F
1(
#3040000
0(
#3050000
b10010110100 "
b10010110100 F
1(
#3060000
0(
#3070000
b10010101110 "
b10010101110 F
1(
#3080000
0(
#3090000
b10010101000 "
b10010101000 F
1(
#3100000
0(
#3110000
b10010100010 "
b10010100010 F
1(
#3120000
0(
#3130000
b10010011100 "
b10010011100 F
1(
#3140000
0(
#3150000
b10010010110 "
b10010010110 F
1(
#3160000
0(
#3170000
b10010010000 "
b10010010000 F
1(
#3180000
0(
#3190000
b10010001010 "
b10010001010 F
1(
#3200000
0(
#3210000
b10010000100 "
b10010000100 F
1(
#3220000
0(
#3230000
b10001111110 "
b10001111110 F
1(
#3240000
0(
#3250000
b10001111000 "
b10001111000 F
1(
#3260000
0(
#3270000
b10001110010 "
b10001110010 F
1(
#3280000
0(
#3290000
b10001101100 "
b10001101100 F
1(
#3300000
0(
#3310000
b10001100110 "
b10001100110 F
1(
#3320000
0(
#3330000
b10001100000 "
b10001100000 F
1(
#3340000
0(
#3350000
b10001011010 "
b10001011010 F
1(
#3360000
0(
#3370000
b10001010100 "
b10001010100 F
1(
#3380000
0(
#3390000
b10001001110 "
b10001001110 F
1(
#3400000
0(
#3410000
b10001001000 "
b10001001000 F
1(
#3420000
0(
#3430000
b10001000010 "
b10001000010 F
1(
#3440000
0(
#3450000
b10000111100 "
b10000111100 F
1(
#3460000
0(
#3470000
b10000110110 "
b10000110110 F
1(
#3480000
0(
#3490000
b10000110000 "
b10000110000 F
1(
#3500000
0(
#3510000
b10000101010 "
b10000101010 F
1(
#3520000
0(
#3530000
b10000100100 "
b10000100100 F
1(
#3540000
0(
#3550000
b10000011110 "
b10000011110 F
1(
#3560000
0(
#3570000
b10000011000 "
b10000011000 F
1(
#3580000
0(
#3590000
b10000010010 "
b10000010010 F
1(
#3600000
0(
#3610000
b10000001100 "
b10000001100 F
1(
#3620000
0(
#3630000
b10000000110 "
b10000000110 F
1(
#3640000
0(
#3650000
b10000000000 "
b10000000000 F
1(
#3660000
0(
#3670000
b1111111010 "
b1111111010 F
1(
#3680000
0(
#3690000
b1111110100 "
b1111110100 F
1(
#3700000
0(
#3710000
b1111101110 "
b1111101110 F
1(
#3720000
0(
#3730000
b1111101000 "
b1111101000 F
1(
#3740000
0(
#3750000
b1111100010 "
b1111100010 F
1(
#3760000
0(
#3770000
b1111011100 "
b1111011100 F
1(
#3780000
0(
#3790000
b1111010110 "
b1111010110 F
1(
#3800000
0(
#3810000
b1111010000 "
b1111010000 F
1(
#3820000
0(
#3830000
b1111001010 "
b1111001010 F
1(
#3840000
0(
#3850000
b1111000100 "
b1111000100 F
1(
#3860000
0(
#3870000
b1110111110 "
b1110111110 F
1(
#3880000
0(
#3890000
b1110111000 "
b1110111000 F
1(
#3900000
0(
#3910000
b1110110010 "
b1110110010 F
1(
#3920000
0(
#3930000
b1110101100 "
b1110101100 F
1(
#3940000
0(
#3950000
b1110100110 "
b1110100110 F
1(
#3960000
0(
#3970000
b1110100000 "
b1110100000 F
1(
#3980000
0(
#3990000
b1110011010 "
b1110011010 F
1(
#4000000
0(
#4010000
b1110010100 "
b1110010100 F
1(
#4020000
0(
#4030000
b1110001110 "
b1110001110 F
1(
#4040000
0(
#4050000
b1110001000 "
b1110001000 F
1(
#4060000
0(
#4070000
b1110000010 "
b1110000010 F
1(
#4080000
0(
#4090000
b1101111100 "
b1101111100 F
1(
#4100000
0(
#4110000
b1101110110 "
b1101110110 F
1(
#4120000
0(
#4130000
b1101110000 "
b1101110000 F
1(
#4140000
0(
#4150000
b1101101010 "
b1101101010 F
1(
#4160000
0(
#4170000
b1101100100 "
b1101100100 F
1(
#4180000
0(
#4190000
b1101011110 "
b1101011110 F
1(
#4200000
0(
#4210000
b1101011000 "
b1101011000 F
1(
#4220000
0(
#4230000
b1101010010 "
b1101010010 F
1(
#4240000
0(
#4250000
b1101001100 "
b1101001100 F
1(
#4260000
0(
#4270000
b1101000110 "
b1101000110 F
1(
#4280000
0(
#4290000
b1101000000 "
b1101000000 F
1(
#4300000
0(
#4310000
b1100111010 "
b1100111010 F
1(
#4320000
0(
#4330000
b1100110100 "
b1100110100 F
1(
#4340000
0(
#4350000
b1100101110 "
b1100101110 F
1(
#4360000
0(
#4370000
b1100101000 "
b1100101000 F
1(
#4380000
0(
#4390000
b1100100010 "
b1100100010 F
1(
#4400000
0(
#4410000
b1100011100 "
b1100011100 F
1(
#4420000
0(
#4430000
b1100010110 "
b1100010110 F
1(
#4440000
0(
#4450000
b1100010000 "
b1100010000 F
1(
#4460000
0(
#4470000
b1100001010 "
b1100001010 F
1(
#4480000
0(
#4490000
b1100000100 "
b1100000100 F
1(
#4500000
0(
#4510000
b1011111110 "
b1011111110 F
1(
#4520000
0(
#4530000
b1011111000 "
b1011111000 F
1(
#4540000
0(
#4550000
b1011110010 "
b1011110010 F
1(
#4560000
0(
#4570000
b1011101100 "
b1011101100 F
1(
#4580000
0(
#4590000
b1011100110 "
b1011100110 F
1(
#4600000
0(
#4610000
b1011100000 "
b1011100000 F
1(
#4620000
0(
#4630000
b1011011010 "
b1011011010 F
1(
#4640000
0(
#4650000
b1011010100 "
b1011010100 F
1(
#4660000
0(
#4670000
b1011001110 "
b1011001110 F
1(
#4680000
0(
#4690000
b1011001000 "
b1011001000 F
1(
#4700000
0(
#4710000
b1011000010 "
b1011000010 F
1(
#4720000
0(
#4730000
b1010111100 "
b1010111100 F
1(
#4740000
0(
#4750000
b1010110110 "
b1010110110 F
1(
#4760000
0(
#4770000
b1010110000 "
b1010110000 F
1(
#4780000
0(
#4790000
b1010101010 "
b1010101010 F
1(
#4800000
0(
#4810000
b1010100100 "
b1010100100 F
1(
#4820000
0(
#4830000
b1010011110 "
b1010011110 F
1(
#4840000
0(
#4850000
b1010011000 "
b1010011000 F
1(
#4860000
0(
#4870000
b1010010010 "
b1010010010 F
1(
#4880000
0(
#4890000
b1010001100 "
b1010001100 F
1(
#4900000
0(
#4910000
b1010000110 "
b1010000110 F
1(
#4920000
0(
#4930000
b1010000000 "
b1010000000 F
1(
#4940000
0(
#4950000
b1001111010 "
b1001111010 F
1(
#4960000
0(
#4970000
b1001110100 "
b1001110100 F
1(
#4980000
0(
#4990000
b1001101110 "
b1001101110 F
1(
#5000000
0(
#5010000
b1001101000 "
b1001101000 F
1(
#5020000
0(
#5030000
b1001100010 "
b1001100010 F
1(
#5040000
0(
#5050000
b1001011100 "
b1001011100 F
1(
#5060000
0(
#5070000
b1001010110 "
b1001010110 F
1(
#5080000
0(
#5090000
b1001010000 "
b1001010000 F
1(
#5100000
0(
#5110000
b1001001010 "
b1001001010 F
1(
#5120000
0(
#5130000
b1001000100 "
b1001000100 F
1(
#5140000
0(
#5150000
b1000111110 "
b1000111110 F
1(
#5160000
0(
#5170000
b1000111000 "
b1000111000 F
1(
#5180000
0(
#5190000
b1000110010 "
b1000110010 F
1(
#5200000
0(
#5210000
b1000101100 "
b1000101100 F
1(
#5220000
0(
#5230000
b1000100110 "
b1000100110 F
1(
#5240000
0(
#5250000
b1000100000 "
b1000100000 F
1(
#5260000
0(
#5270000
b1000011010 "
b1000011010 F
1(
#5280000
0(
#5290000
b1000010100 "
b1000010100 F
1(
#5300000
0(
#5310000
b1000001110 "
b1000001110 F
1(
#5320000
0(
#5330000
b1000001000 "
b1000001000 F
1(
#5340000
0(
#5350000
b1000000010 "
b1000000010 F
1(
#5360000
0(
#5370000
b111111100 "
b111111100 F
1(
#5380000
0(
#5390000
b111110110 "
b111110110 F
1(
#5400000
0(
#5410000
b111110000 "
b111110000 F
1(
#5420000
0(
#5430000
b111101010 "
b111101010 F
1(
#5440000
0(
#5450000
b111100100 "
b111100100 F
1(
#5460000
0(
#5470000
b111011110 "
b111011110 F
1(
#5480000
0(
#5490000
b111011000 "
b111011000 F
1(
#5500000
0(
#5510000
b111010010 "
b111010010 F
1(
#5520000
0(
#5530000
b111001100 "
b111001100 F
1(
#5540000
0(
#5550000
b111000110 "
b111000110 F
1(
#5560000
0(
#5570000
b111000000 "
b111000000 F
1(
#5580000
0(
#5590000
b110111010 "
b110111010 F
1(
#5600000
0(
#5610000
b110110100 "
b110110100 F
1(
#5620000
0(
#5630000
b110101110 "
b110101110 F
1(
#5640000
0(
#5650000
b110101000 "
b110101000 F
1(
#5660000
0(
#5670000
b110100010 "
b110100010 F
1(
#5680000
0(
#5690000
b110011100 "
b110011100 F
1(
#5700000
0(
#5710000
b110010110 "
b110010110 F
1(
#5720000
0(
#5730000
b110010000 "
b110010000 F
1(
#5740000
0(
#5750000
b110001010 "
b110001010 F
1(
#5760000
0(
#5770000
b110000100 "
b110000100 F
1(
#5780000
0(
#5790000
b101111110 "
b101111110 F
1(
#5800000
0(
#5810000
b101111000 "
b101111000 F
1(
#5820000
0(
#5830000
b101110010 "
b101110010 F
1(
#5840000
0(
#5850000
b101101100 "
b101101100 F
1(
#5860000
0(
#5870000
b101100110 "
b101100110 F
1(
#5880000
0(
#5890000
b101100000 "
b101100000 F
1(
#5900000
0(
#5910000
b101011010 "
b101011010 F
1(
#5920000
0(
#5930000
b101010100 "
b101010100 F
1(
#5940000
0(
#5950000
b101001110 "
b101001110 F
1(
#5960000
0(
#5970000
b101001000 "
b101001000 F
1(
#5980000
0(
#5990000
b101000010 "
b101000010 F
1(
#6000000
0(
#6010000
b100111100 "
b100111100 F
1(
#6020000
0(
#6030000
b100110110 "
b100110110 F
1(
#6040000
0(
#6050000
b100110000 "
b100110000 F
1(
#6060000
0(
#6070000
b100101010 "
b100101010 F
1(
#6080000
0(
#6090000
b100100100 "
b100100100 F
1(
#6100000
0(
#6110000
b100011110 "
b100011110 F
1(
#6120000
0(
#6130000
b100011000 "
b100011000 F
1(
#6140000
0(
#6150000
b100010010 "
b100010010 F
1(
#6160000
0(
#6170000
b100001100 "
b100001100 F
1(
#6180000
0(
#6190000
b100000110 "
b100000110 F
1(
#6200000
0(
#6210000
b100000000 "
b100000000 F
1(
#6220000
0(
#6230000
b11111010 "
b11111010 F
1(
#6240000
0(
#6250000
b11110100 "
b11110100 F
1(
#6260000
0(
#6270000
b11101110 "
b11101110 F
1(
#6280000
0(
#6290000
b11101000 "
b11101000 F
1(
#6300000
0(
#6310000
b11100010 "
b11100010 F
1(
#6320000
0(
#6330000
b11011100 "
b11011100 F
1(
#6340000
0(
#6350000
b11010110 "
b11010110 F
1(
#6360000
0(
#6370000
b11010000 "
b11010000 F
1(
#6380000
0(
#6390000
b11001010 "
b11001010 F
1(
#6400000
0(
#6410000
b11000100 "
b11000100 F
1(
#6420000
0(
#6430000
b10111110 "
b10111110 F
1(
#6440000
0(
#6450000
b10111000 "
b10111000 F
1(
#6460000
0(
#6470000
b10110010 "
b10110010 F
1(
#6480000
0(
#6490000
b10101100 "
b10101100 F
1(
#6500000
0(
#6510000
b10100110 "
b10100110 F
1(
#6520000
0(
#6530000
b10100000 "
b10100000 F
1(
#6540000
0(
#6550000
b10011010 "
b10011010 F
1(
#6560000
0(
#6570000
b10010100 "
b10010100 F
1(
#6580000
0(
#6590000
b10001110 "
b10001110 F
1(
#6600000
0(
#6610000
b10001000 "
b10001000 F
1(
#6620000
0(
#6630000
b10000010 "
b10000010 F
1(
#6640000
0(
#6650000
b1111100 "
b1111100 F
1(
#6660000
0(
#6670000
b1110110 "
b1110110 F
1(
#6680000
0(
#6690000
b1110000 "
b1110000 F
1(
#6700000
0(
#6710000
b1101010 "
b1101010 F
1(
#6720000
0(
#6730000
b1100100 "
b1100100 F
1(
#6740000
0(
#6750000
b1011110 "
b1011110 F
1(
#6760000
0(
#6770000
b1011000 "
b1011000 F
1(
#6780000
0(
#6790000
b1010010 "
b1010010 F
1(
#6800000
0(
#6810000
b1001100 "
b1001100 F
1(
#6820000
0(
#6830000
b1000110 "
b1000110 F
1(
#6840000
0(
#6850000
b1000000 "
b1000000 F
1(
