racer_view.vcd
$date
	Tue Nov 22 17:47:35 2022
$end
$version
	Icarus Verilog
$end
$timescale
	1ps
$end
$scope module racer_view_tb $end
$var wire 12 ! pixel_out [11:0] $end
$var reg 1 " clk_in $end
$var reg 9 # direction [8:0] $end
$var reg 11 $ hcount_in [10:0] $end
$var reg 11 % opponent_x [10:0] $end
$var reg 11 & opponent_y [10:0] $end
$var reg 11 ' player_x [10:0] $end
$var reg 11 ( player_y [10:0] $end
$var reg 1 ) rst_in $end
$var reg 10 * vcount_in [9:0] $end
$var real 1 + pi $end
$scope module uut $end
$var wire 1 " clk_in $end
$var wire 9 , direction [8:0] $end
$var wire 11 - hcount_in [10:0] $end
$var wire 1 . in_opponent $end
$var wire 1 / in_player $end
$var wire 10 0 opponent_addr [9:0] $end
$var wire 11 1 opponent_x [10:0] $end
$var wire 11 2 opponent_y [10:0] $end
$var wire 11 3 player_x [10:0] $end
$var wire 11 4 player_y [10:0] $end
$var wire 1 ) rst_in $end
$var wire 10 5 vcount_in [9:0] $end
$var wire 8 6 track_addr [7:0] $end
$var wire 4 7 sprite_type [3:0] $end
$var wire 10 8 sprite_addr [9:0] $end
$var wire 11 9 sin [10:0] $end
$var wire 10 : player_addr [9:0] $end
$var wire 12 ; pixel_out [11:0] $end
$var wire 80 < palette_addr [79:0] $end
$var wire 192 = output_color [191:0] $end
$var wire 12 > loc_y [11:0] $end
$var wire 12 ? loc_x [11:0] $end
$var wire 22 @ delta_y [21:0] $end
$var wire 22 A delta_x [21:0] $end
$var wire 11 B cos [10:0] $end
$var reg 44 C delta_x_pipe [43:0] $end
$var reg 44 D delta_y_pipe [43:0] $end
$var reg 2 E in_opponent_pipe [1:0] $end
$var reg 2 F in_player_pipe [1:0] $end
$var reg 20 G opponent_addr_pipe [19:0] $end
$var reg 20 H player_addr_pipe [19:0] $end
$var reg 20 I sprite_addr_pipe [19:0] $end
$var reg 16 J sprite_type_pipe [15:0] $end
$var real 1 K pi $end
$scope module cosine $end
$var wire 9 L addra [8:0] $end
$var wire 1 " clka $end
$var wire 11 M dina [10:0] $end
$var wire 1 N ena $end
$var wire 1 O regcea $end
$var wire 1 ) rsta $end
$var wire 1 P wea $end
$var wire 11 Q douta [10:0] $end
$var parameter 96 R INIT_FILE $end
$var parameter 32 S RAM_DEPTH $end
$var parameter 128 T RAM_PERFORMANCE $end
$var parameter 32 U RAM_WIDTH $end
$var reg 11 V ram_data [10:0] $end
$scope function clogb2 $end
$var integer 32 W depth [31:0] $end
$upscope $end
$scope begin output_register $end
$var reg 11 X douta_reg [10:0] $end
$upscope $end
$scope begin use_init_file $end
$upscope $end
$upscope $end
$scope module i0_type $end
$var wire 10 Y addra [9:0] $end
$var wire 1 " clka $end
$var wire 8 Z dina [7:0] $end
$var wire 1 [ ena $end
$var wire 1 \ regcea $end
$var wire 1 ) rsta $end
$var wire 1 ] wea $end
$var wire 8 ^ douta [7:0] $end
$var parameter 168 _ INIT_FILE $end
$var parameter 32 ` RAM_DEPTH $end
$var parameter 128 a RAM_PERFORMANCE $end
$var parameter 32 b RAM_WIDTH $end
$var reg 8 c ram_data [7:0] $end
$scope function clogb2 $end
$var integer 32 d depth [31:0] $end
$upscope $end
$scope begin output_register $end
$var reg 8 e douta_reg [7:0] $end
$upscope $end
$scope begin use_init_file $end
$upscope $end
$upscope $end
$scope module i1_type $end
$var wire 10 f addra [9:0] $end
$var wire 1 " clka $end
$var wire 8 g dina [7:0] $end
$var wire 1 h ena $end
$var wire 1 i regcea $end
$var wire 1 ) rsta $end
$var wire 1 j wea $end
$var wire 8 k douta [7:0] $end
$var parameter 160 l INIT_FILE $end
$var parameter 32 m RAM_DEPTH $end
$var parameter 128 n RAM_PERFORMANCE $end
$var parameter 32 o RAM_WIDTH $end
$var reg 8 p ram_data [7:0] $end
$scope function clogb2 $end
$var integer 32 q depth [31:0] $end
$upscope $end
$scope begin output_register $end
$var reg 8 r douta_reg [7:0] $end
$upscope $end
$scope begin use_init_file $end
$upscope $end
$upscope $end
$scope module i2_type $end
$var wire 10 s addra [9:0] $end
$var wire 1 " clka $end
$var wire 8 t dina [7:0] $end
$var wire 1 u ena $end
$var wire 1 v regcea $end
$var wire 1 ) rsta $end
$var wire 1 w wea $end
$var wire 8 x douta [7:0] $end
$var parameter 40 y INIT_FILE $end
$var parameter 32 z RAM_DEPTH $end
$var parameter 128 { RAM_PERFORMANCE $end
$var parameter 32 | RAM_WIDTH $end
$var reg 8 } ram_data [7:0] $end
$scope function clogb2 $end
$var integer 32 ~ depth [31:0] $end
$upscope $end
$scope begin output_register $end
$var reg 8 !" douta_reg [7:0] $end
$upscope $end
$scope begin use_init_file $end
$upscope $end
$upscope $end
$scope module i3_type $end
$var wire 10 "" addra [9:0] $end
$var wire 1 " clka $end
$var wire 8 #" dina [7:0] $end
$var wire 1 $" ena $end
$var wire 1 %" regcea $end
$var wire 1 ) rsta $end
$var wire 1 &" wea $end
$var wire 8 '" douta [7:0] $end
$var parameter 40 (" INIT_FILE $end
$var parameter 32 )" RAM_DEPTH $end
$var parameter 128 *" RAM_PERFORMANCE $end
$var parameter 32 +" RAM_WIDTH $end
$var reg 8 ," ram_data [7:0] $end
$scope function clogb2 $end
$var integer 32 -" depth [31:0] $end
$upscope $end
$scope begin output_register $end
$var reg 8 ." douta_reg [7:0] $end
$upscope $end
$scope begin use_init_file $end
$upscope $end
$upscope $end
$scope module i4_type $end
$var wire 10 /" addra [9:0] $end
$var wire 1 " clka $end
$var wire 8 0" dina [7:0] $end
$var wire 1 1" ena $end
$var wire 1 2" regcea $end
$var wire 1 ) rsta $end
$var wire 1 3" wea $end
$var wire 8 4" douta [7:0] $end
$var parameter 40 5" INIT_FILE $end
$var parameter 32 6" RAM_DEPTH $end
$var parameter 128 7" RAM_PERFORMANCE $end
$var parameter 32 8" RAM_WIDTH $end
$var reg 8 9" ram_data [7:0] $end
$scope function clogb2 $end
$var integer 32 :" depth [31:0] $end
$upscope $end
$scope begin output_register $end
$var reg 8 ;" douta_reg [7:0] $end
$upscope $end
$scope begin use_init_file $end
$upscope $end
$upscope $end
$scope module i5_type $end
$var wire 10 <" addra [9:0] $end
$var wire 1 " clka $end
$var wire 8 =" dina [7:0] $end
$var wire 1 >" ena $end
$var wire 1 ?" regcea $end
$var wire 1 ) rsta $end
$var wire 1 @" wea $end
$var wire 8 A" douta [7:0] $end
$var parameter 40 B" INIT_FILE $end
$var parameter 32 C" RAM_DEPTH $end
$var parameter 128 D" RAM_PERFORMANCE $end
$var parameter 32 E" RAM_WIDTH $end
$var reg 8 F" ram_data [7:0] $end
$scope function clogb2 $end
$var integer 32 G" depth [31:0] $end
$upscope $end
$scope begin output_register $end
$var reg 8 H" douta_reg [7:0] $end
$upscope $end
$scope begin use_init_file $end
$upscope $end
$upscope $end
$scope module i6_type $end
$var wire 10 I" addra [9:0] $end
$var wire 1 " clka $end
$var wire 8 J" dina [7:0] $end
$var wire 1 K" ena $end
$var wire 1 L" regcea $end
$var wire 1 ) rsta $end
$var wire 1 M" wea $end
$var wire 8 N" douta [7:0] $end
$var parameter 40 O" INIT_FILE $end
$var parameter 32 P" RAM_DEPTH $end
$var parameter 128 Q" RAM_PERFORMANCE $end
$var parameter 32 R" RAM_WIDTH $end
$var reg 8 S" ram_data [7:0] $end
$scope function clogb2 $end
$var integer 32 T" depth [31:0] $end
$upscope $end
$scope begin output_register $end
$var reg 8 U" douta_reg [7:0] $end
$upscope $end
$scope begin use_init_file $end
$upscope $end
$upscope $end
$scope module i7_type $end
$var wire 10 V" addra [9:0] $end
$var wire 1 " clka $end
$var wire 8 W" dina [7:0] $end
$var wire 1 X" ena $end
$var wire 1 Y" regcea $end
$var wire 1 ) rsta $end
$var wire 1 Z" wea $end
$var wire 8 [" douta [7:0] $end
$var parameter 40 \" INIT_FILE $end
$var parameter 32 ]" RAM_DEPTH $end
$var parameter 128 ^" RAM_PERFORMANCE $end
$var parameter 32 _" RAM_WIDTH $end
$var reg 8 `" ram_data [7:0] $end
$scope function clogb2 $end
$var integer 32 a" depth [31:0] $end
$upscope $end
$scope begin output_register $end
$var reg 8 b" douta_reg [7:0] $end
$upscope $end
$scope begin use_init_file $end
$upscope $end
$upscope $end
$scope module i8_mario $end
$var wire 10 c" addra [9:0] $end
$var wire 1 " clka $end
$var wire 8 d" dina [7:0] $end
$var wire 1 e" ena $end
$var wire 1 f" regcea $end
$var wire 1 ) rsta $end
$var wire 1 g" wea $end
$var wire 8 h" douta [7:0] $end
$var parameter 152 i" INIT_FILE $end
$var parameter 32 j" RAM_DEPTH $end
$var parameter 128 k" RAM_PERFORMANCE $end
$var parameter 32 l" RAM_WIDTH $end
$var reg 8 m" ram_data [7:0] $end
$scope function clogb2 $end
$var integer 32 n" depth [31:0] $end
$upscope $end
$scope begin output_register $end
$var reg 8 o" douta_reg [7:0] $end
$upscope $end
$scope begin use_init_file $end
$upscope $end
$upscope $end
$scope module i9_luigi $end
$var wire 10 p" addra [9:0] $end
$var wire 1 " clka $end
$var wire 8 q" dina [7:0] $end
$var wire 1 r" ena $end
$var wire 1 s" regcea $end
$var wire 1 ) rsta $end
$var wire 1 t" wea $end
$var wire 8 u" douta [7:0] $end
$var parameter 152 v" INIT_FILE $end
$var parameter 32 w" RAM_DEPTH $end
$var parameter 128 x" RAM_PERFORMANCE $end
$var parameter 32 y" RAM_WIDTH $end
$var reg 8 z" ram_data [7:0] $end
$scope function clogb2 $end
$var integer 32 {" depth [31:0] $end
$upscope $end
$scope begin output_register $end
$var reg 8 |" douta_reg [7:0] $end
$upscope $end
$scope begin use_init_file $end
$upscope $end
$upscope $end
$scope module p0_black_square_pal $end
$var wire 8 }" addra [7:0] $end
$var wire 1 " clka $end
$var wire 12 ~" dina [11:0] $end
$var wire 1 !# ena $end
$var wire 1 "# regcea $end
$var wire 1 ) rsta $end
$var wire 1 ## wea $end
$var wire 12 $# douta [11:0] $end
$var parameter 200 %# INIT_FILE $end
$var parameter 32 &# RAM_DEPTH $end
$var parameter 128 '# RAM_PERFORMANCE $end
$var parameter 32 (# RAM_WIDTH $end
$var reg 12 )# ram_data [11:0] $end
$scope function clogb2 $end
$var integer 32 *# depth [31:0] $end
$upscope $end
$scope begin output_register $end
$var reg 12 +# douta_reg [11:0] $end
$upscope $end
$scope begin use_init_file $end
$upscope $end
$upscope $end
$scope module p1_type $end
$var wire 8 ,# addra [7:0] $end
$var wire 1 " clka $end
$var wire 12 -# dina [11:0] $end
$var wire 1 .# ena $end
$var wire 1 /# regcea $end
$var wire 1 ) rsta $end
$var wire 1 0# wea $end
$var wire 12 1# douta [11:0] $end
$var parameter 192 2# INIT_FILE $end
$var parameter 32 3# RAM_DEPTH $end
$var parameter 128 4# RAM_PERFORMANCE $end
$var parameter 32 5# RAM_WIDTH $end
$var reg 12 6# ram_data [11:0] $end
$scope function clogb2 $end
$var integer 32 7# depth [31:0] $end
$upscope $end
$scope begin output_register $end
$var reg 12 8# douta_reg [11:0] $end
$upscope $end
$scope begin use_init_file $end
$upscope $end
$upscope $end
$scope module p2_type $end
$var wire 8 9# addra [7:0] $end
$var wire 1 " clka $end
$var wire 12 :# dina [11:0] $end
$var wire 1 ;# ena $end
$var wire 1 <# regcea $end
$var wire 1 ) rsta $end
$var wire 1 =# wea $end
$var wire 12 ># douta [11:0] $end
$var parameter 40 ?# INIT_FILE $end
$var parameter 32 @# RAM_DEPTH $end
$var parameter 128 A# RAM_PERFORMANCE $end
$var parameter 32 B# RAM_WIDTH $end
$var reg 12 C# ram_data [11:0] $end
$scope function clogb2 $end
$var integer 32 D# depth [31:0] $end
$upscope $end
$scope begin output_register $end
$var reg 12 E# douta_reg [11:0] $end
$upscope $end
$scope begin use_init_file $end
$upscope $end
$upscope $end
$scope module p3_type $end
$var wire 8 F# addra [7:0] $end
$var wire 1 " clka $end
$var wire 12 G# dina [11:0] $end
$var wire 1 H# ena $end
$var wire 1 I# regcea $end
$var wire 1 ) rsta $end
$var wire 1 J# wea $end
$var wire 12 K# douta [11:0] $end
$var parameter 40 L# INIT_FILE $end
$var parameter 32 M# RAM_DEPTH $end
$var parameter 128 N# RAM_PERFORMANCE $end
$var parameter 32 O# RAM_WIDTH $end
$var reg 12 P# ram_data [11:0] $end
$scope function clogb2 $end
$var integer 32 Q# depth [31:0] $end
$upscope $end
$scope begin output_register $end
$var reg 12 R# douta_reg [11:0] $end
$upscope $end
$scope begin use_init_file $end
$upscope $end
$upscope $end
$scope module p4_type $end
$var wire 8 S# addra [7:0] $end
$var wire 1 " clka $end
$var wire 12 T# dina [11:0] $end
$var wire 1 U# ena $end
$var wire 1 V# regcea $end
$var wire 1 ) rsta $end
$var wire 1 W# wea $end
$var wire 12 X# douta [11:0] $end
$var parameter 40 Y# INIT_FILE $end
$var parameter 32 Z# RAM_DEPTH $end
$var parameter 128 [# RAM_PERFORMANCE $end
$var parameter 32 \# RAM_WIDTH $end
$var reg 12 ]# ram_data [11:0] $end
$scope function clogb2 $end
$var integer 32 ^# depth [31:0] $end
$upscope $end
$scope begin output_register $end
$var reg 12 _# douta_reg [11:0] $end
$upscope $end
$scope begin use_init_file $end
$upscope $end
$upscope $end
$scope module p5_type $end
$var wire 8 `# addra [7:0] $end
$var wire 1 " clka $end
$var wire 12 a# dina [11:0] $end
$var wire 1 b# ena $end
$var wire 1 c# regcea $end
$var wire 1 ) rsta $end
$var wire 1 d# wea $end
$var wire 12 e# douta [11:0] $end
$var parameter 40 f# INIT_FILE $end
$var parameter 32 g# RAM_DEPTH $end
$var parameter 128 h# RAM_PERFORMANCE $end
$var parameter 32 i# RAM_WIDTH $end
$var reg 12 j# ram_data [11:0] $end
$scope function clogb2 $end
$var integer 32 k# depth [31:0] $end
$upscope $end
$scope begin output_register $end
$var reg 12 l# douta_reg [11:0] $end
$upscope $end
$scope begin use_init_file $end
$upscope $end
$upscope $end
$scope module p6_type $end
$var wire 8 m# addra [7:0] $end
$var wire 1 " clka $end
$var wire 12 n# dina [11:0] $end
$var wire 1 o# ena $end
$var wire 1 p# regcea $end
$var wire 1 ) rsta $end
$var wire 1 q# wea $end
$var wire 12 r# douta [11:0] $end
$var parameter 40 s# INIT_FILE $end
$var parameter 32 t# RAM_DEPTH $end
$var parameter 128 u# RAM_PERFORMANCE $end
$var parameter 32 v# RAM_WIDTH $end
$var reg 12 w# ram_data [11:0] $end
$scope function clogb2 $end
$var integer 32 x# depth [31:0] $end
$upscope $end
$scope begin output_register $end
$var reg 12 y# douta_reg [11:0] $end
$upscope $end
$scope begin use_init_file $end
$upscope $end
$upscope $end
$scope module p7_type $end
$var wire 8 z# addra [7:0] $end
$var wire 1 " clka $end
$var wire 12 {# dina [11:0] $end
$var wire 1 |# ena $end
$var wire 1 }# regcea $end
$var wire 1 ) rsta $end
$var wire 1 ~# wea $end
$var wire 12 !$ douta [11:0] $end
$var parameter 40 "$ INIT_FILE $end
$var parameter 32 #$ RAM_DEPTH $end
$var parameter 128 $$ RAM_PERFORMANCE $end
$var parameter 32 %$ RAM_WIDTH $end
$var reg 12 &$ ram_data [11:0] $end
$scope function clogb2 $end
$var integer 32 '$ depth [31:0] $end
$upscope $end
$scope begin output_register $end
$var reg 12 ($ douta_reg [11:0] $end
$upscope $end
$scope begin use_init_file $end
$upscope $end
$upscope $end
$scope module p8_mario $end
$var wire 8 )$ addra [7:0] $end
$var wire 1 " clka $end
$var wire 12 *$ dina [11:0] $end
$var wire 1 +$ ena $end
$var wire 1 ,$ regcea $end
$var wire 1 ) rsta $end
$var wire 1 -$ wea $end
$var wire 12 .$ douta [11:0] $end
$var parameter 184 /$ INIT_FILE $end
$var parameter 32 0$ RAM_DEPTH $end
$var parameter 128 1$ RAM_PERFORMANCE $end
$var parameter 32 2$ RAM_WIDTH $end
$var reg 12 3$ ram_data [11:0] $end
$scope function clogb2 $end
$var integer 32 4$ depth [31:0] $end
$upscope $end
$scope begin output_register $end
$var reg 12 5$ douta_reg [11:0] $end
$upscope $end
$scope begin use_init_file $end
$upscope $end
$upscope $end
$scope module p9_luigi $end
$var wire 8 6$ addra [7:0] $end
$var wire 1 " clka $end
$var wire 12 7$ dina [11:0] $end
$var wire 1 8$ ena $end
$var wire 1 9$ regcea $end
$var wire 1 ) rsta $end
$var wire 1 :$ wea $end
$var wire 12 ;$ douta [11:0] $end
$var parameter 184 <$ INIT_FILE $end
$var parameter 32 =$ RAM_DEPTH $end
$var parameter 128 >$ RAM_PERFORMANCE $end
$var parameter 32 ?$ RAM_WIDTH $end
$var reg 12 @$ ram_data [11:0] $end
$scope function clogb2 $end
$var integer 32 A$ depth [31:0] $end
$upscope $end
$scope begin output_register $end
$var reg 12 B$ douta_reg [11:0] $end
$upscope $end
$scope begin use_init_file $end
$upscope $end
$upscope $end
$scope module sine $end
$var wire 9 C$ addra [8:0] $end
$var wire 1 " clka $end
$var wire 11 D$ dina [10:0] $end
$var wire 1 E$ ena $end
$var wire 1 F$ regcea $end
$var wire 1 ) rsta $end
$var wire 1 G$ wea $end
$var wire 11 H$ douta [10:0] $end
$var parameter 96 I$ INIT_FILE $end
$var parameter 32 J$ RAM_DEPTH $end
$var parameter 128 K$ RAM_PERFORMANCE $end
$var parameter 32 L$ RAM_WIDTH $end
$var reg 11 M$ ram_data [10:0] $end
$scope function clogb2 $end
$var integer 32 N$ depth [31:0] $end
$upscope $end
$scope begin output_register $end
$var reg 11 O$ douta_reg [10:0] $end
$upscope $end
$scope begin use_init_file $end
$upscope $end
$upscope $end
$scope module track $end
$var wire 8 P$ addra [7:0] $end
$var wire 1 " clka $end
$var wire 4 Q$ dina [3:0] $end
$var wire 1 R$ ena $end
$var wire 1 S$ regcea $end
$var wire 1 ) rsta $end
$var wire 1 T$ wea $end
$var wire 4 U$ douta [3:0] $end
$var parameter 112 V$ INIT_FILE $end
$var parameter 32 W$ RAM_DEPTH $end
$var parameter 128 X$ RAM_PERFORMANCE $end
$var parameter 32 Y$ RAM_WIDTH $end
$var reg 4 Z$ ram_data [3:0] $end
$scope function clogb2 $end
$var integer 32 [$ depth [31:0] $end
$upscope $end
$scope begin output_register $end
$var reg 4 \$ douta_reg [3:0] $end
$upscope $end
$scope begin use_init_file $end
$upscope $end
$upscope $end
$scope begin $ivl_for_loop2 $end
$var integer 32 ]$ i [31:0] $end
$upscope $end
$upscope $end
$scope begin $ivl_for_loop0 $end
$var integer 32 ^$ i [31:0] $end
$scope begin $ivl_for_loop1 $end
$var integer 32 _$ j [31:0] $end
$upscope $end
$upscope $end
$upscope $end
$enddefinitions $end
$comment Show the parameter values. $end
$dumpall
b100 Y$
b1001000010010010100011101001000010111110101000001000101010100100100011001001111010100100100110101000001010011100100001101000101 X$
b100000000 W$
b110010001100001011101000110000100101111011101000111001001100001011000110110101100101110011011010110010101101101 V$
b1011 L$
b1001000010010010100011101001000010111110101000001000101010100100100011001001111010100100100110101000001010011100100001101000101 K$
b101101000 J$
b11001000110000101110100011000010010111101110011011010010110111000101110011011010110010101101101 I$
b1100 ?$
b1001000010010010100011101001000010111110101000001000101010100100100011001001111010100100100110101000001010011100100001101000101 >$
b100000000 =$
b110010001100001011101000110000100101111011100100110010101100100010111110111001101110001011101010110000101110010011001010101111101110000011000010110110000101110011011010110010101101101 <$
b1100 2$
b1001000010010010100011101001000010111110101000001000101010100100100011001001111010100100100110101000001010011100100001101000101 1$
b100000000 0$
b110010001100001011101000110000100101111011100100110010101100100010111110111001101110001011101010110000101110010011001010101111101110000011000010110110000101110011011010110010101101101 /$
b1100 %$
b1001000010010010100011101001000010111110101000001000101010100100100011001001111010100100100110101000001010011100100001101000101 $$
b100000000 #$
b110010001100001011101000110000100101111 "$
b1100 v#
b1001000010010010100011101001000010111110101000001000101010100100100011001001111010100100100110101000001010011100100001101000101 u#
b100000000 t#
b110010001100001011101000110000100101111 s#
b1100 i#
b1001000010010010100011101001000010111110101000001000101010100100100011001001111010100100100110101000001010011100100001101000101 h#
b100000000 g#
b110010001100001011101000110000100101111 f#
b1100 \#
b1001000010010010100011101001000010111110101000001000101010100100100011001001111010100100100110101000001010011100100001101000101 [#
b100000000 Z#
b110010001100001011101000110000100101111 Y#
b1100 O#
b1001000010010010100011101001000010111110101000001000101010100100100011001001111010100100100110101000001010011100100001101000101 N#
b100000000 M#
b110010001100001011101000110000100101111 L#
b1100 B#
b1001000010010010100011101001000010111110101000001000101010100100100011001001111010100100100110101000001010011100100001101000101 A#
b100000000 @#
b110010001100001011101000110000100101111 ?#
b1100 5#
b1001000010010010100011101001000010111110101000001000101010100100100011001001111010100100100110101000001010011100100001101000101 4#
b100000000 3#
b11001000110000101110100011000010010111101100111011100100110010101111001010111110111001101110001011101010110000101110010011001010101111101110000011000010110110000101110011011010110010101101101 2#
b1100 (#
b1001000010010010100011101001000010111110101000001000101010100100100011001001111010100100100110101000001010011100100001101000101 '#
b100000000 &#
b1100100011000010111010001100001001011110110001001101100011000010110001101101011010111110111001101110001011101010110000101110010011001010101111101110000011000010110110000101110011011010110010101101101 %#
b1000 y"
b1001000010010010100011101001000010111110101000001000101010100100100011001001111010100100100110101000001010011100100001101000101 x"
b10000000000 w"
b1100100011000010111010001100001001011110111001001100101011001000101111101110011011100010111010101100001011100100110010100101110011011010110010101101101 v"
b1000 l"
b1001000010010010100011101001000010111110101000001000101010100100100011001001111010100100100110101000001010011100100001101000101 k"
b10000000000 j"
b1100100011000010111010001100001001011110111001001100101011001000101111101110011011100010111010101100001011100100110010100101110011011010110010101101101 i"
b1000 _"
b1001000010010010100011101001000010111110101000001000101010100100100011001001111010100100100110101000001010011100100001101000101 ^"
b10000000000 ]"
b110010001100001011101000110000100101111 \"
b1000 R"
b1001000010010010100011101001000010111110101000001000101010100100100011001001111010100100100110101000001010011100100001101000101 Q"
b10000000000 P"
b110010001100001011101000110000100101111 O"
b1000 E"
b1001000010010010100011101001000010111110101000001000101010100100100011001001111010100100100110101000001010011100100001101000101 D"
b10000000000 C"
b110010001100001011101000110000100101111 B"
b1000 8"
b1001000010010010100011101001000010111110101000001000101010100100100011001001111010100100100110101000001010011100100001101000101 7"
b10000000000 6"
b110010001100001011101000110000100101111 5"
b1000 +"
b1001000010010010100011101001000010111110101000001000101010100100100011001001111010100100100110101000001010011100100001101000101 *"
b10000000000 )"
b110010001100001011101000110000100101111 ("
b1000 |
b1001000010010010100011101001000010111110101000001000101010100100100011001001111010100100100110101000001010011100100001101000101 {
b10000000000 z
b110010001100001011101000110000100101111 y
b1000 o
b1001000010010010100011101001000010111110101000001000101010100100100011001001111010100100100110101000001010011100100001101000101 n
b10000000000 m
b110010001100001011101000110000100101111011001110111001001100101011110010101111101110011011100010111010101100001011100100110010100101110011011010110010101101101 l
b1000 b
b1001000010010010100011101001000010111110101000001000101010100100100011001001111010100100100110101000001010011100100001101000101 a
b10000000000 `
b11001000110000101110100011000010010111101100010011011000110000101100011011010110101111101110011011100010111010101100001011100100110010100101110011011010110010101101101 _
b1011 U
b1001000010010010100011101001000010111110101000001000101010100100100011001001111010100100100110101000001010011100100001101000101 T
b101101000 S
b11001000110000101110100011000010010111101100011011011110111001100101110011011010110010101101101 R
$end
#0
$dumpvars
b0 _$
b0 ^$
b0 ]$
b0 \$
bx [$
b0 Z$
b0 U$
0T$
1S$
1R$
b0 Q$
bx P$
b0 O$
bx N$
b0 M$
b0 H$
0G$
1F$
1E$
b0 D$
bx C$
b0 B$
bx A$
b0 @$
b0 ;$
0:$
19$
x8$
b0 7$
b0 6$
b0 5$
bx 4$
b0 3$
b0 .$
0-$
1,$
x+$
b0 *$
b0 )$
b0 ($
bx '$
b0 &$
b0 !$
0~#
1}#
x|#
b0 {#
b0 z#
b0 y#
bx x#
b0 w#
b0 r#
0q#
1p#
xo#
b0 n#
b0 m#
b0 l#
bx k#
b0 j#
b0 e#
0d#
1c#
xb#
b0 a#
b0 `#
b0 _#
bx ^#
b0 ]#
b0 X#
0W#
1V#
xU#
b0 T#
b0 S#
b0 R#
bx Q#
b0 P#
b0 K#
0J#
1I#
xH#
b0 G#
b0 F#
b0 E#
bx D#
b0 C#
b0 >#
0=#
1<#
x;#
b0 :#
b0 9#
b0 8#
bx 7#
b0 6#
b0 1#
00#
1/#
x.#
b0 -#
b0 ,#
b0 +#
bx *#
b0 )#
b0 $#
0##
1"#
x!#
b0 ~"
b0 }"
b0 |"
bx {"
b0 z"
b0 u"
0t"
1s"
xr"
b0 q"
bx p"
b0 o"
bx n"
b0 m"
b0 h"
0g"
1f"
xe"
b0 d"
bx c"
b0 b"
bx a"
b0 `"
b0 ["
0Z"
1Y"
0X"
b0 W"
bx V"
b0 U"
bx T"
b0 S"
b0 N"
0M"
1L"
0K"
b0 J"
bx I"
b0 H"
bx G"
b0 F"
b0 A"
0@"
1?"
0>"
b0 ="
bx <"
b0 ;"
bx :"
b0 9"
b0 4"
03"
12"
01"
b0 0"
bx /"
b0 ."
bx -"
b0 ,"
b0 '"
0&"
1%"
0$"
b0 #"
bx ""
b0 !"
bx ~
b0 }
b0 x
0w
1v
0u
b0 t
bx s
b0 r
bx q
b0 p
b0 k
0j
1i
0h
b0 g
bx f
b0 e
bx d
b0 c
b0 ^
0]
1\
x[
b0 Z
bx Y
b0 X
bx W
b0 V
b0 Q
0P
1O
1N
b0 M
bx L
r201 K
bx J
bx I
bx H
bx G
bx F
bx E
bx D
bx C
b0 B
bx A
bx @
bx ?
bx >
bz000000000000000000000000000000000000000000000000000000000000000000000000000000000000000000000000000000000000000000000000 =
b0 <
bx ;
bx00xxxxx :
b0 9
bx 8
b0 7
bx 6
bx 5
bx 4
bx 3
bx 2
bx 1
b0 0
x/
0.
bx -
bx ,
r0 +
bx *
1)
bx (
bx '
bx &
bx %
bx $
bx #
0"
bx !
$end
#10000
bx Z$
bx V
bx M$
bx0000000000 G
bx0 E
bx00xxxxx H
bx0000 J
b100 ]$
1"
#20000
0"
r201 +
b1011010 #
b1011010 ,
b1011010 L
b1011010 C$
b11100000 &
b11100000 2
b11100000 %
b11100000 1
b11000000 (
b11000000 4
b11000000 '
b11000000 3
0)
#30000
xX"
xK"
x>"
x1"
x$"
xu
xh
1!#
0.#
0;#
0H#
0U#
0b#
0o#
0|#
0+$
08$
b0 p"
0r"
bx00xxxxx c"
bx00000000 J
b1000000000 M$
bx 9
bx H$
bx O$
b0 V
bx B
bx Q
bx X
bx 7
bx U$
bx \$
b0 G
b0 E
bx00xxxxxxxx00xxxxx H
b100 ]$
1"
#40000
b1110000111 :
0/
b1111111 @
b1111111 A
0"
b100000000 *
b100000000 5
b1010000000 $
b1010000000 -
b1010000000 _$
b100000000 ^$
#50000
b0 B
b0 Q
b0 X
b1000000000 9
b1000000000 H$
b1000000000 O$
bx0000000000000001111111 C
bx0000000000000001111111 D
bx00xxxxx1110000111 H
bx0 F
bx00000000xxxx J
b100 ]$
1"
#60000
b1111110 A
0"
b1010000001 $
b1010000001 -
b1010000001 _$
#70000
b100000 6
b100000 P$
b111110000 8
b1000001 ?
b100111111 >
b0 !
b0 ;
x!#
x.#
x;#
xH#
xU#
xb#
xo#
x|#
x+$
x8$
b1110000111 c"
0e"
b0xxxxxxxx J
b11111110000000000000001111110 C
b11111110000000000000001111111 D
b11100001111110000111 H
b0 F
b100 ]$
1"
#80000
b1111101 A
0"
b1010000010 $
b1010000010 -
b1010000010 _$
#90000
b100111110 >
b0xxxxxxxxxxxx J
b0 Z$
b11111100000000000000001111101 C
bx0111110000 I
b100 ]$
1"
#100000
b1111100 A
0"
b1010000011 $
b1010000011 -
b1010000011 _$
#110000
0X"
0K"
0>"
01"
0$"
0u
0h
1[
b100111101 >
bx !
bx ;
b111110000 Y
b111110000 f
b111110000 s
b111110000 ""
b111110000 /"
b111110000 <"
b111110000 I"
b111110000 V"
bx J
b0 7
b0 U$
b0 \$
b11111010000000000000001111100 C
b1111100000111110000 I
b100 ]$
1"
#120000
b1110001000 :
b1111011 A
0"
b1010000100 $
b1010000100 -
b1010000100 _$
#130000
b100111100 >
b11111000000000000000001111011 C
b11100001111110001000 H
bx0000 J
b100 ]$
1"
#140000
b1111010 A
0"
b1010000101 $
b1010000101 -
b1010000101 _$
#150000
b111010000 8
b100111011 >
1!#
0.#
0;#
0H#
0U#
0b#
0o#
0|#
0+$
08$
b1110001000 c"
bx00000000 J
b11110110000000000000001111010 C
b11100010001110001000 H
b100 ]$
1"
#160000
b1111001 A
0"
b1010000110 $
b1010000110 -
b1010000110 _$
#170000
b100111010 >
bx000000000000 J
b11110100000000000000001111001 C
b1111100000111010000 I
b100 ]$
1"
#180000
b1111000 A
0"
b1010000111 $
b1010000111 -
b1010000111 _$
#190000
b100111001 >
b0 !
b0 ;
b111010000 Y
b111010000 f
b111010000 s
b111010000 ""
b111010000 /"
b111010000 <"
b111010000 I"
b111010000 V"
b0 J
b11110010000000000000001111000 C
b1110100000111010000 I
b100 ]$
1"
#200000
b1110001001 :
b1110111 A
0"
b1010001000 $
b1010001000 -
b1010001000 _$
#210000
b100111000 >
b11110000000000000000001110111 C
b11100010001110001001 H
b100 ]$
1"
#220000
b1110110 A
0"
b1010001001 $
b1010001001 -
b1010001001 _$
#230000
b110110000 8
b100110111 >
b1110001001 c"
b11101110000000000000001110110 C
b11100010011110001001 H
b100 ]$
1"
#240000
b1110101 A
0"
b1010001010 $
b1010001010 -
b1010001010 _$
#250000
b100110110 >
b11101100000000000000001110101 C
b1110100000110110000 I
b100 ]$
1"
#260000
b1110100 A
0"
b1010001011 $
b1010001011 -
b1010001011 _$
#270000
b100110101 >
b110110000 Y
b110110000 f
b110110000 s
b110110000 ""
b110110000 /"
b110110000 <"
b110110000 I"
b110110000 V"
b11101010000000000000001110100 C
b1101100000110110000 I
b100 ]$
1"
