receive.vcd
$date
	Fri Dec 02 22:06:34 2022
$end
$version
	Icarus Verilog
$end
$timescale
	1ps
$end
$scope module receive_tb $end
$var wire 1 ! eth_rstn $end
$var wire 1 " axiov $end
$var wire 2 # axiod [1:0] $end
$var reg 1 $ btnc $end
$var reg 1 % eth_clk $end
$var reg 1 & eth_crsdv $end
$var reg 2 ' eth_rxd [1:0] $end
$var reg 512 ( message [511:0] $end
$scope module r1 $end
$var wire 2 ) axiod [1:0] $end
$var wire 1 " axiov $end
$var wire 1 $ btnc $end
$var wire 1 & eth_crsdv $end
$var wire 1 % eth_refclk $end
$var wire 2 * eth_rxd [1:0] $end
$var wire 1 + kill $end
$var wire 1 , fire_axiov $end
$var wire 2 - fire_axiod [1:0] $end
$var wire 1 ! eth_rstn $end
$var wire 1 . eth_axiov $end
$var wire 2 / eth_axiod [1:0] $end
$var wire 1 0 done $end
$var wire 1 1 bit_axiov $end
$var wire 2 2 bit_axiod [1:0] $end
$scope module b1 $end
$var wire 1 % clk $end
$var wire 1 $ rst $end
$var wire 1 . axiiv $end
$var wire 2 3 axiid [1:0] $end
$var reg 2 4 axiod [1:0] $end
$var reg 1 1 axiov $end
$var reg 16 5 b1_count [15:0] $end
$var reg 16 6 b2_count [15:0] $end
$var reg 8 7 buff1 [7:0] $end
$var reg 8 8 buff2 [7:0] $end
$var reg 1 9 read_buff1 $end
$var reg 1 : read_buff2 $end
$var reg 1 ; readout_buff1 $end
$var reg 1 < readout_buff2 $end
$upscope $end
$scope module c1 $end
$var wire 1 % clk $end
$var wire 1 = crc_axiov $end
$var wire 1 $ rst $end
$var wire 32 > crc_axiod [31:0] $end
$var wire 1 . axiiv $end
$var wire 2 ? axiid [1:0] $end
$var reg 1 @ assert_s $end
$var reg 1 A check_s $end
$var reg 1 B crc_rst $end
$var reg 1 0 done $end
$var reg 1 C done_check $end
$var reg 1 + kill $end
$var reg 1 D kill_check $end
$scope module c1 $end
$var wire 32 E axiod [31:0] $end
$var wire 1 = axiov $end
$var wire 1 % clk $end
$var wire 1 B rst $end
$var wire 1 . axiiv $end
$var wire 2 F axiid [1:0] $end
$var reg 32 G caxiod [31:0] $end
$var reg 32 H saxiod [31:0] $end
$var integer 32 I i [31:0] $end
$upscope $end
$upscope $end
$scope module e1 $end
$var wire 1 % clk $end
$var wire 1 & crsdv $end
$var wire 1 $ rst $end
$var wire 2 J rxd [1:0] $end
$var reg 8 K SFD [7:0] $end
$var reg 2 L axiod [1:0] $end
$var reg 1 . axiov $end
$var reg 1 M check_rxd_state $end
$var reg 16 N counter [15:0] $end
$var reg 1 O ignore_state $end
$var reg 8 P preamble [7:0] $end
$var reg 1 Q reset_state $end
$var reg 33 R total_counter [32:0] $end
$var reg 1 S transmit_state $end
$var reg 1 T validate_state $end
$var reg 1 U wait_state $end
$upscope $end
$scope module f1 $end
$var wire 2 V axiid [1:0] $end
$var wire 1 1 axiiv $end
$var wire 1 % clk $end
$var wire 1 $ rst $end
$var reg 2 W axiod [1:0] $end
$var reg 1 , axiov $end
$var reg 48 X buffer [47:0] $end
$var reg 1 Y check_header $end
$var reg 48 Z dest [47:0] $end
$var reg 1 [ destination $end
$var reg 16 \ h_counter [15:0] $end
$var reg 1 ] ignore $end
$var reg 48 ^ mac [47:0] $end
$var reg 1 _ output_data $end
$var reg 1 ` wait_header $end
$upscope $end
$upscope $end
$upscope $end
$enddefinitions $end
$comment Show the parameter values. $end
$dumpall
$end
#0
$dumpvars
x`
x_
bx ^
x]
bx \
x[
bx Z
xY
bx X
bx W
b0 V
xU
xT
xS
bx R
xQ
bx P
xO
bx N
xM
bx L
bx K
bx J
bx I
bx H
bx G
bx F
bx E
xD
xC
xB
xA
x@
bx ?
bx >
1=
x<
x;
x:
x9
bx 8
bx 7
bx 6
bx 5
b0 4
bx 3
b0 2
01
x0
bx /
x.
bx -
x,
x+
bx *
bx )
b1010101010101010101010101010101010101010101010101010101110101011111111111111111111111111111111111111111111111111111111111111111111111111111111111111111111111110000000000000000000000010000000000010000001011010000001000000000000000000000000000000000000000000000000000000000000000000000000000000000000000000000000000000000000000000000000000000000000000000000000000000000000000000000000000000000000000000000000000000000000000000000000000000000000000000000000000000000000000000000000011001011111101000011100100100110 (
bx '
x&
0%
1$
bx #
x"
0!
$end
#10000
0,
b0 R
0"
0.
b0 N
b11010101 K
b1010101 P
0M
0O
0S
0T
1U
0Q
0<
0;
0:
19
b0 6
b0 5
b0 8
b0 7
b111111111111111111111111111111111111111111111111 Z
b11010010110100101011010000001100101010010010001 ^
b0 X
0[
b0 \
0`
0]
0_
1Y
0+
00
1B
0C
0D
0A
1@
1%
#20000
0%
b0 '
b0 *
b0 J
0&
1!
0$
#30000
b1111xx1xxx1111xx11xxxxxxxxxxxxxx H
b100000 I
b0 >
b0 E
0B
b11111111111111111111111111111111 G
1%
#40000
0%
b1010101010101010101010101010101010101010101010101010111010101111111111111111111111111111111111111111111111111111111111111111111111111111111111111111111111111000000000000000000000001000000000001000000101101000000100000000000000000000000000000000000000000000000000000000000000000000000000000000000000000000000000000000000000000000000000000000000000000000000000000000000000000000000000000000000000000000000000000000000000000000000000000000000000000000000000000000000000000000000001100101111110100001110010010011000 (
b1 '
b1 *
b1 J
1&
#50000
0U
1M
1%
#60000
0%
b1010101010101010101010101010101010101010101010101011101010111111111111111111111111111111111111111111111111111111111111111111111111111111111111111111111111100000000000000000000000100000000000100000010110100000010000000000000000000000000000000000000000000000000000000000000000000000000000000000000000000000000000000000000000000000000000000000000000000000000000000000000000000000000000000000000000000000000000000000000000000000000000000000000000000000000000000000000000000000000110010111111010000111001001001100000 (
#70000
b1 R
1T
0M
1%
#80000
0%
b1010101010101010101010101010101010101010101010101110101011111111111111111111111111111111111111111111111111111111111111111111111111111111111111111111111110000000000000000000000010000000000010000001011010000001000000000000000000000000000000000000000000000000000000000000000000000000000000000000000000000000000000000000000000000000000000000000000000000000000000000000000000000000000000000000000000000000000000000000000000000000000000000000000000000000000000000000000000000000011001011111101000011100100100110000000 (
#90000
b10 R
1%
#100000
0%
b1010101010101010101010101010101010101010101010111010101111111111111111111111111111111111111111111111111111111111111111111111111111111111111111111111111000000000000000000000001000000000001000000101101000000100000000000000000000000000000000000000000000000000000000000000000000000000000000000000000000000000000000000000000000000000000000000000000000000000000000000000000000000000000000000000000000000000000000000000000000000000000000000000000000000000000000000000000000000001100101111110100001110010010011000000000 (
#110000
b11 R
1%
#120000
0%
b1010101010101010101010101010101010101010101011101010111111111111111111111111111111111111111111111111111111111111111111111111111111111111111111111111100000000000000000000000100000000000100000010110100000010000000000000000000000000000000000000000000000000000000000000000000000000000000000000000000000000000000000000000000000000000000000000000000000000000000000000000000000000000000000000000000000000000000000000000000000000000000000000000000000000000000000000000000000000110010111111010000111001001001100000000000 (
#130000
b100 R
1%
#140000
0%
b1010101010101010101010101010101010101010101110101011111111111111111111111111111111111111111111111111111111111111111111111111111111111111111111111110000000000000000000000010000000000010000001011010000001000000000000000000000000000000000000000000000000000000000000000000000000000000000000000000000000000000000000000000000000000000000000000000000000000000000000000000000000000000000000000000000000000000000000000000000000000000000000000000000000000000000000000000000000011001011111101000011100100100110000000000000 (
#150000
b101 R
1%
#160000
0%
b1010101010101010101010101010101010101010111010101111111111111111111111111111111111111111111111111111111111111111111111111111111111111111111111111000000000000000000000001000000000001000000101101000000100000000000000000000000000000000000000000000000000000000000000000000000000000000000000000000000000000000000000000000000000000000000000000000000000000000000000000000000000000000000000000000000000000000000000000000000000000000000000000000000000000000000000000000000001100101111110100001110010010011000000000000000 (
#170000
b110 R
1%
#180000
0%
b1010101010101010101010101010101010101011101010111111111111111111111111111111111111111111111111111111111111111111111111111111111111111111111111100000000000000000000000100000000000100000010110100000010000000000000000000000000000000000000000000000000000000000000000000000000000000000000000000000000000000000000000000000000000000000000000000000000000000000000000000000000000000000000000000000000000000000000000000000000000000000000000000000000000000000000000000000000110010111111010000111001001001100000000000000000 (
#190000
b111 R
1%
#200000
0%
b1010101010101010101010101010101010101110101011111111111111111111111111111111111111111111111111111111111111111111111111111111111111111111111110000000000000000000000010000000000010000001011010000001000000000000000000000000000000000000000000000000000000000000000000000000000000000000000000000000000000000000000000000000000000000000000000000000000000000000000000000000000000000000000000000000000000000000000000000000000000000000000000000000000000000000000000000000011001011111101000011100100100110000000000000000000 (
#210000
b1000 R
1%
#220000
0%
b1010101010101010101010101010101010111010101111111111111111111111111111111111111111111111111111111111111111111111111111111111111111111111111000000000000000000000001000000000001000000101101000000100000000000000000000000000000000000000000000000000000000000000000000000000000000000000000000000000000000000000000000000000000000000000000000000000000000000000000000000000000000000000000000000000000000000000000000000000000000000000000000000000000000000000000000000001100101111110100001110010010011000000000000000000000 (
#230000
b1001 R
1%
#240000
0%
b1010101010101010101010101010101011101010111111111111111111111111111111111111111111111111111111111111111111111111111111111111111111111111100000000000000000000000100000000000100000010110100000010000000000000000000000000000000000000000000000000000000000000000000000000000000000000000000000000000000000000000000000000000000000000000000000000000000000000000000000000000000000000000000000000000000000000000000000000000000000000000000000000000000000000000000000000110010111111010000111001001001100000000000000000000000 (
#250000
b1010 R
1%
#260000
0%
b1010101010101010101010101010101110101011111111111111111111111111111111111111111111111111111111111111111111111111111111111111111111111110000000000000000000000010000000000010000001011010000001000000000000000000000000000000000000000000000000000000000000000000000000000000000000000000000000000000000000000000000000000000000000000000000000000000000000000000000000000000000000000000000000000000000000000000000000000000000000000000000000000000000000000000000000011001011111101000011100100100110000000000000000000000000 (
#270000
b1011 R
1%
#280000
0%
b1010101010101010101010101010111010101111111111111111111111111111111111111111111111111111111111111111111111111111111111111111111111111000000000000000000000001000000000001000000101101000000100000000000000000000000000000000000000000000000000000000000000000000000000000000000000000000000000000000000000000000000000000000000000000000000000000000000000000000000000000000000000000000000000000000000000000000000000000000000000000000000000000000000000000000000001100101111110100001110010010011000000000000000000000000000 (
#290000
b1100 R
1%
#300000
0%
b1010101010101010101010101011101010111111111111111111111111111111111111111111111111111111111111111111111111111111111111111111111111100000000000000000000000100000000000100000010110100000010000000000000000000000000000000000000000000000000000000000000000000000000000000000000000000000000000000000000000000000000000000000000000000000000000000000000000000000000000000000000000000000000000000000000000000000000000000000000000000000000000000000000000000000000110010111111010000111001001001100000000000000000000000000000 (
#310000
b1101 R
1%
#320000
0%
b1010101010101010101010101110101011111111111111111111111111111111111111111111111111111111111111111111111111111111111111111111111110000000000000000000000010000000000010000001011010000001000000000000000000000000000000000000000000000000000000000000000000000000000000000000000000000000000000000000000000000000000000000000000000000000000000000000000000000000000000000000000000000000000000000000000000000000000000000000000000000000000000000000000000000000011001011111101000011100100100110000000000000000000000000000000 (
#330000
b1110 R
1%
#340000
0%
b1010101010101010101010111010101111111111111111111111111111111111111111111111111111111111111111111111111111111111111111111111111000000000000000000000001000000000001000000101101000000100000000000000000000000000000000000000000000000000000000000000000000000000000000000000000000000000000000000000000000000000000000000000000000000000000000000000000000000000000000000000000000000000000000000000000000000000000000000000000000000000000000000000000000000001100101111110100001110010010011000000000000000000000000000000000 (
#350000
b1111 R
1%
#360000
0%
b1010101010101010101011101010111111111111111111111111111111111111111111111111111111111111111111111111111111111111111111111111100000000000000000000000100000000000100000010110100000010000000000000000000000000000000000000000000000000000000000000000000000000000000000000000000000000000000000000000000000000000000000000000000000000000000000000000000000000000000000000000000000000000000000000000000000000000000000000000000000000000000000000000000000000110010111111010000111001001001100000000000000000000000000000000000 (
#370000
b10000 R
1%
#380000
0%
b1010101010101010101110101011111111111111111111111111111111111111111111111111111111111111111111111111111111111111111111111110000000000000000000000010000000000010000001011010000001000000000000000000000000000000000000000000000000000000000000000000000000000000000000000000000000000000000000000000000000000000000000000000000000000000000000000000000000000000000000000000000000000000000000000000000000000000000000000000000000000000000000000000000000011001011111101000011100100100110000000000000000000000000000000000000 (
#390000
b10001 R
1%
#400000
0%
b1010101010101010111010101111111111111111111111111111111111111111111111111111111111111111111111111111111111111111111111111000000000000000000000001000000000001000000101101000000100000000000000000000000000000000000000000000000000000000000000000000000000000000000000000000000000000000000000000000000000000000000000000000000000000000000000000000000000000000000000000000000000000000000000000000000000000000000000000000000000000000000000000000000001100101111110100001110010010011000000000000000000000000000000000000000 (
#410000
b10010 R
1%
#420000
0%
b1010101010101011101010111111111111111111111111111111111111111111111111111111111111111111111111111111111111111111111111100000000000000000000000100000000000100000010110100000010000000000000000000000000000000000000000000000000000000000000000000000000000000000000000000000000000000000000000000000000000000000000000000000000000000000000000000000000000000000000000000000000000000000000000000000000000000000000000000000000000000000000000000000000110010111111010000111001001001100000000000000000000000000000000000000000 (
#430000
b10011 R
1%
#440000
0%
b1010101010101110101011111111111111111111111111111111111111111111111111111111111111111111111111111111111111111111111110000000000000000000000010000000000010000001011010000001000000000000000000000000000000000000000000000000000000000000000000000000000000000000000000000000000000000000000000000000000000000000000000000000000000000000000000000000000000000000000000000000000000000000000000000000000000000000000000000000000000000000000000000000011001011111101000011100100100110000000000000000000000000000000000000000000 (
#450000
b10100 R
1%
#460000
0%
b1010101010111010101111111111111111111111111111111111111111111111111111111111111111111111111111111111111111111111111000000000000000000000001000000000001000000101101000000100000000000000000000000000000000000000000000000000000000000000000000000000000000000000000000000000000000000000000000000000000000000000000000000000000000000000000000000000000000000000000000000000000000000000000000000000000000000000000000000000000000000000000000000001100101111110100001110010010011000000000000000000000000000000000000000000000 (
#470000
b10101 R
1%
#480000
0%
b1010101011101010111111111111111111111111111111111111111111111111111111111111111111111111111111111111111111111111100000000000000000000000100000000000100000010110100000010000000000000000000000000000000000000000000000000000000000000000000000000000000000000000000000000000000000000000000000000000000000000000000000000000000000000000000000000000000000000000000000000000000000000000000000000000000000000000000000000000000000000000000000000110010111111010000111001001001100000000000000000000000000000000000000000000000 (
#490000
b10110 R
1%
#500000
0%
b1010101110101011111111111111111111111111111111111111111111111111111111111111111111111111111111111111111111111110000000000000000000000010000000000010000001011010000001000000000000000000000000000000000000000000000000000000000000000000000000000000000000000000000000000000000000000000000000000000000000000000000000000000000000000000000000000000000000000000000000000000000000000000000000000000000000000000000000000000000000000000000000011001011111101000011100100100110000000000000000000000000000000000000000000000000 (
#510000
b10111 R
1%
#520000
0%
b1010111010101111111111111111111111111111111111111111111111111111111111111111111111111111111111111111111111111000000000000000000000001000000000001000000101101000000100000000000000000000000000000000000000000000000000000000000000000000000000000000000000000000000000000000000000000000000000000000000000000000000000000000000000000000000000000000000000000000000000000000000000000000000000000000000000000000000000000000000000000000000001100101111110100001110010010011000000000000000000000000000000000000000000000000000 (
#530000
b11000 R
1%
#540000
0%
b1011101010111111111111111111111111111111111111111111111111111111111111111111111111111111111111111111111111100000000000000000000000100000000000100000010110100000010000000000000000000000000000000000000000000000000000000000000000000000000000000000000000000000000000000000000000000000000000000000000000000000000000000000000000000000000000000000000000000000000000000000000000000000000000000000000000000000000000000000000000000000000110010111111010000111001001001100000000000000000000000000000000000000000000000000000 (
#550000
b11001 R
1%
#560000
0%
b1110101011111111111111111111111111111111111111111111111111111111111111111111111111111111111111111111111110000000000000000000000010000000000010000001011010000001000000000000000000000000000000000000000000000000000000000000000000000000000000000000000000000000000000000000000000000000000000000000000000000000000000000000000000000000000000000000000000000000000000000000000000000000000000000000000000000000000000000000000000000000011001011111101000011100100100110000000000000000000000000000000000000000000000000000000 (
#570000
b11010 R
1%
#580000
0%
b11010101111111111111111111111111111111111111111111111111111111111111111111111111111111111111111111111111000000000000000000000001000000000001000000101101000000100000000000000000000000000000000000000000000000000000000000000000000000000000000000000000000000000000000000000000000000000000000000000000000000000000000000000000000000000000000000000000000000000000000000000000000000000000000000000000000000000000000000000000000000001100101111110100001110010010011000000000000000000000000000000000000000000000000000000000 (
#590000
b11011 R
1%
#600000
0%
b1010111111111111111111111111111111111111111111111111111111111111111111111111111111111111111111111111100000000000000000000000100000000000100000010110100000010000000000000000000000000000000000000000000000000000000000000000000000000000000000000000000000000000000000000000000000000000000000000000000000000000000000000000000000000000000000000000000000000000000000000000000000000000000000000000000000000000000000000000000000000110010111111010000111001001001100000000000000000000000000000000000000000000000000000000000 (
b11 '
b11 *
b11 J
#610000
1O
0T
1%
#620000
0%
b1011111111111111111111111111111111111111111111111111111111111111111111111111111111111111111111111110000000000000000000000010000000000010000001011010000001000000000000000000000000000000000000000000000000000000000000000000000000000000000000000000000000000000000000000000000000000000000000000000000000000000000000000000000000000000000000000000000000000000000000000000000000000000000000000000000000000000000000000000000000011001011111101000011100100100110000000000000000000000000000000000000000000000000000000000000 (
b1 '
b1 *
b1 J
#630000
b0 R
1%
#640000
0%
b1111111111111111111111111111111111111111111111111111111111111111111111111111111111111111111111111000000000000000000000001000000000001000000101101000000100000000000000000000000000000000000000000000000000000000000000000000000000000000000000000000000000000000000000000000000000000000000000000000000000000000000000000000000000000000000000000000000000000000000000000000000000000000000000000000000000000000000000000000000001100101111110100001110010010011000000000000000000000000000000000000000000000000000000000000000 (
#650000
1%
#660000
0%
b11111111111111111111111111111111111111111111111111111111111111111111111111111111111111111111111100000000000000000000000100000000000100000010110100000010000000000000000000000000000000000000000000000000000000000000000000000000000000000000000000000000000000000000000000000000000000000000000000000000000000000000000000000000000000000000000000000000000000000000000000000000000000000000000000000000000000000000000000000000110010111111010000111001001001100000000000000000000000000000000000000000000000000000000000000000 (
#670000
1%
#680000
0%
b11111111111111111111111111111111111111111111111111111111111111111111111111111111111111111111110000000000000000000000010000000000010000001011010000001000000000000000000000000000000000000000000000000000000000000000000000000000000000000000000000000000000000000000000000000000000000000000000000000000000000000000000000000000000000000000000000000000000000000000000000000000000000000000000000000000000000000000000000000011001011111101000011100100100110000000000000000000000000000000000000000000000000000000000000000000 (
b11 '
b11 *
b11 J
#690000
1%
#700000
0%
b11111111111111111111111111111111111111111111111111111111111111111111111111111111111111111111000000000000000000000001000000000001000000101101000000100000000000000000000000000000000000000000000000000000000000000000000000000000000000000000000000000000000000000000000000000000000000000000000000000000000000000000000000000000000000000000000000000000000000000000000000000000000000000000000000000000000000000000000000001100101111110100001110010010011000000000000000000000000000000000000000000000000000000000000000000000 (
#710000
1%
#720000
0%
b11111111111111111111111111111111111111111111111111111111111111111111111111111111111111111100000000000000000000000100000000000100000010110100000010000000000000000000000000000000000000000000000000000000000000000000000000000000000000000000000000000000000000000000000000000000000000000000000000000000000000000000000000000000000000000000000000000000000000000000000000000000000000000000000000000000000000000000000000110010111111010000111001001001100000000000000000000000000000000000000000000000000000000000000000000000 (
#730000
1%
#740000
0%
b11111111111111111111111111111111111111111111111111111111111111111111111111111111111111110000000000000000000000010000000000010000001011010000001000000000000000000000000000000000000000000000000000000000000000000000000000000000000000000000000000000000000000000000000000000000000000000000000000000000000000000000000000000000000000000000000000000000000000000000000000000000000000000000000000000000000000000000000011001011111101000011100100100110000000000000000000000000000000000000000000000000000000000000000000000000 (
#750000
1%
#760000
0%
b11111111111111111111111111111111111111111111111111111111111111111111111111111111111111000000000000000000000001000000000001000000101101000000100000000000000000000000000000000000000000000000000000000000000000000000000000000000000000000000000000000000000000000000000000000000000000000000000000000000000000000000000000000000000000000000000000000000000000000000000000000000000000000000000000000000000000000000001100101111110100001110010010011000000000000000000000000000000000000000000000000000000000000000000000000000 (
#770000
1%
#780000
0%
b11111111111111111111111111111111111111111111111111111111111111111111111111111111111100000000000000000000000100000000000100000010110100000010000000000000000000000000000000000000000000000000000000000000000000000000000000000000000000000000000000000000000000000000000000000000000000000000000000000000000000000000000000000000000000000000000000000000000000000000000000000000000000000000000000000000000000000000110010111111010000111001001001100000000000000000000000000000000000000000000000000000000000000000000000000000 (
#790000
1%
#800000
0%
b11111111111111111111111111111111111111111111111111111111111111111111111111111111110000000000000000000000010000000000010000001011010000001000000000000000000000000000000000000000000000000000000000000000000000000000000000000000000000000000000000000000000000000000000000000000000000000000000000000000000000000000000000000000000000000000000000000000000000000000000000000000000000000000000000000000000000000011001011111101000011100100100110000000000000000000000000000000000000000000000000000000000000000000000000000000 (
#810000
1%
#820000
0%
b11111111111111111111111111111111111111111111111111111111111111111111111111111111000000000000000000000001000000000001000000101101000000100000000000000000000000000000000000000000000000000000000000000000000000000000000000000000000000000000000000000000000000000000000000000000000000000000000000000000000000000000000000000000000000000000000000000000000000000000000000000000000000000000000000000000000000001100101111110100001110010010011000000000000000000000000000000000000000000000000000000000000000000000000000000000 (
#830000
1%
#840000
0%
b11111111111111111111111111111111111111111111111111111111111111111111111111111100000000000000000000000100000000000100000010110100000010000000000000000000000000000000000000000000000000000000000000000000000000000000000000000000000000000000000000000000000000000000000000000000000000000000000000000000000000000000000000000000000000000000000000000000000000000000000000000000000000000000000000000000000000110010111111010000111001001001100000000000000000000000000000000000000000000000000000000000000000000000000000000000 (
#850000
1%
#860000
0%
b11111111111111111111111111111111111111111111111111111111111111111111111111110000000000000000000000010000000000010000001011010000001000000000000000000000000000000000000000000000000000000000000000000000000000000000000000000000000000000000000000000000000000000000000000000000000000000000000000000000000000000000000000000000000000000000000000000000000000000000000000000000000000000000000000000000000011001011111101000011100100100110000000000000000000000000000000000000000000000000000000000000000000000000000000000000 (
#870000
1%
#880000
0%
b11111111111111111111111111111111111111111111111111111111111111111111111111000000000000000000000001000000000001000000101101000000100000000000000000000000000000000000000000000000000000000000000000000000000000000000000000000000000000000000000000000000000000000000000000000000000000000000000000000000000000000000000000000000000000000000000000000000000000000000000000000000000000000000000000000000001100101111110100001110010010011000000000000000000000000000000000000000000000000000000000000000000000000000000000000000 (
#890000
1%
#900000
0%
b11111111111111111111111111111111111111111111111111111111111111111111111100000000000000000000000100000000000100000010110100000010000000000000000000000000000000000000000000000000000000000000000000000000000000000000000000000000000000000000000000000000000000000000000000000000000000000000000000000000000000000000000000000000000000000000000000000000000000000000000000000000000000000000000000000000110010111111010000111001001001100000000000000000000000000000000000000000000000000000000000000000000000000000000000000000 (
#910000
1%
#920000
0%
b11111111111111111111111111111111111111111111111111111111111111111111110000000000000000000000010000000000010000001011010000001000000000000000000000000000000000000000000000000000000000000000000000000000000000000000000000000000000000000000000000000000000000000000000000000000000000000000000000000000000000000000000000000000000000000000000000000000000000000000000000000000000000000000000000000011001011111101000011100100100110000000000000000000000000000000000000000000000000000000000000000000000000000000000000000000 (
#930000
1%
#940000
0%
b11111111111111111111111111111111111111111111111111111111111111111111000000000000000000000001000000000001000000101101000000100000000000000000000000000000000000000000000000000000000000000000000000000000000000000000000000000000000000000000000000000000000000000000000000000000000000000000000000000000000000000000000000000000000000000000000000000000000000000000000000000000000000000000000000001100101111110100001110010010011000000000000000000000000000000000000000000000000000000000000000000000000000000000000000000000 (
#950000
1%
#960000
0%
b11111111111111111111111111111111111111111111111111111111111111111100000000000000000000000100000000000100000010110100000010000000000000000000000000000000000000000000000000000000000000000000000000000000000000000000000000000000000000000000000000000000000000000000000000000000000000000000000000000000000000000000000000000000000000000000000000000000000000000000000000000000000000000000000000110010111111010000111001001001100000000000000000000000000000000000000000000000000000000000000000000000000000000000000000000000 (
#970000
1%
#980000
0%
b11111111111111111111111111111111111111111111111111111111111111110000000000000000000000010000000000010000001011010000001000000000000000000000000000000000000000000000000000000000000000000000000000000000000000000000000000000000000000000000000000000000000000000000000000000000000000000000000000000000000000000000000000000000000000000000000000000000000000000000000000000000000000000000000011001011111101000011100100100110000000000000000000000000000000000000000000000000000000000000000000000000000000000000000000000000 (
#990000
1%
#1000000
0%
b11111111111111111111111111111111111111111111111111111111111111000000000000000000000001000000000001000000101101000000100000000000000000000000000000000000000000000000000000000000000000000000000000000000000000000000000000000000000000000000000000000000000000000000000000000000000000000000000000000000000000000000000000000000000000000000000000000000000000000000000000000000000000000000001100101111110100001110010010011000000000000000000000000000000000000000000000000000000000000000000000000000000000000000000000000000 (
#1010000
1%
#1020000
0%
b11111111111111111111111111111111111111111111111111111111111100000000000000000000000100000000000100000010110100000010000000000000000000000000000000000000000000000000000000000000000000000000000000000000000000000000000000000000000000000000000000000000000000000000000000000000000000000000000000000000000000000000000000000000000000000000000000000000000000000000000000000000000000000000110010111111010000111001001001100000000000000000000000000000000000000000000000000000000000000000000000000000000000000000000000000000 (
#1030000
1%
#1040000
0%
b11111111111111111111111111111111111111111111111111111111110000000000000000000000010000000000010000001011010000001000000000000000000000000000000000000000000000000000000000000000000000000000000000000000000000000000000000000000000000000000000000000000000000000000000000000000000000000000000000000000000000000000000000000000000000000000000000000000000000000000000000000000000000000011001011111101000011100100100110000000000000000000000000000000000000000000000000000000000000000000000000000000000000000000000000000000 (
#1050000
1%
#1060000
0%
b11111111111111111111111111111111111111111111111111111111000000000000000000000001000000000001000000101101000000100000000000000000000000000000000000000000000000000000000000000000000000000000000000000000000000000000000000000000000000000000000000000000000000000000000000000000000000000000000000000000000000000000000000000000000000000000000000000000000000000000000000000000000000001100101111110100001110010010011000000000000000000000000000000000000000000000000000000000000000000000000000000000000000000000000000000000 (
#1070000
1%
#1080000
0%
b11111111111111111111111111111111111111111111111111111100000000000000000000000100000000000100000010110100000010000000000000000000000000000000000000000000000000000000000000000000000000000000000000000000000000000000000000000000000000000000000000000000000000000000000000000000000000000000000000000000000000000000000000000000000000000000000000000000000000000000000000000000000000110010111111010000111001001001100000000000000000000000000000000000000000000000000000000000000000000000000000000000000000000000000000000000 (
#1090000
1%
#1100000
0%
b11111111111111111111111111111111111111111111111111110000000000000000000000010000000000010000001011010000001000000000000000000000000000000000000000000000000000000000000000000000000000000000000000000000000000000000000000000000000000000000000000000000000000000000000000000000000000000000000000000000000000000000000000000000000000000000000000000000000000000000000000000000000011001011111101000011100100100110000000000000000000000000000000000000000000000000000000000000000000000000000000000000000000000000000000000000 (
#1110000
1%
#1120000
0%
b11111111111111111111111111111111111111111111111111000000000000000000000001000000000001000000101101000000100000000000000000000000000000000000000000000000000000000000000000000000000000000000000000000000000000000000000000000000000000000000000000000000000000000000000000000000000000000000000000000000000000000000000000000000000000000000000000000000000000000000000000000000001100101111110100001110010010011000000000000000000000000000000000000000000000000000000000000000000000000000000000000000000000000000000000000000 (
#1130000
1%
#1140000
0%
b11111111111111111111111111111111111111111111111100000000000000000000000100000000000100000010110100000010000000000000000000000000000000000000000000000000000000000000000000000000000000000000000000000000000000000000000000000000000000000000000000000000000000000000000000000000000000000000000000000000000000000000000000000000000000000000000000000000000000000000000000000000110010111111010000111001001001100000000000000000000000000000000000000000000000000000000000000000000000000000000000000000000000000000000000000000 (
#1150000
1%
#1160000
0%
b11111111111111111111111111111111111111111111110000000000000000000000010000000000010000001011010000001000000000000000000000000000000000000000000000000000000000000000000000000000000000000000000000000000000000000000000000000000000000000000000000000000000000000000000000000000000000000000000000000000000000000000000000000000000000000000000000000000000000000000000000000011001011111101000011100100100110000000000000000000000000000000000000000000000000000000000000000000000000000000000000000000000000000000000000000000 (
#1170000
1%
#1180000
0%
b11111111111111111111111111111111111111111111000000000000000000000001000000000001000000101101000000100000000000000000000000000000000000000000000000000000000000000000000000000000000000000000000000000000000000000000000000000000000000000000000000000000000000000000000000000000000000000000000000000000000000000000000000000000000000000000000000000000000000000000000000001100101111110100001110010010011000000000000000000000000000000000000000000000000000000000000000000000000000000000000000000000000000000000000000000000 (
#1190000
1%
#1200000
0%
b11111111111111111111111111111111111111111100000000000000000000000100000000000100000010110100000010000000000000000000000000000000000000000000000000000000000000000000000000000000000000000000000000000000000000000000000000000000000000000000000000000000000000000000000000000000000000000000000000000000000000000000000000000000000000000000000000000000000000000000000000110010111111010000111001001001100000000000000000000000000000000000000000000000000000000000000000000000000000000000000000000000000000000000000000000000 (
#1210000
1%
#1220000
0%
b11111111111111111111111111111111111111110000000000000000000000010000000000010000001011010000001000000000000000000000000000000000000000000000000000000000000000000000000000000000000000000000000000000000000000000000000000000000000000000000000000000000000000000000000000000000000000000000000000000000000000000000000000000000000000000000000000000000000000000000000011001011111101000011100100100110000000000000000000000000000000000000000000000000000000000000000000000000000000000000000000000000000000000000000000000000 (
#1230000
1%
#1240000
0%
b11111111111111111111111111111111111111000000000000000000000001000000000001000000101101000000100000000000000000000000000000000000000000000000000000000000000000000000000000000000000000000000000000000000000000000000000000000000000000000000000000000000000000000000000000000000000000000000000000000000000000000000000000000000000000000000000000000000000000000000001100101111110100001110010010011000000000000000000000000000000000000000000000000000000000000000000000000000000000000000000000000000000000000000000000000000 (
#1250000
1%
#1260000
0%
b11111111111111111111111111111111111100000000000000000000000100000000000100000010110100000010000000000000000000000000000000000000000000000000000000000000000000000000000000000000000000000000000000000000000000000000000000000000000000000000000000000000000000000000000000000000000000000000000000000000000000000000000000000000000000000000000000000000000000000000110010111111010000111001001001100000000000000000000000000000000000000000000000000000000000000000000000000000000000000000000000000000000000000000000000000000 (
#1270000
1%
#1280000
0%
b11111111111111111111111111111111110000000000000000000000010000000000010000001011010000001000000000000000000000000000000000000000000000000000000000000000000000000000000000000000000000000000000000000000000000000000000000000000000000000000000000000000000000000000000000000000000000000000000000000000000000000000000000000000000000000000000000000000000000000011001011111101000011100100100110000000000000000000000000000000000000000000000000000000000000000000000000000000000000000000000000000000000000000000000000000000 (
#1290000
1%
#1300000
0%
b11111111111111111111111111111111000000000000000000000001000000000001000000101101000000100000000000000000000000000000000000000000000000000000000000000000000000000000000000000000000000000000000000000000000000000000000000000000000000000000000000000000000000000000000000000000000000000000000000000000000000000000000000000000000000000000000000000000000000001100101111110100001110010010011000000000000000000000000000000000000000000000000000000000000000000000000000000000000000000000000000000000000000000000000000000000 (
#1310000
1%
#1320000
0%
b11111111111111111111111111111100000000000000000000000100000000000100000010110100000010000000000000000000000000000000000000000000000000000000000000000000000000000000000000000000000000000000000000000000000000000000000000000000000000000000000000000000000000000000000000000000000000000000000000000000000000000000000000000000000000000000000000000000000000110010111111010000111001001001100000000000000000000000000000000000000000000000000000000000000000000000000000000000000000000000000000000000000000000000000000000000 (
