sin.vcd
$date
	Tue Nov 22 14:37:37 2022
$end
$version
	Icarus Verilog
$end
$timescale
	1ps
$end
$scope module sin_tb $end
$var reg 1 ! clk_in $end
$var reg 11 " num [10:0] $end
$var reg 1 # rst_in $end
$var real 1 $ pi $end
$scope begin $ivl_for_loop0 $end
$var integer 32 % i [31:0] $end
$upscope $end
$upscope $end
$enddefinitions $end
$comment Show the parameter values. $end
$dumpall
$end
#0
$dumpvars
b0 %
r0 $
1#
bx "
0!
$end
#10000
1!
#20000
0!
r201 $
0#
#30000
1!
#40000
0!
b0 "
#50000
1!
#60000
0!
b1001 "
b1 %
#70000
1!
#80000
0!
b10010 "
b10 %
#90000
1!
#100000
0!
b11011 "
b11 %
#110000
1!
#120000
0!
b100100 "
b100 %
#130000
1!
#140000
0!
b101101 "
b101 %
#150000
1!
#160000
0!
b110110 "
b110 %
#170000
1!
#180000
0!
b111110 "
b111 %
#190000
1!
#200000
0!
b1000111 "
b1000 %
#210000
1!
#220000
0!
b1010000 "
b1001 %
#230000
1!
#240000
0!
b1011001 "
b1010 %
#250000
1!
#260000
0!
b1100010 "
b1011 %
#270000
1!
#280000
0!
b1101010 "
b1100 %
#290000
1!
#300000
0!
b1110011 "
b1101 %
#310000
1!
#320000
0!
b1111100 "
b1110 %
#330000
1!
#340000
0!
b10000100 "
b1111 %
#350000
1!
#360000
0!
b10001101 "
b10000 %
#370000
1!
#380000
0!
b10010110 "
b10001 %
#390000
1!
#400000
0!
b10011110 "
b10010 %
#410000
1!
#420000
0!
b10100111 "
b10011 %
#430000
1!
#440000
0!
b10101111 "
b10100 %
#450000
1!
#460000
0!
b10110111 "
b10101 %
#470000
1!
#480000
0!
b11000000 "
b10110 %
#490000
1!
#500000
0!
b11001000 "
b10111 %
#510000
1!
#520000
0!
b11010000 "
b11000 %
#530000
1!
#540000
0!
b11011000 "
b11001 %
#550000
1!
#560000
0!
b11100000 "
b11010 %
#570000
1!
#580000
0!
b11101000 "
b11011 %
#590000
1!
#600000
0!
b11110000 "
b11100 %
#610000
1!
#620000
0!
b11111000 "
b11101 %
#630000
1!
#640000
0!
b100000000 "
b11110 %
#650000
1!
#660000
0!
b100001000 "
b11111 %
#670000
1!
#680000
0!
b100001111 "
b100000 %
#690000
1!
#700000
0!
b100010111 "
b100001 %
#710000
1!
#720000
0!
b100011110 "
b100010 %
#730000
1!
#740000
0!
b100100110 "
b100011 %
#750000
1!
#760000
0!
b100101101 "
b100100 %
#770000
1!
#780000
0!
b100110100 "
b100101 %
#790000
1!
#800000
0!
b100111011 "
b100110 %
#810000
1!
#820000
0!
b101000010 "
b100111 %
#830000
1!
#840000
0!
b101001001 "
b101000 %
#850000
1!
#860000
0!
b101010000 "
b101001 %
#870000
1!
#880000
0!
b101010111 "
b101010 %
#890000
1!
#900000
0!
b101011101 "
b101011 %
#910000
1!
#920000
0!
b101100100 "
b101100 %
#930000
1!
#940000
0!
b101101010 "
b101101 %
#950000
1!
#960000
0!
b101110000 "
b101110 %
#970000
1!
#980000
0!
b101110110 "
b101111 %
#990000
1!
#1000000
0!
b101111100 "
b110000 %
#1010000
1!
#1020000
0!
b110000010 "
b110001 %
#1030000
1!
#1040000
0!
b110001000 "
b110010 %
#1050000
1!
#1060000
0!
b110001110 "
b110011 %
#1070000
1!
#1080000
0!
b110010011 "
b110100 %
#1090000
1!
#1100000
0!
b110011001 "
b110101 %
#1110000
1!
#1120000
0!
b110011110 "
b110110 %
#1130000
1!
#1140000
0!
b110100011 "
b110111 %
#1150000
1!
#1160000
0!
b110101000 "
b111000 %
#1170000
1!
#1180000
0!
b110101101 "
b111001 %
#1190000
1!
#1200000
0!
b110110010 "
b111010 %
#1210000
1!
#1220000
0!
b110110111 "
b111011 %
#1230000
1!
#1240000
0!
b110111011 "
b111100 %
#1250000
1!
#1260000
0!
b111000000 "
b111101 %
#1270000
1!
#1280000
0!
b111000100 "
b111110 %
#1290000
1!
#1300000
0!
b111001000 "
b111111 %
#1310000
1!
#1320000
0!
b111001100 "
b1000000 %
#1330000
1!
#1340000
0!
b111010000 "
b1000001 %
#1350000
1!
#1360000
0!
b111010100 "
b1000010 %
#1370000
1!
#1380000
0!
b111010111 "
b1000011 %
#1390000
1!
#1400000
0!
b111011011 "
b1000100 %
#1410000
1!
#1420000
0!
b111011110 "
b1000101 %
#1430000
1!
#1440000
0!
b111100001 "
b1000110 %
#1450000
1!
#1460000
0!
b111100100 "
b1000111 %
#1470000
1!
#1480000
0!
b111100111 "
b1001000 %
#1490000
1!
#1500000
0!
b111101010 "
b1001001 %
#1510000
1!
#1520000
0!
b111101100 "
b1001010 %
#1530000
1!
#1540000
0!
b111101111 "
b1001011 %
#1550000
1!
#1560000
0!
b111110001 "
b1001100 %
#1570000
1!
#1580000
0!
b111110011 "
b1001101 %
#1590000
1!
#1600000
0!
b111110101 "
b1001110 %
#1610000
1!
#1620000
0!
b111110111 "
b1001111 %
#1630000
1!
#1640000
0!
b111111000 "
b1010000 %
#1650000
1!
#1660000
0!
b111111010 "
b1010001 %
#1670000
1!
#1680000
0!
b111111011 "
b1010010 %
#1690000
1!
#1700000
0!
b111111100 "
b1010011 %
#1710000
1!
#1720000
0!
b111111101 "
b1010100 %
#1730000
1!
#1740000
0!
b111111110 "
b1010101 %
#1750000
1!
#1760000
0!
b111111111 "
b1010110 %
#1770000
1!
#1780000
0!
b1010111 %
#1790000
1!
#1800000
0!
b1000000000 "
b1011000 %
#1810000
1!
#1820000
0!
b1011001 %
#1830000
1!
#1840000
0!
b1011010 %
#1850000
1!
#1860000
0!
b1011011 %
#1870000
1!
#1880000
0!
b1011100 %
#1890000
1!
#1900000
0!
b111111111 "
b1011101 %
#1910000
1!
#1920000
0!
b1011110 %
#1930000
1!
#1940000
0!
b111111110 "
b1011111 %
#1950000
1!
#1960000
0!
b111111101 "
b1100000 %
#1970000
1!
#1980000
0!
b111111100 "
b1100001 %
#1990000
1!
#2000000
0!
b111111011 "
b1100010 %
#2010000
1!
#2020000
0!
b111111010 "
b1100011 %
#2030000
1!
#2040000
0!
b111111000 "
b1100100 %
#2050000
1!
#2060000
0!
b111110111 "
b1100101 %
#2070000
1!
#2080000
0!
b111110101 "
b1100110 %
#2090000
1!
#2100000
0!
b111110011 "
b1100111 %
#2110000
1!
#2120000
0!
b111110001 "
b1101000 %
#2130000
1!
#2140000
0!
b111101111 "
b1101001 %
#2150000
1!
#2160000
0!
b111101100 "
b1101010 %
#2170000
1!
#2180000
0!
b111101010 "
b1101011 %
#2190000
1!
#2200000
0!
b111100111 "
b1101100 %
#2210000
1!
#2220000
0!
b111100100 "
b1101101 %
#2230000
1!
#2240000
0!
b111100001 "
b1101110 %
#2250000
1!
#2260000
0!
b111011110 "
b1101111 %
#2270000
1!
#2280000
0!
b111011011 "
b1110000 %
#2290000
1!
#2300000
0!
b111010111 "
b1110001 %
#2310000
1!
#2320000
0!
b111010100 "
b1110010 %
#2330000
1!
#2340000
0!
b111010000 "
b1110011 %
#2350000
1!
#2360000
0!
b111001100 "
b1110100 %
#2370000
1!
#2380000
0!
b111001000 "
b1110101 %
#2390000
1!
#2400000
0!
b111000100 "
b1110110 %
#2410000
1!
#2420000
0!
b111000000 "
b1110111 %
#2430000
1!
#2440000
0!
b110111100 "
b1111000 %
#2450000
1!
#2460000
0!
b110110111 "
b1111001 %
#2470000
1!
#2480000
0!
b110110010 "
b1111010 %
#2490000
1!
#2500000
0!
b110101110 "
b1111011 %
#2510000
1!
#2520000
0!
b110101001 "
b1111100 %
#2530000
1!
#2540000
0!
b110100100 "
b1111101 %
#2550000
1!
#2560000
0!
b110011110 "
b1111110 %
#2570000
1!
#2580000
0!
b110011001 "
b1111111 %
#2590000
1!
#2600000
0!
b110010100 "
b10000000 %
#2610000
1!
#2620000
0!
b110001110 "
b10000001 %
#2630000
1!
#2640000
0!
b110001000 "
b10000010 %
#2650000
1!
#2660000
0!
b110000011 "
b10000011 %
#2670000
1!
#2680000
0!
b101111101 "
b10000100 %
#2690000
1!
#2700000
0!
b101110111 "
b10000101 %
#2710000
1!
#2720000
0!
b101110001 "
b10000110 %
#2730000
1!
#2740000
0!
b101101010 "
b10000111 %
#2750000
1!
#2760000
0!
b101100100 "
b10001000 %
#2770000
1!
#2780000
0!
b101011101 "
b10001001 %
#2790000
1!
#2800000
0!
b101010111 "
b10001010 %
#2810000
1!
#2820000
0!
b101010000 "
b10001011 %
#2830000
1!
#2840000
0!
b101001001 "
b10001100 %
#2850000
1!
#2860000
0!
b101000011 "
b10001101 %
#2870000
1!
#2880000
0!
b100111100 "
b10001110 %
#2890000
1!
#2900000
0!
b100110100 "
b10001111 %
#2910000
1!
#2920000
0!
b100101101 "
b10010000 %
#2930000
1!
#2940000
0!
b100100110 "
b10010001 %
#2950000
1!
#2960000
0!
b100011111 "
b10010010 %
#2970000
1!
#2980000
0!
b100010111 "
b10010011 %
#2990000
1!
#3000000
0!
b100010000 "
b10010100 %
#3010000
1!
#3020000
0!
b100001000 "
b10010101 %
#3030000
1!
#3040000
0!
b100000000 "
b10010110 %
#3050000
1!
#3060000
0!
b11111001 "
b10010111 %
#3070000
1!
#3080000
0!
b11110001 "
b10011000 %
#3090000
1!
#3100000
0!
b11101001 "
b10011001 %
#3110000
1!
#3120000
0!
b11100001 "
b10011010 %
#3130000
1!
#3140000
0!
b11011001 "
b10011011 %
#3150000
1!
#3160000
0!
b11010001 "
b10011100 %
#3170000
1!
#3180000
0!
b11001000 "
b10011101 %
#3190000
1!
#3200000
0!
b11000000 "
b10011110 %
#3210000
1!
#3220000
0!
b10111000 "
b10011111 %
#3230000
1!
#3240000
0!
b10110000 "
b10100000 %
#3250000
1!
#3260000
0!
b10100111 "
b10100001 %
#3270000
1!
#3280000
0!
b10011111 "
b10100010 %
#3290000
1!
#3300000
0!
b10010110 "
b10100011 %
#3310000
1!
#3320000
0!
b10001110 "
b10100100 %
#3330000
1!
#3340000
0!
b10000101 "
b10100101 %
#3350000
1!
#3360000
0!
b1111100 "
b10100110 %
#3370000
1!
#3380000
0!
b1110100 "
b10100111 %
#3390000
1!
#3400000
0!
b1101011 "
b10101000 %
#3410000
1!
#3420000
0!
b1100010 "
b10101001 %
#3430000
1!
#3440000
0!
b1011001 "
b10101010 %
#3450000
1!
#3460000
0!
b1010001 "
b10101011 %
#3470000
1!
#3480000
0!
b1001000 "
b10101100 %
#3490000
1!
#3500000
0!
b111111 "
b10101101 %
#3510000
1!
#3520000
0!
b110110 "
b10101110 %
#3530000
1!
#3540000
0!
b101101 "
b10101111 %
#3550000
1!
#3560000
0!
b100100 "
b10110000 %
#3570000
1!
#3580000
0!
b11011 "
b10110001 %
#3590000
1!
#3600000
0!
b10010 "
b10110010 %
#3610000
1!
#3620000
0!
b1001 "
b10110011 %
#3630000
1!
#3640000
0!
b0 "
b10110100 %
#3650000
1!
#3660000
0!
b11111111000 "
b10110101 %
#3670000
1!
#3680000
0!
b11111101111 "
b10110110 %
#3690000
1!
#3700000
0!
b11111100110 "
b10110111 %
#3710000
1!
#3720000
0!
b11111011101 "
b10111000 %
#3730000
1!
#3740000
0!
b11111010100 "
b10111001 %
#3750000
1!
#3760000
0!
b11111001011 "
b10111010 %
#3770000
1!
#3780000
0!
b11111000010 "
b10111011 %
#3790000
1!
#3800000
0!
b11110111001 "
b10111100 %
#3810000
1!
#3820000
0!
b11110110000 "
b10111101 %
#3830000
1!
#3840000
0!
b11110101000 "
b10111110 %
#3850000
1!
#3860000
0!
b11110011111 "
b10111111 %
#3870000
1!
#3880000
0!
b11110010110 "
b11000000 %
#3890000
1!
#3900000
0!
b11110001101 "
b11000001 %
#3910000
1!
#3920000
0!
b11110000101 "
b11000010 %
#3930000
1!
#3940000
0!
b11101111100 "
b11000011 %
#3950000
1!
#3960000
0!
b11101110011 "
b11000100 %
#3970000
1!
#3980000
0!
b11101101011 "
b11000101 %
#3990000
1!
#4000000
0!
b11101100010 "
b11000110 %
#4010000
1!
#4020000
0!
b11101011010 "
b11000111 %
#4030000
1!
#4040000
0!
b11101010001 "
b11001000 %
#4050000
1!
#4060000
0!
b11101001001 "
b11001001 %
#4070000
1!
#4080000
0!
b11101000001 "
b11001010 %
#4090000
1!
#4100000
0!
b11100111000 "
b11001011 %
#4110000
1!
#4120000
0!
b11100110000 "
b11001100 %
#4130000
1!
#4140000
0!
b11100101000 "
b11001101 %
#4150000
1!
#4160000
0!
b11100100000 "
b11001110 %
#4170000
1!
#4180000
0!
b11100011000 "
b11001111 %
#4190000
1!
#4200000
0!
b11100010000 "
b11010000 %
#4210000
1!
#4220000
0!
b11100001000 "
b11010001 %
#4230000
1!
#4240000
0!
b11100000001 "
b11010010 %
#4250000
1!
#4260000
0!
b11011111001 "
b11010011 %
#4270000
1!
#4280000
0!
b11011110001 "
b11010100 %
#4290000
1!
#4300000
0!
b11011101010 "
b11010101 %
#4310000
1!
#4320000
0!
b11011100010 "
b11010110 %
#4330000
1!
#4340000
0!
b11011011011 "
b11010111 %
#4350000
1!
#4360000
0!
b11011010100 "
b11011000 %
#4370000
1!
#4380000
0!
b11011001100 "
b11011001 %
#4390000
1!
#4400000
0!
b11011000101 "
b11011010 %
#4410000
1!
#4420000
0!
b11010111110 "
b11011011 %
#4430000
1!
#4440000
0!
b11010110111 "
b11011100 %
#4450000
1!
#4460000
0!
b11010110001 "
b11011101 %
#4470000
1!
#4480000
0!
b11010101010 "
b11011110 %
#4490000
1!
#4500000
0!
b11010100011 "
b11011111 %
#4510000
1!
#4520000
0!
b11010011101 "
b11100000 %
#4530000
1!
#4540000
0!
b11010010110 "
b11100001 %
#4550000
1!
#4560000
0!
b11010010000 "
b11100010 %
#4570000
1!
#4580000
0!
b11010001010 "
b11100011 %
#4590000
1!
#4600000
0!
b11010000100 "
b11100100 %
#4610000
1!
#4620000
0!
b11001111110 "
b11100101 %
#4630000
1!
#4640000
0!
b11001111000 "
b11100110 %
#4650000
1!
#4660000
0!
b11001110011 "
b11100111 %
#4670000
1!
#4680000
0!
b11001101101 "
b11101000 %
#4690000
1!
#4700000
0!
b11001100111 "
b11101001 %
#4710000
1!
#4720000
0!
b11001100010 "
b11101010 %
#4730000
1!
#4740000
0!
b11001011101 "
b11101011 %
#4750000
1!
#4760000
0!
b11001011000 "
b11101100 %
#4770000
1!
#4780000
0!
b11001010011 "
b11101101 %
#4790000
1!
#4800000
0!
b11001001110 "
b11101110 %
#4810000
1!
#4820000
0!
b11001001001 "
b11101111 %
#4830000
1!
#4840000
0!
b11001000101 "
b11110000 %
#4850000
1!
#4860000
0!
b11001000001 "
b11110001 %
#4870000
1!
#4880000
0!
b11000111100 "
b11110010 %
#4890000
1!
#4900000
0!
b11000111000 "
b11110011 %
#4910000
1!
#4920000
0!
b11000110100 "
b11110100 %
#4930000
1!
#4940000
0!
b11000110000 "
b11110101 %
#4950000
1!
#4960000
0!
b11000101101 "
b11110110 %
#4970000
1!
#4980000
0!
b11000101001 "
b11110111 %
#4990000
1!
#5000000
0!
b11000100110 "
b11111000 %
#5010000
1!
#5020000
0!
b11000100010 "
b11111001 %
#5030000
1!
#5040000
0!
b11000011111 "
b11111010 %
#5050000
1!
#5060000
0!
b11000011100 "
b11111011 %
#5070000
1!
#5080000
0!
b11000011001 "
b11111100 %
#5090000
1!
#5100000
0!
b11000010111 "
b11111101 %
#5110000
1!
#5120000
0!
b11000010100 "
b11111110 %
#5130000
1!
#5140000
0!
b11000010010 "
b11111111 %
#5150000
1!
#5160000
0!
b11000001111 "
b100000000 %
#5170000
1!
#5180000
0!
b11000001101 "
b100000001 %
#5190000
1!
#5200000
0!
b11000001011 "
b100000010 %
#5210000
1!
#5220000
0!
b11000001010 "
b100000011 %
#5230000
1!
#5240000
0!
b11000001000 "
b100000100 %
#5250000
1!
#5260000
0!
b11000000110 "
b100000101 %
#5270000
1!
#5280000
0!
b11000000101 "
b100000110 %
#5290000
1!
#5300000
0!
b11000000100 "
b100000111 %
#5310000
1!
#5320000
0!
b11000000011 "
b100001000 %
#5330000
1!
#5340000
0!
b11000000010 "
b100001001 %
#5350000
1!
#5360000
0!
b11000000001 "
b100001010 %
#5370000
1!
#5380000
0!
b100001011 %
#5390000
1!
#5400000
0!
b11000000000 "
b100001100 %
#5410000
1!
#5420000
0!
b100001101 %
#5430000
1!
#5440000
0!
b100001110 %
#5450000
1!
#5460000
0!
b100001111 %
#5470000
1!
#5480000
0!
b100010000 %
#5490000
1!
#5500000
0!
b11000000001 "
b100010001 %
#5510000
1!
#5520000
0!
b100010010 %
#5530000
1!
#5540000
0!
b11000000010 "
b100010011 %
#5550000
1!
#5560000
0!
b11000000011 "
b100010100 %
#5570000
1!
#5580000
0!
b11000000100 "
b100010101 %
#5590000
1!
#5600000
0!
b11000000101 "
b100010110 %
#5610000
1!
#5620000
0!
b11000000110 "
b100010111 %
#5630000
1!
#5640000
0!
b11000001000 "
b100011000 %
#5650000
1!
#5660000
0!
b11000001001 "
b100011001 %
#5670000
1!
#5680000
0!
b11000001011 "
b100011010 %
#5690000
1!
#5700000
0!
b11000001101 "
b100011011 %
#5710000
1!
#5720000
0!
b11000001111 "
b100011100 %
#5730000
1!
#5740000
0!
b11000010001 "
b100011101 %
#5750000
1!
#5760000
0!
b11000010100 "
b100011110 %
#5770000
1!
#5780000
0!
b11000010110 "
b100011111 %
#5790000
1!
#5800000
0!
b11000011001 "
b100100000 %
#5810000
1!
#5820000
0!
b11000011100 "
b100100001 %
#5830000
1!
#5840000
0!
b11000011111 "
b100100010 %
#5850000
1!
#5860000
0!
b11000100010 "
b100100011 %
#5870000
1!
#5880000
0!
b11000100101 "
b100100100 %
#5890000
1!
#5900000
0!
b11000101000 "
b100100101 %
#5910000
1!
#5920000
0!
b11000101100 "
b100100110 %
#5930000
1!
#5940000
0!
b11000110000 "
b100100111 %
#5950000
1!
#5960000
0!
b11000110011 "
b100101000 %
#5970000
1!
#5980000
0!
b11000110111 "
b100101001 %
#5990000
1!
#6000000
0!
b11000111100 "
b100101010 %
#6010000
1!
#6020000
0!
b11001000000 "
b100101011 %
#6030000
1!
#6040000
0!
b11001000100 "
b100101100 %
#6050000
1!
#6060000
0!
b11001001001 "
b100101101 %
#6070000
1!
#6080000
0!
b11001001101 "
b100101110 %
#6090000
1!
#6100000
0!
b11001010010 "
b100101111 %
#6110000
1!
#6120000
0!
b11001010111 "
b100110000 %
#6130000
1!
#6140000
0!
b11001011100 "
b100110001 %
#6150000
1!
#6160000
0!
b11001100001 "
b100110010 %
#6170000
1!
#6180000
0!
b11001100111 "
b100110011 %
#6190000
1!
#6200000
0!
b11001101100 "
b100110100 %
#6210000
1!
#6220000
0!
b11001110010 "
b100110101 %
#6230000
1!
#6240000
0!
b11001110111 "
b100110110 %
#6250000
1!
#6260000
0!
b11001111101 "
b100110111 %
#6270000
1!
#6280000
0!
b11010000011 "
b100111000 %
#6290000
1!
#6300000
0!
b11010001001 "
b100111001 %
#6310000
1!
#6320000
0!
b11010001111 "
b100111010 %
#6330000
1!
#6340000
0!
b11010010101 "
b100111011 %
#6350000
1!
#6360000
0!
b11010011100 "
b100111100 %
#6370000
1!
#6380000
0!
b11010100010 "
b100111101 %
#6390000
1!
#6400000
0!
b11010101001 "
b100111110 %
#6410000
1!
#6420000
0!
b11010101111 "
b100111111 %
#6430000
1!
#6440000
0!
b11010110110 "
b101000000 %
#6450000
1!
#6460000
0!
b11010111101 "
b101000001 %
#6470000
1!
#6480000
0!
b11011000100 "
b101000010 %
#6490000
1!
#6500000
0!
b11011001011 "
b101000011 %
#6510000
1!
#6520000
0!
b11011010010 "
b101000100 %
#6530000
1!
#6540000
0!
b11011011010 "
b101000101 %
#6550000
1!
#6560000
0!
b11011100001 "
b101000110 %
#6570000
1!
#6580000
0!
b11011101000 "
b101000111 %
#6590000
1!
#6600000
0!
b11011110000 "
b101001000 %
#6610000
1!
#6620000
0!
b11011111000 "
b101001001 %
#6630000
1!
#6640000
0!
b11011111111 "
b101001010 %
#6650000
1!
#6660000
0!
b11100000111 "
b101001011 %
#6670000
1!
#6680000
0!
b11100001111 "
b101001100 %
#6690000
1!
#6700000
0!
b11100010111 "
b101001101 %
#6710000
1!
#6720000
0!
b11100011111 "
b101001110 %
#6730000
1!
#6740000
0!
b11100100111 "
b101001111 %
#6750000
1!
#6760000
0!
b11100101111 "
b101010000 %
#6770000
1!
#6780000
0!
b11100110111 "
b101010001 %
#6790000
1!
#6800000
0!
b11100111111 "
b101010010 %
#6810000
1!
#6820000
0!
b11101001000 "
b101010011 %
#6830000
1!
#6840000
0!
b11101010000 "
b101010100 %
#6850000
1!
#6860000
0!
b11101011000 "
b101010101 %
#6870000
1!
#6880000
0!
b11101100001 "
b101010110 %
#6890000
1!
#6900000
0!
b11101101001 "
b101010111 %
#6910000
1!
#6920000
0!
b11101110010 "
b101011000 %
#6930000
1!
#6940000
0!
b11101111011 "
b101011001 %
#6950000
1!
#6960000
0!
b11110000011 "
b101011010 %
#6970000
1!
#6980000
0!
b11110001100 "
b101011011 %
#6990000
1!
#7000000
0!
b11110010101 "
b101011100 %
#7010000
1!
#7020000
0!
b11110011101 "
b101011101 %
#7030000
1!
#7040000
0!
b11110100110 "
b101011110 %
#7050000
1!
#7060000
0!
b11110101111 "
b101011111 %
#7070000
1!
#7080000
0!
b11110111000 "
b101100000 %
#7090000
1!
#7100000
0!
b11111000001 "
b101100001 %
#7110000
1!
#7120000
0!
b11111001010 "
b101100010 %
#7130000
1!
#7140000
0!
b11111010010 "
b101100011 %
#7150000
1!
#7160000
0!
b11111011011 "
b101100100 %
#7170000
1!
#7180000
0!
b11111100100 "
b101100101 %
#7190000
1!
#7200000
0!
b11111101101 "
b101100110 %
#7210000
1!
#7220000
0!
b11111110110 "
b101100111 %
#7230000
1!
#7240000
0!
b101101000 %
