track_view.vcd
$date
	Tue Dec 06 10:51:20 2022
$end
$version
	Icarus Verilog
$end
$timescale
	1ps
$end
$scope module track_view_tb $end
$var wire 12 ! pixel_out [11:0] $end
$var reg 1 " clk_in $end
$var reg 11 # hcount_in [10:0] $end
$var reg 11 $ opponent_x [10:0] $end
$var reg 11 % opponent_y [10:0] $end
$var reg 11 & player_x [10:0] $end
$var reg 11 ' player_y [10:0] $end
$var reg 1 ( rst_in $end
$var reg 4 ) sprite_type [3:0] $end
$var reg 10 * vcount_in [9:0] $end
$scope module uut $end
$var wire 1 " clk_in $end
$var wire 11 + hcount_in [10:0] $end
$var wire 1 , in_opponent $end
$var wire 1 - in_player $end
$var wire 11 . opponent_x [10:0] $end
$var wire 11 / opponent_y [10:0] $end
$var wire 11 0 player_x [10:0] $end
$var wire 11 1 player_y [10:0] $end
$var wire 1 ( rst_in $end
$var wire 10 2 vcount_in [9:0] $end
$var wire 4 3 sprite_type [3:0] $end
$var wire 10 4 sprite_addr [9:0] $end
$var wire 10 5 player_addr [9:0] $end
$var wire 12 6 pixel_out [11:0] $end
$var wire 80 7 palette_addr [79:0] $end
$var wire 192 8 output_color [191:0] $end
$var wire 10 9 opponent_addr [9:0] $end
$var reg 4 : in_opponent_pipe [3:0] $end
$var reg 4 ; in_player_pipe [3:0] $end
$var reg 16 < sprite_type_pipe [15:0] $end
$scope module i0_black_square $end
$var wire 10 = addra [9:0] $end
$var wire 1 " clka $end
$var wire 8 > dina [7:0] $end
$var wire 1 ? ena $end
$var wire 1 @ regcea $end
$var wire 1 ( rsta $end
$var wire 1 A wea $end
$var wire 8 B douta [7:0] $end
$var parameter 128 C INIT_FILE $end
$var parameter 32 D RAM_DEPTH $end
$var parameter 128 E RAM_PERFORMANCE $end
$var parameter 32 F RAM_WIDTH $end
$var reg 8 G ram_data [7:0] $end
$scope function clogb2 $end
$var integer 32 H depth [31:0] $end
$upscope $end
$scope begin output_register $end
$var reg 8 I douta_reg [7:0] $end
$upscope $end
$scope begin use_init_file $end
$upscope $end
$upscope $end
$scope module i1_type $end
$var wire 10 J addra [9:0] $end
$var wire 1 " clka $end
$var wire 8 K dina [7:0] $end
$var wire 1 L ena $end
$var wire 1 M regcea $end
$var wire 1 ( rsta $end
$var wire 1 N wea $end
$var wire 8 O douta [7:0] $end
$var parameter 184 P INIT_FILE $end
$var parameter 32 Q RAM_DEPTH $end
$var parameter 128 R RAM_PERFORMANCE $end
$var parameter 32 S RAM_WIDTH $end
$var reg 8 T ram_data [7:0] $end
$scope function clogb2 $end
$var integer 32 U depth [31:0] $end
$upscope $end
$scope begin output_register $end
$var reg 8 V douta_reg [7:0] $end
$upscope $end
$scope begin use_init_file $end
$upscope $end
$upscope $end
$scope module i2_type $end
$var wire 10 W addra [9:0] $end
$var wire 1 " clka $end
$var wire 8 X dina [7:0] $end
$var wire 1 Y ena $end
$var wire 1 Z regcea $end
$var wire 1 ( rsta $end
$var wire 1 [ wea $end
$var wire 8 \ douta [7:0] $end
$var parameter 40 ] INIT_FILE $end
$var parameter 32 ^ RAM_DEPTH $end
$var parameter 128 _ RAM_PERFORMANCE $end
$var parameter 32 ` RAM_WIDTH $end
$var reg 8 a ram_data [7:0] $end
$scope function clogb2 $end
$var integer 32 b depth [31:0] $end
$upscope $end
$scope begin output_register $end
$var reg 8 c douta_reg [7:0] $end
$upscope $end
$scope begin use_init_file $end
$upscope $end
$upscope $end
$scope module i3_type $end
$var wire 10 d addra [9:0] $end
$var wire 1 " clka $end
$var wire 8 e dina [7:0] $end
$var wire 1 f ena $end
$var wire 1 g regcea $end
$var wire 1 ( rsta $end
$var wire 1 h wea $end
$var wire 8 i douta [7:0] $end
$var parameter 40 j INIT_FILE $end
$var parameter 32 k RAM_DEPTH $end
$var parameter 128 l RAM_PERFORMANCE $end
$var parameter 32 m RAM_WIDTH $end
$var reg 8 n ram_data [7:0] $end
$scope function clogb2 $end
$var integer 32 o depth [31:0] $end
$upscope $end
$scope begin output_register $end
$var reg 8 p douta_reg [7:0] $end
$upscope $end
$scope begin use_init_file $end
$upscope $end
$upscope $end
$scope module i4_type $end
$var wire 10 q addra [9:0] $end
$var wire 1 " clka $end
$var wire 8 r dina [7:0] $end
$var wire 1 s ena $end
$var wire 1 t regcea $end
$var wire 1 ( rsta $end
$var wire 1 u wea $end
$var wire 8 v douta [7:0] $end
$var parameter 40 w INIT_FILE $end
$var parameter 32 x RAM_DEPTH $end
$var parameter 128 y RAM_PERFORMANCE $end
$var parameter 32 z RAM_WIDTH $end
$var reg 8 { ram_data [7:0] $end
$scope function clogb2 $end
$var integer 32 | depth [31:0] $end
$upscope $end
$scope begin output_register $end
$var reg 8 } douta_reg [7:0] $end
$upscope $end
$scope begin use_init_file $end
$upscope $end
$upscope $end
$scope module i5_type $end
$var wire 10 ~ addra [9:0] $end
$var wire 1 " clka $end
$var wire 8 !" dina [7:0] $end
$var wire 1 "" ena $end
$var wire 1 #" regcea $end
$var wire 1 ( rsta $end
$var wire 1 $" wea $end
$var wire 8 %" douta [7:0] $end
$var parameter 40 &" INIT_FILE $end
$var parameter 32 '" RAM_DEPTH $end
$var parameter 128 (" RAM_PERFORMANCE $end
$var parameter 32 )" RAM_WIDTH $end
$var reg 8 *" ram_data [7:0] $end
$scope function clogb2 $end
$var integer 32 +" depth [31:0] $end
$upscope $end
$scope begin output_register $end
$var reg 8 ," douta_reg [7:0] $end
$upscope $end
$scope begin use_init_file $end
$upscope $end
$upscope $end
$scope module i6_type $end
$var wire 10 -" addra [9:0] $end
$var wire 1 " clka $end
$var wire 8 ." dina [7:0] $end
$var wire 1 /" ena $end
$var wire 1 0" regcea $end
$var wire 1 ( rsta $end
$var wire 1 1" wea $end
$var wire 8 2" douta [7:0] $end
$var parameter 40 3" INIT_FILE $end
$var parameter 32 4" RAM_DEPTH $end
$var parameter 128 5" RAM_PERFORMANCE $end
$var parameter 32 6" RAM_WIDTH $end
$var reg 8 7" ram_data [7:0] $end
$scope function clogb2 $end
$var integer 32 8" depth [31:0] $end
$upscope $end
$scope begin output_register $end
$var reg 8 9" douta_reg [7:0] $end
$upscope $end
$scope begin use_init_file $end
$upscope $end
$upscope $end
$scope module i7_type $end
$var wire 10 :" addra [9:0] $end
$var wire 1 " clka $end
$var wire 8 ;" dina [7:0] $end
$var wire 1 <" ena $end
$var wire 1 =" regcea $end
$var wire 1 ( rsta $end
$var wire 1 >" wea $end
$var wire 8 ?" douta [7:0] $end
$var parameter 40 @" INIT_FILE $end
$var parameter 32 A" RAM_DEPTH $end
$var parameter 128 B" RAM_PERFORMANCE $end
$var parameter 32 C" RAM_WIDTH $end
$var reg 8 D" ram_data [7:0] $end
$scope function clogb2 $end
$var integer 32 E" depth [31:0] $end
$upscope $end
$scope begin output_register $end
$var reg 8 F" douta_reg [7:0] $end
$upscope $end
$scope begin use_init_file $end
$upscope $end
$upscope $end
$scope module i8_mario $end
$var wire 10 G" addra [9:0] $end
$var wire 1 " clka $end
$var wire 8 H" dina [7:0] $end
$var wire 1 - ena $end
$var wire 1 I" regcea $end
$var wire 1 ( rsta $end
$var wire 1 J" wea $end
$var wire 8 K" douta [7:0] $end
$var parameter 176 L" INIT_FILE $end
$var parameter 32 M" RAM_DEPTH $end
$var parameter 128 N" RAM_PERFORMANCE $end
$var parameter 32 O" RAM_WIDTH $end
$var reg 8 P" ram_data [7:0] $end
$scope function clogb2 $end
$var integer 32 Q" depth [31:0] $end
$upscope $end
$scope begin output_register $end
$var reg 8 R" douta_reg [7:0] $end
$upscope $end
$scope begin use_init_file $end
$upscope $end
$upscope $end
$scope module i9_luigi $end
$var wire 10 S" addra [9:0] $end
$var wire 1 " clka $end
$var wire 8 T" dina [7:0] $end
$var wire 1 , ena $end
$var wire 1 U" regcea $end
$var wire 1 ( rsta $end
$var wire 1 V" wea $end
$var wire 8 W" douta [7:0] $end
$var parameter 176 X" INIT_FILE $end
$var parameter 32 Y" RAM_DEPTH $end
$var parameter 128 Z" RAM_PERFORMANCE $end
$var parameter 32 [" RAM_WIDTH $end
$var reg 8 \" ram_data [7:0] $end
$scope function clogb2 $end
$var integer 32 ]" depth [31:0] $end
$upscope $end
$scope begin output_register $end
$var reg 8 ^" douta_reg [7:0] $end
$upscope $end
$scope begin use_init_file $end
$upscope $end
$upscope $end
$scope module p0_black_square_pal $end
$var wire 8 _" addra [7:0] $end
$var wire 1 " clka $end
$var wire 12 `" dina [11:0] $end
$var wire 1 a" ena $end
$var wire 1 b" regcea $end
$var wire 1 ( rsta $end
$var wire 1 c" wea $end
$var wire 12 d" douta [11:0] $end
$var parameter 160 e" INIT_FILE $end
$var parameter 32 f" RAM_DEPTH $end
$var parameter 128 g" RAM_PERFORMANCE $end
$var parameter 32 h" RAM_WIDTH $end
$var reg 12 i" ram_data [11:0] $end
$scope function clogb2 $end
$var integer 32 j" depth [31:0] $end
$upscope $end
$scope begin output_register $end
$var reg 12 k" douta_reg [11:0] $end
$upscope $end
$scope begin use_init_file $end
$upscope $end
$upscope $end
$scope module p1_type $end
$var wire 8 l" addra [7:0] $end
$var wire 1 " clka $end
$var wire 12 m" dina [11:0] $end
$var wire 1 n" ena $end
$var wire 1 o" regcea $end
$var wire 1 ( rsta $end
$var wire 1 p" wea $end
$var wire 12 q" douta [11:0] $end
$var parameter 216 r" INIT_FILE $end
$var parameter 32 s" RAM_DEPTH $end
$var parameter 128 t" RAM_PERFORMANCE $end
$var parameter 32 u" RAM_WIDTH $end
$var reg 12 v" ram_data [11:0] $end
$scope function clogb2 $end
$var integer 32 w" depth [31:0] $end
$upscope $end
$scope begin output_register $end
$var reg 12 x" douta_reg [11:0] $end
$upscope $end
$scope begin use_init_file $end
$upscope $end
$upscope $end
$scope module p2_type $end
$var wire 8 y" addra [7:0] $end
$var wire 1 " clka $end
$var wire 12 z" dina [11:0] $end
$var wire 1 {" ena $end
$var wire 1 |" regcea $end
$var wire 1 ( rsta $end
$var wire 1 }" wea $end
$var wire 12 ~" douta [11:0] $end
$var parameter 40 !# INIT_FILE $end
$var parameter 32 "# RAM_DEPTH $end
$var parameter 128 ## RAM_PERFORMANCE $end
$var parameter 32 $# RAM_WIDTH $end
$var reg 12 %# ram_data [11:0] $end
$scope function clogb2 $end
$var integer 32 &# depth [31:0] $end
$upscope $end
$scope begin output_register $end
$var reg 12 '# douta_reg [11:0] $end
$upscope $end
$scope begin use_init_file $end
$upscope $end
$upscope $end
$scope module p3_type $end
$var wire 8 (# addra [7:0] $end
$var wire 1 " clka $end
$var wire 12 )# dina [11:0] $end
$var wire 1 *# ena $end
$var wire 1 +# regcea $end
$var wire 1 ( rsta $end
$var wire 1 ,# wea $end
$var wire 12 -# douta [11:0] $end
$var parameter 40 .# INIT_FILE $end
$var parameter 32 /# RAM_DEPTH $end
$var parameter 128 0# RAM_PERFORMANCE $end
$var parameter 32 1# RAM_WIDTH $end
$var reg 12 2# ram_data [11:0] $end
$scope function clogb2 $end
$var integer 32 3# depth [31:0] $end
$upscope $end
$scope begin output_register $end
$var reg 12 4# douta_reg [11:0] $end
$upscope $end
$scope begin use_init_file $end
$upscope $end
$upscope $end
$scope module p4_type $end
$var wire 8 5# addra [7:0] $end
$var wire 1 " clka $end
$var wire 12 6# dina [11:0] $end
$var wire 1 7# ena $end
$var wire 1 8# regcea $end
$var wire 1 ( rsta $end
$var wire 1 9# wea $end
$var wire 12 :# douta [11:0] $end
$var parameter 40 ;# INIT_FILE $end
$var parameter 32 <# RAM_DEPTH $end
$var parameter 128 =# RAM_PERFORMANCE $end
$var parameter 32 ># RAM_WIDTH $end
$var reg 12 ?# ram_data [11:0] $end
$scope function clogb2 $end
$var integer 32 @# depth [31:0] $end
$upscope $end
$scope begin output_register $end
$var reg 12 A# douta_reg [11:0] $end
$upscope $end
$scope begin use_init_file $end
$upscope $end
$upscope $end
$scope module p5_type $end
$var wire 8 B# addra [7:0] $end
$var wire 1 " clka $end
$var wire 12 C# dina [11:0] $end
$var wire 1 D# ena $end
$var wire 1 E# regcea $end
$var wire 1 ( rsta $end
$var wire 1 F# wea $end
$var wire 12 G# douta [11:0] $end
$var parameter 40 H# INIT_FILE $end
$var parameter 32 I# RAM_DEPTH $end
$var parameter 128 J# RAM_PERFORMANCE $end
$var parameter 32 K# RAM_WIDTH $end
$var reg 12 L# ram_data [11:0] $end
$scope function clogb2 $end
$var integer 32 M# depth [31:0] $end
$upscope $end
$scope begin output_register $end
$var reg 12 N# douta_reg [11:0] $end
$upscope $end
$scope begin use_init_file $end
$upscope $end
$upscope $end
$scope module p6_type $end
$var wire 8 O# addra [7:0] $end
$var wire 1 " clka $end
$var wire 12 P# dina [11:0] $end
$var wire 1 Q# ena $end
$var wire 1 R# regcea $end
$var wire 1 ( rsta $end
$var wire 1 S# wea $end
$var wire 12 T# douta [11:0] $end
$var parameter 40 U# INIT_FILE $end
$var parameter 32 V# RAM_DEPTH $end
$var parameter 128 W# RAM_PERFORMANCE $end
$var parameter 32 X# RAM_WIDTH $end
$var reg 12 Y# ram_data [11:0] $end
$scope function clogb2 $end
$var integer 32 Z# depth [31:0] $end
$upscope $end
$scope begin output_register $end
$var reg 12 [# douta_reg [11:0] $end
$upscope $end
$scope begin use_init_file $end
$upscope $end
$upscope $end
$scope module p7_type $end
$var wire 8 \# addra [7:0] $end
$var wire 1 " clka $end
$var wire 12 ]# dina [11:0] $end
$var wire 1 ^# ena $end
$var wire 1 _# regcea $end
$var wire 1 ( rsta $end
$var wire 1 `# wea $end
$var wire 12 a# douta [11:0] $end
$var parameter 40 b# INIT_FILE $end
$var parameter 32 c# RAM_DEPTH $end
$var parameter 128 d# RAM_PERFORMANCE $end
$var parameter 32 e# RAM_WIDTH $end
$var reg 12 f# ram_data [11:0] $end
$scope function clogb2 $end
$var integer 32 g# depth [31:0] $end
$upscope $end
$scope begin output_register $end
$var reg 12 h# douta_reg [11:0] $end
$upscope $end
$scope begin use_init_file $end
$upscope $end
$upscope $end
$scope module p8_mario $end
$var wire 8 i# addra [7:0] $end
$var wire 1 " clka $end
$var wire 12 j# dina [11:0] $end
$var wire 1 k# ena $end
$var wire 1 l# regcea $end
$var wire 1 ( rsta $end
$var wire 1 m# wea $end
$var wire 12 n# douta [11:0] $end
$var parameter 208 o# INIT_FILE $end
$var parameter 32 p# RAM_DEPTH $end
$var parameter 128 q# RAM_PERFORMANCE $end
$var parameter 32 r# RAM_WIDTH $end
$var reg 12 s# ram_data [11:0] $end
$scope function clogb2 $end
$var integer 32 t# depth [31:0] $end
$upscope $end
$scope begin output_register $end
$var reg 12 u# douta_reg [11:0] $end
$upscope $end
$scope begin use_init_file $end
$upscope $end
$upscope $end
$scope module p9_luigi $end
$var wire 8 v# addra [7:0] $end
$var wire 1 " clka $end
$var wire 12 w# dina [11:0] $end
$var wire 1 x# ena $end
$var wire 1 y# regcea $end
$var wire 1 ( rsta $end
$var wire 1 z# wea $end
$var wire 12 {# douta [11:0] $end
$var parameter 208 |# INIT_FILE $end
$var parameter 32 }# RAM_DEPTH $end
$var parameter 128 ~# RAM_PERFORMANCE $end
$var parameter 32 !$ RAM_WIDTH $end
$var reg 12 "$ ram_data [11:0] $end
$scope function clogb2 $end
$var integer 32 #$ depth [31:0] $end
$upscope $end
$scope begin output_register $end
$var reg 12 $$ douta_reg [11:0] $end
$upscope $end
$scope begin use_init_file $end
$upscope $end
$upscope $end
$scope module track $end
$var wire 8 %$ addra [7:0] $end
$var wire 1 " clka $end
$var wire 4 &$ dina [3:0] $end
$var wire 1 '$ ena $end
$var wire 1 ($ regcea $end
$var wire 1 ( rsta $end
$var wire 1 )$ wea $end
$var wire 4 *$ douta [3:0] $end
$var parameter 112 +$ INIT_FILE $end
$var parameter 32 ,$ RAM_DEPTH $end
$var parameter 128 -$ RAM_PERFORMANCE $end
$var parameter 32 .$ RAM_WIDTH $end
$var reg 4 /$ ram_data [3:0] $end
$scope function clogb2 $end
$var integer 32 0$ depth [31:0] $end
$upscope $end
$scope begin output_register $end
$var reg 4 1$ douta_reg [3:0] $end
$upscope $end
$scope begin use_init_file $end
$upscope $end
$upscope $end
$scope begin $ivl_for_loop2 $end
$var integer 32 2$ i [31:0] $end
$upscope $end
$upscope $end
$scope begin $ivl_for_loop0 $end
$var integer 32 3$ i [31:0] $end
$scope begin $ivl_for_loop1 $end
$var integer 32 4$ j [31:0] $end
$upscope $end
$upscope $end
$upscope $end
$enddefinitions $end
$comment Show the parameter values. $end
$dumpall
b100 .$
b1001000010010010100011101001000010111110101000001000101010100100100011001001111010100100100110101000001010011100100001101000101 -$
b100000000 ,$
b110010001100001011101000110000100101111011101000111001001100001011000110110101100101110011011010110010101101101 +$
b1100 !$
b1001000010010010100011101001000010111110101000001000101010100100100011001001111010100100100110101000001010011100100001101000101 ~#
b100000000 }#
b110010001100001011101000110000100101111001100000011100101011111011011000111010101101001011001110110100101011111011010010110001101101111011011100101111101110000011000010110110000101110011011010110010101101101 |#
b1100 r#
b1001000010010010100011101001000010111110101000001000101010100100100011001001111010100100100110101000001010011100100001101000101 q#
b100000000 p#
b110010001100001011101000110000100101111001100000011100001011111011011010110000101110010011010010110111101011111011010010110001101101111011011100101111101110000011000010110110000101110011011010110010101101101 o#
b1100 e#
b1001000010010010100011101001000010111110101000001000101010100100100011001001111010100100100110101000001010011100100001101000101 d#
b100000000 c#
b110010001100001011101000110000100101111 b#
b1100 X#
b1001000010010010100011101001000010111110101000001000101010100100100011001001111010100100100110101000001010011100100001101000101 W#
b100000000 V#
b110010001100001011101000110000100101111 U#
b1100 K#
b1001000010010010100011101001000010111110101000001000101010100100100011001001111010100100100110101000001010011100100001101000101 J#
b100000000 I#
b110010001100001011101000110000100101111 H#
b1100 >#
b1001000010010010100011101001000010111110101000001000101010100100100011001001111010100100100110101000001010011100100001101000101 =#
b100000000 <#
b110010001100001011101000110000100101111 ;#
b1100 1#
b1001000010010010100011101001000010111110101000001000101010100100100011001001111010100100100110101000001010011100100001101000101 0#
b100000000 /#
b110010001100001011101000110000100101111 .#
b1100 $#
b1001000010010010100011101001000010111110101000001000101010100100100011001001111010100100100110101000001010011100100001101000101 ##
b100000000 "#
b110010001100001011101000110000100101111 !#
b1100 u"
b1001000010010010100011101001000010111110101000001000101010100100100011001001111010100100100110101000001010011100100001101000101 t"
b100000000 s"
b11001000110000101110100011000010010111100110000001100010101111101101110011011110111001001101101011000010110110001011111011100110110000101101110011001000101111101110000011000010110110000101110011011010110010101101101 r"
b1100 h"
b1001000010010010100011101001000010111110101000001000101010100100100011001001111010100100100110101000001010011100100001101000101 g"
b100000000 f"
b110010001100001011101000110000100101111001100000011000001011111011100100110111101100001011001000101111101110000011000010110110000101110011011010110010101101101 e"
b1000 ["
b1001000010010010100011101001000010111110101000001000101010100100100011001001111010100100100110101000001010011100100001101000101 Z"
b10000000000 Y"
b1100100011000010111010001100001001011110011000000111001010111110110110001110101011010010110011101101001010111110110100101100011011011110110111000101110011011010110010101101101 X"
b1000 O"
b1001000010010010100011101001000010111110101000001000101010100100100011001001111010100100100110101000001010011100100001101000101 N"
b10000000000 M"
b1100100011000010111010001100001001011110011000000111000010111110110110101100001011100100110100101101111010111110110100101100011011011110110111000101110011011010110010101101101 L"
b1000 C"
b1001000010010010100011101001000010111110101000001000101010100100100011001001111010100100100110101000001010011100100001101000101 B"
b10000000000 A"
b110010001100001011101000110000100101111 @"
b1000 6"
b1001000010010010100011101001000010111110101000001000101010100100100011001001111010100100100110101000001010011100100001101000101 5"
b10000000000 4"
b110010001100001011101000110000100101111 3"
b1000 )"
b1001000010010010100011101001000010111110101000001000101010100100100011001001111010100100100110101000001010011100100001101000101 ("
b10000000000 '"
b110010001100001011101000110000100101111 &"
b1000 z
b1001000010010010100011101001000010111110101000001000101010100100100011001001111010100100100110101000001010011100100001101000101 y
b10000000000 x
b110010001100001011101000110000100101111 w
b1000 m
b1001000010010010100011101001000010111110101000001000101010100100100011001001111010100100100110101000001010011100100001101000101 l
b10000000000 k
b110010001100001011101000110000100101111 j
b1000 `
b1001000010010010100011101001000010111110101000001000101010100100100011001001111010100100100110101000001010011100100001101000101 _
b10000000000 ^
b110010001100001011101000110000100101111 ]
b1000 S
b1001000010010010100011101001000010111110101000001000101010100100100011001001111010100100100110101000001010011100100001101000101 R
b10000000000 Q
b110010001100001011101000110000100101111001100000011000101011111011011100110111101110010011011010110000101101100010111110111001101100001011011100110010000101110011011010110010101101101 P
b1000 F
b1001000010010010100011101001000010111110101000001000101010100100100011001001111010100100100110101000001010011100100001101000101 E
b10000000000 D
b1100100011000010111010001100001001011110011000000110000010111110111001001101111011000010110010000101110011011010110010101101101 C
$end
#0
$dumpvars
b0 4$
b0 3$
b0 2$
b0 1$
bx 0$
b0 /$
b0 *$
0)$
1($
1'$
b0 &$
bx %$
b0 $$
bx #$
b0 "$
b0 {#
0z#
1y#
xx#
b0 w#
b0 v#
b0 u#
bx t#
b0 s#
b0 n#
0m#
1l#
xk#
b0 j#
b0 i#
b0 h#
bx g#
b0 f#
b0 a#
0`#
1_#
0^#
b0 ]#
b0 \#
b0 [#
bx Z#
b0 Y#
b0 T#
0S#
1R#
0Q#
b0 P#
b0 O#
b0 N#
bx M#
b0 L#
b0 G#
0F#
1E#
0D#
b0 C#
b0 B#
b0 A#
bx @#
b0 ?#
b0 :#
09#
18#
07#
b0 6#
b0 5#
b0 4#
bx 3#
b0 2#
b0 -#
0,#
1+#
0*#
b0 )#
b0 (#
b0 '#
bx &#
b0 %#
b0 ~"
0}"
1|"
0{"
b0 z"
b0 y"
b0 x"
bx w"
b0 v"
b0 q"
0p"
1o"
0n"
b0 m"
b0 l"
b0 k"
bx j"
b0 i"
b0 d"
0c"
1b"
1a"
b0 `"
b0 _"
b0 ^"
bx ]"
b0 \"
b0 W"
0V"
1U"
b0 T"
bx S"
b0 R"
bx Q"
b0 P"
b0 K"
0J"
1I"
b0 H"
bx G"
b0 F"
bx E"
b0 D"
b0 ?"
0>"
1="
1<"
b0 ;"
bx :"
b0 9"
bx 8"
b0 7"
b0 2"
01"
10"
1/"
b0 ."
bx -"
b0 ,"
bx +"
b0 *"
b0 %"
0$"
1#"
1""
b0 !"
bx ~
b0 }
bx |
b0 {
b0 v
0u
1t
1s
b0 r
bx q
b0 p
bx o
b0 n
b0 i
0h
1g
1f
b0 e
bx d
b0 c
bx b
b0 a
b0 \
0[
1Z
1Y
b0 X
bx W
b0 V
bx U
b0 T
b0 O
0N
1M
1L
b0 K
bx J
b0 I
bx H
b0 G
b0 B
0A
1@
1?
b0 >
bx =
bx <
bx ;
bx :
bx 9
bz000000000000000000000000000000000000000000000000000000000000000000000000000000000000000000000000000000000000000000000000 8
b0 7
bx 6
bx 5
bx 4
b0 3
bx 2
bx 1
bx 0
bx /
bx .
x-
x,
bx +
bx *
bx )
1(
bx '
bx &
bx %
bx $
bx #
0"
bx !
$end
#10000
bx0000 <
bx /$
bx G
b110011001100 i"
bx T
bx a
bx n
bx {
bx *"
bx 7"
bx D"
b100 2$
1"
#20000
0"
b11100000 %
b11100000 /
b11100000 $
b11100000 .
b11110101000 '
b11110101000 1
b11110101000 &
b11110101000 0
0(
#30000
bx00xx00xx00 !
bx00xx00xx00 6
bx \#
bx O#
bx B#
bx 5#
bx (#
bx y"
bx l"
bx _"
bx00000000 <
bx ?"
bx F"
bx 2"
bx 9"
bx %"
bx ,"
bx v
bx }
bx i
bx p
bx \
bx c
bx O
bx V
bz000000000000000000000000000000000000000000000000000000000000000000000000000000000000000000000000000000000000110011001100 8
b110011001100 d"
b110011001100 k"
b0xxxxxxxxxxxxxxxxxxxxxxxxxxxxxxxxxxxxxxxxxxxxxxxxxxxxxxxxxxxxxxxx 7
bx B
bx I
x^#
xQ#
xD#
x7#
x*#
x{"
xn"
xa"
bx 3
bx *$
bx 1$
b100 2$
1"
#40000
0-
0,
b1111011110 4
b1111011110 =
b1111011110 J
b1111011110 W
b1111011110 d
b1111011110 q
b1111011110 ~
b1111011110 -"
b1111011110 :"
b1100011 5
b1100011 G"
b1010110101 9
b1010110101 S"
b0 %$
0"
b0 )
b11110 *
b11110 2
b11110 #
b11110 +
b11110 4$
b11110 3$
#50000
bx0 :
bx0 ;
bx00000000xxxx <
b1 /$
b1101 G
b10 T
b100 2$
1"
#60000
b1100100 5
b1100100 G"
b1010110110 9
b1010110110 S"
b1111011111 4
b1111011111 =
b1111011111 J
b1111011111 W
b1111011111 d
b1111011111 q
b1111011111 ~
b1111011111 -"
b1111011111 :"
0"
b11111 #
b11111 +
b11111 4$
#70000
bx !
bx 6
0x#
0k#
b10 l"
b1101 _"
bx00 :
bx00 ;
b0xxxxxxxx <
b100 T
b10 O
b10 V
b0 G
b0xxxxxxxxxxxxxxxxxxxxxxxxxxxxxxxxxxxxxxxxxxxxxxxx0000001000001101 7
b1101 B
b1101 I
0^#
0Q#
0D#
07#
0*#
0{"
1n"
0a"
b1 3
b1 *$
b1 1$
b100 2$
1"
#80000
b1100101 5
b1100101 G"
b1010110111 9
b1010110111 S"
b1111000000 4
b1111000000 =
b1111000000 J
b1111000000 W
b1111000000 d
b1111000000 q
b1111000000 ~
b1111000000 -"
b1111000000 :"
b1 %$
0"
b100000 #
b100000 +
b100000 4$
#90000
b0 _"
b100 l"
bx000 :
bx000 ;
b0xxxxxxxx0001 <
b0 B
b0 I
b0xxxxxxxxxxxxxxxxxxxxxxxxxxxxxxxxxxxxxxxxxxxxxxxx0000010000000000 7
b100 O
b100 V
b10 T
b101110010110 v"
b100 2$
1"
#100000
b1100110 5
b1100110 G"
b1010111000 9
b1010111000 S"
b1111000001 4
b1111000001 =
b1111000001 J
b1111000001 W
b1111000001 d
b1111000001 q
b1111000001 ~
b1111000001 -"
b1111000001 :"
0"
b100001 #
b100001 +
b100001 4$
#110000
b101110010110 !
b101110010110 6
b10 l"
b0 :
b0 ;
bx00010001 <
b101110000101 v"
bz000000000000000000000000000000000000000000000000000000000000000000000000000000000000000000000000101110010110110011001100 8
b101110010110 q"
b101110010110 x"
b1 T
b0xxxxxxxxxxxxxxxxxxxxxxxxxxxxxxxxxxxxxxxxxxxxxxxx0000001000000000 7
b10 O
b10 V
b1101 G
b100 2$
1"
#120000
b1100111 5
b1100111 G"
b1010111001 9
b1010111001 S"
b1111000010 4
b1111000010 =
b1111000010 J
b1111000010 W
b1111000010 d
b1111000010 q
b1111000010 ~
b1111000010 -"
b1111000010 :"
0"
b100010 #
b100010 +
b100010 4$
#130000
b101110000101 !
b101110000101 6
b1101 _"
b1 l"
bx000100010001 <
b1101 B
b1101 I
b110 G
b0xxxxxxxxxxxxxxxxxxxxxxxxxxxxxxxxxxxxxxxxxxxxxxxx0000000100001101 7
b1 O
b1 V
b11 T
bz000000000000000000000000000000000000000000000000000000000000000000000000000000000000000000000000101110000101110011001100 8
b101110000101 q"
b101110000101 x"
b101110010110 v"
b100 2$
1"
#140000
b1101000 5
b1101000 G"
b1010111010 9
b1010111010 S"
b1111000011 4
b1111000011 =
b1111000011 J
b1111000011 W
b1111000011 d
b1111000011 q
b1111000011 ~
b1111000011 -"
b1111000011 :"
0"
b100011 #
b100011 +
b100011 4$
#150000
b101110010110 !
b101110010110 6
b11 l"
b110 _"
b1000100010001 <
b110010010110 v"
bz000000000000000000000000000000000000000000000000000000000000000000000000000000000000000000000000101110010110110011001100 8
b101110010110 q"
b101110010110 x"
b10 T
b11 O
b11 V
b1101 G
b0xxxxxxxxxxxxxxxxxxxxxxxxxxxxxxxxxxxxxxxxxxxxxxxx0000001100000110 7
b110 B
b110 I
b100 2$
1"
#160000
b1101001 5
b1101001 G"
b1010111011 9
b1010111011 S"
b1111000100 4
b1111000100 =
b1111000100 J
b1111000100 W
b1111000100 d
b1111000100 q
b1111000100 ~
b1111000100 -"
b1111000100 :"
0"
b100100 #
b100100 +
b100100 4$
#170000
b110010010110 !
b110010010110 6
b1101 _"
b10 l"
b1101 B
b1101 I
b0xxxxxxxxxxxxxxxxxxxxxxxxxxxxxxxxxxxxxxxxxxxxxxxx0000001000001101 7
b10 O
b10 V
b1 T
bz000000000000000000000000000000000000000000000000000000000000000000000000000000000000000000000000110010010110110011001100 8
b110010010110 q"
b110010010110 x"
b101110010101 v"
b100 2$
1"
#180000
b1101010 5
b1101010 G"
b1010111100 9
b1010111100 S"
b1111000101 4
b1111000101 =
b1111000101 J
b1111000101 W
b1111000101 d
b1111000101 q
b1111000101 ~
b1111000101 -"
b1111000101 :"
0"
b100101 #
b100101 +
b100101 4$
#190000
b101110010101 !
b101110010101 6
b1 l"
b101110010110 v"
bz000000000000000000000000000000000000000000000000000000000000000000000000000000000000000000000000101110010101110011001100 8
b101110010101 q"
b101110010101 x"
b100 T
b0xxxxxxxxxxxxxxxxxxxxxxxxxxxxxxxxxxxxxxxxxxxxxxxx0000000100001101 7
b1 O
b1 V
b100 2$
1"
#200000
b1101011 5
b1101011 G"
b1010111101 9
b1010111101 S"
b1111000110 4
b1111000110 =
b1111000110 J
b1111000110 W
b1111000110 d
b1111000110 q
b1111000110 ~
b1111000110 -"
b1111000110 :"
0"
b100110 #
b100110 +
b100110 4$
#210000
b101110010110 !
b101110010110 6
b100 l"
b0xxxxxxxxxxxxxxxxxxxxxxxxxxxxxxxxxxxxxxxxxxxxxxxx0000010000001101 7
b100 O
b100 V
b10 T
bz000000000000000000000000000000000000000000000000000000000000000000000000000000000000000000000000101110010110110011001100 8
b101110010110 q"
b101110010110 x"
b110010010110 v"
b100 2$
1"
#220000
b1101100 5
b1101100 G"
b1010111110 9
b1010111110 S"
b1111000111 4
b1111000111 =
b1111000111 J
b1111000111 W
b1111000111 d
b1111000111 q
b1111000111 ~
b1111000111 -"
b1111000111 :"
0"
b100111 #
b100111 +
b100111 4$
