track_view.vcd
$date
	Tue Nov 22 23:51:24 2022
$end
$version
	Icarus Verilog
$end
$timescale
	1ps
$end
$scope module track_view_tb $end
$var wire 12 ! pixel_out [11:0] $end
$var reg 1 " clk_in $end
$var reg 11 # hcount_in [10:0] $end
$var reg 11 $ opponent_x [10:0] $end
$var reg 11 % opponent_y [10:0] $end
$var reg 11 & player_x [10:0] $end
$var reg 11 ' player_y [10:0] $end
$var reg 1 ( rst_in $end
$var reg 4 ) sprite_type [3:0] $end
$var reg 10 * vcount_in [9:0] $end
$scope module uut $end
$var wire 1 " clk_in $end
$var wire 11 + hcount_in [10:0] $end
$var wire 1 , in_opponent $end
$var wire 1 - in_player $end
$var wire 11 . opponent_x [10:0] $end
$var wire 11 / opponent_y [10:0] $end
$var wire 11 0 player_x [10:0] $end
$var wire 11 1 player_y [10:0] $end
$var wire 1 ( rst_in $end
$var wire 10 2 vcount_in [9:0] $end
$var wire 4 3 sprite_type [3:0] $end
$var wire 10 4 sprite_addr [9:0] $end
$var wire 10 5 player_addr [9:0] $end
$var wire 12 6 pixel_out [11:0] $end
$var wire 80 7 palette_addr [79:0] $end
$var wire 192 8 output_color [191:0] $end
$var wire 10 9 opponent_addr [9:0] $end
$var reg 2 : in_opponent_pipe [1:0] $end
$var reg 2 ; in_player_pipe [1:0] $end
$var reg 20 < opponent_addr_pipe [19:0] $end
$var reg 20 = player_addr_pipe [19:0] $end
$var reg 20 > sprite_addr_pipe [19:0] $end
$var reg 16 ? sprite_type_pipe [15:0] $end
$scope module i0_black_square $end
$var wire 10 @ addra [9:0] $end
$var wire 1 " clka $end
$var wire 8 A dina [7:0] $end
$var wire 1 B ena $end
$var wire 1 C regcea $end
$var wire 1 ( rsta $end
$var wire 1 D wea $end
$var wire 8 E douta [7:0] $end
$var parameter 168 F INIT_FILE $end
$var parameter 32 G RAM_DEPTH $end
$var parameter 128 H RAM_PERFORMANCE $end
$var parameter 32 I RAM_WIDTH $end
$var reg 8 J ram_data [7:0] $end
$scope function clogb2 $end
$var integer 32 K depth [31:0] $end
$upscope $end
$scope begin output_register $end
$var reg 8 L douta_reg [7:0] $end
$upscope $end
$scope begin use_init_file $end
$upscope $end
$upscope $end
$scope module i1_type $end
$var wire 10 M addra [9:0] $end
$var wire 1 " clka $end
$var wire 8 N dina [7:0] $end
$var wire 1 O ena $end
$var wire 1 P regcea $end
$var wire 1 ( rsta $end
$var wire 1 Q wea $end
$var wire 8 R douta [7:0] $end
$var parameter 160 S INIT_FILE $end
$var parameter 32 T RAM_DEPTH $end
$var parameter 128 U RAM_PERFORMANCE $end
$var parameter 32 V RAM_WIDTH $end
$var reg 8 W ram_data [7:0] $end
$scope function clogb2 $end
$var integer 32 X depth [31:0] $end
$upscope $end
$scope begin output_register $end
$var reg 8 Y douta_reg [7:0] $end
$upscope $end
$scope begin use_init_file $end
$upscope $end
$upscope $end
$scope module i2_type $end
$var wire 10 Z addra [9:0] $end
$var wire 1 " clka $end
$var wire 8 [ dina [7:0] $end
$var wire 1 \ ena $end
$var wire 1 ] regcea $end
$var wire 1 ( rsta $end
$var wire 1 ^ wea $end
$var wire 8 _ douta [7:0] $end
$var parameter 40 ` INIT_FILE $end
$var parameter 32 a RAM_DEPTH $end
$var parameter 128 b RAM_PERFORMANCE $end
$var parameter 32 c RAM_WIDTH $end
$var reg 8 d ram_data [7:0] $end
$scope function clogb2 $end
$var integer 32 e depth [31:0] $end
$upscope $end
$scope begin output_register $end
$var reg 8 f douta_reg [7:0] $end
$upscope $end
$scope begin use_init_file $end
$upscope $end
$upscope $end
$scope module i3_type $end
$var wire 10 g addra [9:0] $end
$var wire 1 " clka $end
$var wire 8 h dina [7:0] $end
$var wire 1 i ena $end
$var wire 1 j regcea $end
$var wire 1 ( rsta $end
$var wire 1 k wea $end
$var wire 8 l douta [7:0] $end
$var parameter 40 m INIT_FILE $end
$var parameter 32 n RAM_DEPTH $end
$var parameter 128 o RAM_PERFORMANCE $end
$var parameter 32 p RAM_WIDTH $end
$var reg 8 q ram_data [7:0] $end
$scope function clogb2 $end
$var integer 32 r depth [31:0] $end
$upscope $end
$scope begin output_register $end
$var reg 8 s douta_reg [7:0] $end
$upscope $end
$scope begin use_init_file $end
$upscope $end
$upscope $end
$scope module i4_type $end
$var wire 10 t addra [9:0] $end
$var wire 1 " clka $end
$var wire 8 u dina [7:0] $end
$var wire 1 v ena $end
$var wire 1 w regcea $end
$var wire 1 ( rsta $end
$var wire 1 x wea $end
$var wire 8 y douta [7:0] $end
$var parameter 40 z INIT_FILE $end
$var parameter 32 { RAM_DEPTH $end
$var parameter 128 | RAM_PERFORMANCE $end
$var parameter 32 } RAM_WIDTH $end
$var reg 8 ~ ram_data [7:0] $end
$scope function clogb2 $end
$var integer 32 !" depth [31:0] $end
$upscope $end
$scope begin output_register $end
$var reg 8 "" douta_reg [7:0] $end
$upscope $end
$scope begin use_init_file $end
$upscope $end
$upscope $end
$scope module i5_type $end
$var wire 10 #" addra [9:0] $end
$var wire 1 " clka $end
$var wire 8 $" dina [7:0] $end
$var wire 1 %" ena $end
$var wire 1 &" regcea $end
$var wire 1 ( rsta $end
$var wire 1 '" wea $end
$var wire 8 (" douta [7:0] $end
$var parameter 40 )" INIT_FILE $end
$var parameter 32 *" RAM_DEPTH $end
$var parameter 128 +" RAM_PERFORMANCE $end
$var parameter 32 ," RAM_WIDTH $end
$var reg 8 -" ram_data [7:0] $end
$scope function clogb2 $end
$var integer 32 ." depth [31:0] $end
$upscope $end
$scope begin output_register $end
$var reg 8 /" douta_reg [7:0] $end
$upscope $end
$scope begin use_init_file $end
$upscope $end
$upscope $end
$scope module i6_type $end
$var wire 10 0" addra [9:0] $end
$var wire 1 " clka $end
$var wire 8 1" dina [7:0] $end
$var wire 1 2" ena $end
$var wire 1 3" regcea $end
$var wire 1 ( rsta $end
$var wire 1 4" wea $end
$var wire 8 5" douta [7:0] $end
$var parameter 40 6" INIT_FILE $end
$var parameter 32 7" RAM_DEPTH $end
$var parameter 128 8" RAM_PERFORMANCE $end
$var parameter 32 9" RAM_WIDTH $end
$var reg 8 :" ram_data [7:0] $end
$scope function clogb2 $end
$var integer 32 ;" depth [31:0] $end
$upscope $end
$scope begin output_register $end
$var reg 8 <" douta_reg [7:0] $end
$upscope $end
$scope begin use_init_file $end
$upscope $end
$upscope $end
$scope module i7_type $end
$var wire 10 =" addra [9:0] $end
$var wire 1 " clka $end
$var wire 8 >" dina [7:0] $end
$var wire 1 ?" ena $end
$var wire 1 @" regcea $end
$var wire 1 ( rsta $end
$var wire 1 A" wea $end
$var wire 8 B" douta [7:0] $end
$var parameter 40 C" INIT_FILE $end
$var parameter 32 D" RAM_DEPTH $end
$var parameter 128 E" RAM_PERFORMANCE $end
$var parameter 32 F" RAM_WIDTH $end
$var reg 8 G" ram_data [7:0] $end
$scope function clogb2 $end
$var integer 32 H" depth [31:0] $end
$upscope $end
$scope begin output_register $end
$var reg 8 I" douta_reg [7:0] $end
$upscope $end
$scope begin use_init_file $end
$upscope $end
$upscope $end
$scope module i8_mario $end
$var wire 10 J" addra [9:0] $end
$var wire 1 " clka $end
$var wire 8 K" dina [7:0] $end
$var wire 1 - ena $end
$var wire 1 L" regcea $end
$var wire 1 ( rsta $end
$var wire 1 M" wea $end
$var wire 8 N" douta [7:0] $end
$var parameter 152 O" INIT_FILE $end
$var parameter 32 P" RAM_DEPTH $end
$var parameter 128 Q" RAM_PERFORMANCE $end
$var parameter 32 R" RAM_WIDTH $end
$var reg 8 S" ram_data [7:0] $end
$scope function clogb2 $end
$var integer 32 T" depth [31:0] $end
$upscope $end
$scope begin output_register $end
$var reg 8 U" douta_reg [7:0] $end
$upscope $end
$scope begin use_init_file $end
$upscope $end
$upscope $end
$scope module i9_luigi $end
$var wire 10 V" addra [9:0] $end
$var wire 1 " clka $end
$var wire 8 W" dina [7:0] $end
$var wire 1 , ena $end
$var wire 1 X" regcea $end
$var wire 1 ( rsta $end
$var wire 1 Y" wea $end
$var wire 8 Z" douta [7:0] $end
$var parameter 152 [" INIT_FILE $end
$var parameter 32 \" RAM_DEPTH $end
$var parameter 128 ]" RAM_PERFORMANCE $end
$var parameter 32 ^" RAM_WIDTH $end
$var reg 8 _" ram_data [7:0] $end
$scope function clogb2 $end
$var integer 32 `" depth [31:0] $end
$upscope $end
$scope begin output_register $end
$var reg 8 a" douta_reg [7:0] $end
$upscope $end
$scope begin use_init_file $end
$upscope $end
$upscope $end
$scope module p0_black_square_pal $end
$var wire 8 b" addra [7:0] $end
$var wire 1 " clka $end
$var wire 12 c" dina [11:0] $end
$var wire 1 d" ena $end
$var wire 1 e" regcea $end
$var wire 1 ( rsta $end
$var wire 1 f" wea $end
$var wire 12 g" douta [11:0] $end
$var parameter 200 h" INIT_FILE $end
$var parameter 32 i" RAM_DEPTH $end
$var parameter 128 j" RAM_PERFORMANCE $end
$var parameter 32 k" RAM_WIDTH $end
$var reg 12 l" ram_data [11:0] $end
$scope function clogb2 $end
$var integer 32 m" depth [31:0] $end
$upscope $end
$scope begin output_register $end
$var reg 12 n" douta_reg [11:0] $end
$upscope $end
$scope begin use_init_file $end
$upscope $end
$upscope $end
$scope module p1_type $end
$var wire 8 o" addra [7:0] $end
$var wire 1 " clka $end
$var wire 12 p" dina [11:0] $end
$var wire 1 q" ena $end
$var wire 1 r" regcea $end
$var wire 1 ( rsta $end
$var wire 1 s" wea $end
$var wire 12 t" douta [11:0] $end
$var parameter 192 u" INIT_FILE $end
$var parameter 32 v" RAM_DEPTH $end
$var parameter 128 w" RAM_PERFORMANCE $end
$var parameter 32 x" RAM_WIDTH $end
$var reg 12 y" ram_data [11:0] $end
$scope function clogb2 $end
$var integer 32 z" depth [31:0] $end
$upscope $end
$scope begin output_register $end
$var reg 12 {" douta_reg [11:0] $end
$upscope $end
$scope begin use_init_file $end
$upscope $end
$upscope $end
$scope module p2_type $end
$var wire 8 |" addra [7:0] $end
$var wire 1 " clka $end
$var wire 12 }" dina [11:0] $end
$var wire 1 ~" ena $end
$var wire 1 !# regcea $end
$var wire 1 ( rsta $end
$var wire 1 "# wea $end
$var wire 12 ## douta [11:0] $end
$var parameter 40 $# INIT_FILE $end
$var parameter 32 %# RAM_DEPTH $end
$var parameter 128 &# RAM_PERFORMANCE $end
$var parameter 32 '# RAM_WIDTH $end
$var reg 12 (# ram_data [11:0] $end
$scope function clogb2 $end
$var integer 32 )# depth [31:0] $end
$upscope $end
$scope begin output_register $end
$var reg 12 *# douta_reg [11:0] $end
$upscope $end
$scope begin use_init_file $end
$upscope $end
$upscope $end
$scope module p3_type $end
$var wire 8 +# addra [7:0] $end
$var wire 1 " clka $end
$var wire 12 ,# dina [11:0] $end
$var wire 1 -# ena $end
$var wire 1 .# regcea $end
$var wire 1 ( rsta $end
$var wire 1 /# wea $end
$var wire 12 0# douta [11:0] $end
$var parameter 40 1# INIT_FILE $end
$var parameter 32 2# RAM_DEPTH $end
$var parameter 128 3# RAM_PERFORMANCE $end
$var parameter 32 4# RAM_WIDTH $end
$var reg 12 5# ram_data [11:0] $end
$scope function clogb2 $end
$var integer 32 6# depth [31:0] $end
$upscope $end
$scope begin output_register $end
$var reg 12 7# douta_reg [11:0] $end
$upscope $end
$scope begin use_init_file $end
$upscope $end
$upscope $end
$scope module p4_type $end
$var wire 8 8# addra [7:0] $end
$var wire 1 " clka $end
$var wire 12 9# dina [11:0] $end
$var wire 1 :# ena $end
$var wire 1 ;# regcea $end
$var wire 1 ( rsta $end
$var wire 1 <# wea $end
$var wire 12 =# douta [11:0] $end
$var parameter 40 ># INIT_FILE $end
$var parameter 32 ?# RAM_DEPTH $end
$var parameter 128 @# RAM_PERFORMANCE $end
$var parameter 32 A# RAM_WIDTH $end
$var reg 12 B# ram_data [11:0] $end
$scope function clogb2 $end
$var integer 32 C# depth [31:0] $end
$upscope $end
$scope begin output_register $end
$var reg 12 D# douta_reg [11:0] $end
$upscope $end
$scope begin use_init_file $end
$upscope $end
$upscope $end
$scope module p5_type $end
$var wire 8 E# addra [7:0] $end
$var wire 1 " clka $end
$var wire 12 F# dina [11:0] $end
$var wire 1 G# ena $end
$var wire 1 H# regcea $end
$var wire 1 ( rsta $end
$var wire 1 I# wea $end
$var wire 12 J# douta [11:0] $end
$var parameter 40 K# INIT_FILE $end
$var parameter 32 L# RAM_DEPTH $end
$var parameter 128 M# RAM_PERFORMANCE $end
$var parameter 32 N# RAM_WIDTH $end
$var reg 12 O# ram_data [11:0] $end
$scope function clogb2 $end
$var integer 32 P# depth [31:0] $end
$upscope $end
$scope begin output_register $end
$var reg 12 Q# douta_reg [11:0] $end
$upscope $end
$scope begin use_init_file $end
$upscope $end
$upscope $end
$scope module p6_type $end
$var wire 8 R# addra [7:0] $end
$var wire 1 " clka $end
$var wire 12 S# dina [11:0] $end
$var wire 1 T# ena $end
$var wire 1 U# regcea $end
$var wire 1 ( rsta $end
$var wire 1 V# wea $end
$var wire 12 W# douta [11:0] $end
$var parameter 40 X# INIT_FILE $end
$var parameter 32 Y# RAM_DEPTH $end
$var parameter 128 Z# RAM_PERFORMANCE $end
$var parameter 32 [# RAM_WIDTH $end
$var reg 12 \# ram_data [11:0] $end
$scope function clogb2 $end
$var integer 32 ]# depth [31:0] $end
$upscope $end
$scope begin output_register $end
$var reg 12 ^# douta_reg [11:0] $end
$upscope $end
$scope begin use_init_file $end
$upscope $end
$upscope $end
$scope module p7_type $end
$var wire 8 _# addra [7:0] $end
$var wire 1 " clka $end
$var wire 12 `# dina [11:0] $end
$var wire 1 a# ena $end
$var wire 1 b# regcea $end
$var wire 1 ( rsta $end
$var wire 1 c# wea $end
$var wire 12 d# douta [11:0] $end
$var parameter 40 e# INIT_FILE $end
$var parameter 32 f# RAM_DEPTH $end
$var parameter 128 g# RAM_PERFORMANCE $end
$var parameter 32 h# RAM_WIDTH $end
$var reg 12 i# ram_data [11:0] $end
$scope function clogb2 $end
$var integer 32 j# depth [31:0] $end
$upscope $end
$scope begin output_register $end
$var reg 12 k# douta_reg [11:0] $end
$upscope $end
$scope begin use_init_file $end
$upscope $end
$upscope $end
$scope module p8_mario $end
$var wire 8 l# addra [7:0] $end
$var wire 1 " clka $end
$var wire 12 m# dina [11:0] $end
$var wire 1 n# ena $end
$var wire 1 o# regcea $end
$var wire 1 ( rsta $end
$var wire 1 p# wea $end
$var wire 12 q# douta [11:0] $end
$var parameter 184 r# INIT_FILE $end
$var parameter 32 s# RAM_DEPTH $end
$var parameter 128 t# RAM_PERFORMANCE $end
$var parameter 32 u# RAM_WIDTH $end
$var reg 12 v# ram_data [11:0] $end
$scope function clogb2 $end
$var integer 32 w# depth [31:0] $end
$upscope $end
$scope begin output_register $end
$var reg 12 x# douta_reg [11:0] $end
$upscope $end
$scope begin use_init_file $end
$upscope $end
$upscope $end
$scope module p9_luigi $end
$var wire 8 y# addra [7:0] $end
$var wire 1 " clka $end
$var wire 12 z# dina [11:0] $end
$var wire 1 {# ena $end
$var wire 1 |# regcea $end
$var wire 1 ( rsta $end
$var wire 1 }# wea $end
$var wire 12 ~# douta [11:0] $end
$var parameter 184 !$ INIT_FILE $end
$var parameter 32 "$ RAM_DEPTH $end
$var parameter 128 #$ RAM_PERFORMANCE $end
$var parameter 32 $$ RAM_WIDTH $end
$var reg 12 %$ ram_data [11:0] $end
$scope function clogb2 $end
$var integer 32 &$ depth [31:0] $end
$upscope $end
$scope begin output_register $end
$var reg 12 '$ douta_reg [11:0] $end
$upscope $end
$scope begin use_init_file $end
$upscope $end
$upscope $end
$scope module track $end
$var wire 8 ($ addra [7:0] $end
$var wire 1 " clka $end
$var wire 4 )$ dina [3:0] $end
$var wire 1 *$ ena $end
$var wire 1 +$ regcea $end
$var wire 1 ( rsta $end
$var wire 1 ,$ wea $end
$var wire 4 -$ douta [3:0] $end
$var parameter 112 .$ INIT_FILE $end
$var parameter 32 /$ RAM_DEPTH $end
$var parameter 128 0$ RAM_PERFORMANCE $end
$var parameter 32 1$ RAM_WIDTH $end
$var reg 4 2$ ram_data [3:0] $end
$scope function clogb2 $end
$var integer 32 3$ depth [31:0] $end
$upscope $end
$scope begin output_register $end
$var reg 4 4$ douta_reg [3:0] $end
$upscope $end
$scope begin use_init_file $end
$upscope $end
$upscope $end
$scope begin $ivl_for_loop2 $end
$var integer 32 5$ i [31:0] $end
$upscope $end
$upscope $end
$scope begin $ivl_for_loop0 $end
$var integer 32 6$ i [31:0] $end
$scope begin $ivl_for_loop1 $end
$var integer 32 7$ j [31:0] $end
$upscope $end
$upscope $end
$upscope $end
$enddefinitions $end
$comment Show the parameter values. $end
$dumpall
b100 1$
b1001000010010010100011101001000010111110101000001000101010100100100011001001111010100100100110101000001010011100100001101000101 0$
b100000000 /$
b110010001100001011101000110000100101111011101000111001001100001011000110110101100101110011011010110010101101101 .$
b1100 $$
b1001000010010010100011101001000010111110101000001000101010100100100011001001111010100100100110101000001010011100100001101000101 #$
b100000000 "$
b110010001100001011101000110000100101111011100100110010101100100010111110111001101110001011101010110000101110010011001010101111101110000011000010110110000101110011011010110010101101101 !$
b1100 u#
b1001000010010010100011101001000010111110101000001000101010100100100011001001111010100100100110101000001010011100100001101000101 t#
b100000000 s#
b110010001100001011101000110000100101111011100100110010101100100010111110111001101110001011101010110000101110010011001010101111101110000011000010110110000101110011011010110010101101101 r#
b1100 h#
b1001000010010010100011101001000010111110101000001000101010100100100011001001111010100100100110101000001010011100100001101000101 g#
b100000000 f#
b110010001100001011101000110000100101111 e#
b1100 [#
b1001000010010010100011101001000010111110101000001000101010100100100011001001111010100100100110101000001010011100100001101000101 Z#
b100000000 Y#
b110010001100001011101000110000100101111 X#
b1100 N#
b1001000010010010100011101001000010111110101000001000101010100100100011001001111010100100100110101000001010011100100001101000101 M#
b100000000 L#
b110010001100001011101000110000100101111 K#
b1100 A#
b1001000010010010100011101001000010111110101000001000101010100100100011001001111010100100100110101000001010011100100001101000101 @#
b100000000 ?#
b110010001100001011101000110000100101111 >#
b1100 4#
b1001000010010010100011101001000010111110101000001000101010100100100011001001111010100100100110101000001010011100100001101000101 3#
b100000000 2#
b110010001100001011101000110000100101111 1#
b1100 '#
b1001000010010010100011101001000010111110101000001000101010100100100011001001111010100100100110101000001010011100100001101000101 &#
b100000000 %#
b110010001100001011101000110000100101111 $#
b1100 x"
b1001000010010010100011101001000010111110101000001000101010100100100011001001111010100100100110101000001010011100100001101000101 w"
b100000000 v"
b11001000110000101110100011000010010111101100111011100100110010101111001010111110111001101110001011101010110000101110010011001010101111101110000011000010110110000101110011011010110010101101101 u"
b1100 k"
b1001000010010010100011101001000010111110101000001000101010100100100011001001111010100100100110101000001010011100100001101000101 j"
b100000000 i"
b1100100011000010111010001100001001011110110001001101100011000010110001101101011010111110111001101110001011101010110000101110010011001010101111101110000011000010110110000101110011011010110010101101101 h"
b1000 ^"
b1001000010010010100011101001000010111110101000001000101010100100100011001001111010100100100110101000001010011100100001101000101 ]"
b10000000000 \"
b1100100011000010111010001100001001011110111001001100101011001000101111101110011011100010111010101100001011100100110010100101110011011010110010101101101 ["
b1000 R"
b1001000010010010100011101001000010111110101000001000101010100100100011001001111010100100100110101000001010011100100001101000101 Q"
b10000000000 P"
b1100100011000010111010001100001001011110111001001100101011001000101111101110011011100010111010101100001011100100110010100101110011011010110010101101101 O"
b1000 F"
b1001000010010010100011101001000010111110101000001000101010100100100011001001111010100100100110101000001010011100100001101000101 E"
b10000000000 D"
b110010001100001011101000110000100101111 C"
b1000 9"
b1001000010010010100011101001000010111110101000001000101010100100100011001001111010100100100110101000001010011100100001101000101 8"
b10000000000 7"
b110010001100001011101000110000100101111 6"
b1000 ,"
b1001000010010010100011101001000010111110101000001000101010100100100011001001111010100100100110101000001010011100100001101000101 +"
b10000000000 *"
b110010001100001011101000110000100101111 )"
b1000 }
b1001000010010010100011101001000010111110101000001000101010100100100011001001111010100100100110101000001010011100100001101000101 |
b10000000000 {
b110010001100001011101000110000100101111 z
b1000 p
b1001000010010010100011101001000010111110101000001000101010100100100011001001111010100100100110101000001010011100100001101000101 o
b10000000000 n
b110010001100001011101000110000100101111 m
b1000 c
b1001000010010010100011101001000010111110101000001000101010100100100011001001111010100100100110101000001010011100100001101000101 b
b10000000000 a
b110010001100001011101000110000100101111 `
b1000 V
b1001000010010010100011101001000010111110101000001000101010100100100011001001111010100100100110101000001010011100100001101000101 U
b10000000000 T
b110010001100001011101000110000100101111011001110111001001100101011110010101111101110011011100010111010101100001011100100110010100101110011011010110010101101101 S
b1000 I
b1001000010010010100011101001000010111110101000001000101010100100100011001001111010100100100110101000001010011100100001101000101 H
b10000000000 G
b11001000110000101110100011000010010111101100010011011000110000101100011011010110101111101110011011100010111010101100001011100100110010100101110011011010110010101101101 F
$end
#0
$dumpvars
b0 7$
b0 6$
b0 5$
b0 4$
bx 3$
b0 2$
b0 -$
0,$
1+$
1*$
b0 )$
bx ($
b0 '$
bx &$
b0 %$
b0 ~#
0}#
1|#
x{#
b0 z#
b0 y#
b0 x#
bx w#
b0 v#
b0 q#
0p#
1o#
xn#
b0 m#
b0 l#
b0 k#
bx j#
b0 i#
b0 d#
0c#
1b#
xa#
b0 `#
b0 _#
b0 ^#
bx ]#
b0 \#
b0 W#
0V#
1U#
xT#
b0 S#
b0 R#
b0 Q#
bx P#
b0 O#
b0 J#
0I#
1H#
xG#
b0 F#
b0 E#
b0 D#
bx C#
b0 B#
b0 =#
0<#
1;#
x:#
b0 9#
b0 8#
b0 7#
bx 6#
b0 5#
b0 0#
0/#
1.#
x-#
b0 ,#
b0 +#
b0 *#
bx )#
b0 (#
b0 ##
0"#
1!#
x~"
b0 }"
b0 |"
b0 {"
bx z"
b0 y"
b0 t"
0s"
1r"
xq"
b0 p"
b0 o"
b0 n"
bx m"
b0 l"
b0 g"
0f"
1e"
xd"
b0 c"
b0 b"
b0 a"
bx `"
b0 _"
b0 Z"
0Y"
1X"
b0 W"
bx V"
b0 U"
bx T"
b0 S"
b0 N"
0M"
1L"
b0 K"
bx J"
b0 I"
bx H"
b0 G"
b0 B"
0A"
1@"
0?"
b0 >"
bx ="
b0 <"
bx ;"
b0 :"
b0 5"
04"
13"
02"
b0 1"
bx 0"
b0 /"
bx ."
b0 -"
b0 ("
0'"
1&"
0%"
b0 $"
bx #"
b0 ""
bx !"
b0 ~
b0 y
0x
1w
0v
b0 u
bx t
b0 s
bx r
b0 q
b0 l
0k
1j
0i
b0 h
bx g
b0 f
bx e
b0 d
b0 _
0^
1]
0\
b0 [
bx Z
b0 Y
bx X
b0 W
b0 R
0Q
1P
0O
b0 N
bx M
b0 L
bx K
b0 J
b0 E
0D
1C
xB
b0 A
bx @
bx ?
bx >
bx =
bx <
bx ;
bx :
bx 9
bz000000000000000000000000000000000000000000000000000000000000000000000000000000000000000000000000000000000000000000000000 8
b0 7
bx 6
bx 5
bx 4
b0 3
bx 2
bx 1
bx 0
bx /
bx .
x-
x,
bx +
bx *
bx )
1(
bx '
bx &
bx %
bx $
bx #
0"
bx !
$end
#10000
bx0000 ?
bx 2$
b100 5$
1"
#20000
0"
b11100000 %
b11100000 /
b11100000 $
b11100000 .
b1000000 '
b1000000 1
b1000000 &
b1000000 0
0(
#30000
x?"
x2"
x%"
xv
xi
x\
xO
1d"
0q"
0~"
0-#
0:#
0G#
0T#
0a#
0n#
0{#
bx00000000 ?
bx 3
bx -$
bx 4$
b100 5$
1"
#40000
0-
0,
b0 4
b0 @
b0 M
b0 Z
b0 g
b0 t
b0 #"
b0 0"
b0 ="
b1111111111 5
b1111111111 J"
b1110111101 9
b1110111101 V"
b0 ($
0"
b0 )
b0 *
b0 2
b0 #
b0 +
#50000
bx0000000000 >
bx1110111101 <
bx0 :
bx1111111111 =
bx0 ;
bx00000000xxxx ?
b0 2$
b100 5$
1"
#60000
b1111100000 5
b1111100000 J"
b1110111110 9
b1110111110 V"
b1 4
b1 @
b1 M
b1 Z
b1 g
b1 t
b1 #"
b1 0"
b1 ="
0"
b1 #
b1 +
b1 7$
#70000
0?"
02"
0%"
0v
0i
0\
0O
1B
b0 !
b0 6
xd"
xq"
x~"
x-#
x:#
xG#
xT#
xa#
xn#
x{#
b1 >
b11101111011110111110 <
b0 :
b11111111111111100000 =
b0 ;
b0xxxxxxxx ?
b0 3
b0 -$
b0 4$
b100 5$
1"
#80000
b1111100001 5
b1111100001 J"
b1110111111 9
b1110111111 V"
b10 4
b10 @
b10 M
b10 Z
b10 g
b10 t
b10 #"
b10 0"
b10 ="
0"
b10 #
b10 +
b10 7$
#90000
b10000000010 >
b11101111101110111111 <
b11111000001111100001 =
b0xxxxxxxx0000 ?
b100 5$
1"
#100000
b1111100010 5
b1111100010 J"
b1110100000 9
b1110100000 V"
b11 4
b11 @
b11 M
b11 Z
b11 g
b11 t
b11 #"
b11 0"
b11 ="
0"
b11 #
b11 +
b11 7$
#110000
bx !
bx 6
1d"
0q"
0~"
0-#
0:#
0G#
0T#
0a#
0n#
0{#
b100000000011 >
b11101111111110100000 <
b11111000011111100010 =
bx00000000 ?
b100 5$
1"
#120000
b1111100011 5
b1111100011 J"
b1110100001 9
b1110100001 V"
b100 4
b100 @
b100 M
b100 Z
b100 g
b100 t
b100 #"
b100 0"
b100 ="
0"
b100 #
b100 +
b100 7$
#130000
b110000000100 >
b11101000001110100001 <
b11111000101111100011 =
bx000000000000 ?
b100 5$
1"
#140000
b1111100100 5
b1111100100 J"
b1110100010 9
b1110100010 V"
b101 4
b101 @
b101 M
b101 Z
b101 g
b101 t
b101 #"
b101 0"
b101 ="
0"
b101 #
b101 +
b101 7$
#150000
b0 !
b0 6
b1000000000101 >
b11101000011110100010 <
b11111000111111100100 =
b0 ?
b100 5$
1"
#160000
b1111100101 5
b1111100101 J"
b1110100011 9
b1110100011 V"
b110 4
b110 @
b110 M
b110 Z
b110 g
b110 t
b110 #"
b110 0"
b110 ="
0"
b110 #
b110 +
b110 7$
#170000
b1010000000110 >
b11101000101110100011 <
b11111001001111100101 =
b100 5$
1"
#180000
b1111100110 5
b1111100110 J"
b1110100100 9
b1110100100 V"
b111 4
b111 @
b111 M
b111 Z
b111 g
b111 t
b111 #"
b111 0"
b111 ="
0"
b111 #
b111 +
b111 7$
#190000
b1100000000111 >
b11101000111110100100 <
b11111001011111100110 =
b100 5$
1"
#200000
b1111100111 5
b1111100111 J"
b1110100101 9
b1110100101 V"
b1000 4
b1000 @
b1000 M
b1000 Z
b1000 g
b1000 t
b1000 #"
b1000 0"
b1000 ="
0"
b1000 #
b1000 +
b1000 7$
#210000
b1110000001000 >
b11101001001110100101 <
b11111001101111100111 =
b100 5$
1"
#220000
b1111101000 5
b1111101000 J"
b1110100110 9
b1110100110 V"
b1001 4
b1001 @
b1001 M
b1001 Z
b1001 g
b1001 t
b1001 #"
b1001 0"
b1001 ="
0"
b1001 #
b1001 +
b1001 7$
#230000
b10000000001001 >
b11101001011110100110 <
b11111001111111101000 =
b100 5$
1"
#240000
b1111101001 5
b1111101001 J"
b1110100111 9
b1110100111 V"
b1010 4
b1010 @
b1010 M
b1010 Z
b1010 g
b1010 t
b1010 #"
b1010 0"
b1010 ="
0"
b1010 #
b1010 +
b1010 7$
#250000
b10010000001010 >
b11101001101110100111 <
b11111010001111101001 =
b100 5$
1"
#260000
b1111101010 5
b1111101010 J"
b1110101000 9
b1110101000 V"
b1011 4
b1011 @
b1011 M
b1011 Z
b1011 g
b1011 t
b1011 #"
b1011 0"
b1011 ="
0"
b1011 #
b1011 +
b1011 7$
#270000
b10100000001011 >
b11101001111110101000 <
b11111010011111101010 =
b100 5$
1"
#280000
b1111101011 5
b1111101011 J"
b1110101001 9
b1110101001 V"
b1100 4
b1100 @
b1100 M
b1100 Z
b1100 g
b1100 t
b1100 #"
b1100 0"
b1100 ="
0"
b1100 #
b1100 +
b1100 7$
#290000
b10110000001100 >
b11101010001110101001 <
b11111010101111101011 =
b100 5$
1"
#300000
b1111101100 5
b1111101100 J"
b1110101010 9
b1110101010 V"
b1101 4
b1101 @
b1101 M
b1101 Z
b1101 g
b1101 t
b1101 #"
b1101 0"
b1101 ="
0"
b1101 #
b1101 +
b1101 7$
#310000
b11000000001101 >
b11101010011110101010 <
b11111010111111101100 =
b100 5$
1"
#320000
b1111101101 5
b1111101101 J"
b1110101011 9
b1110101011 V"
b1110 4
b1110 @
b1110 M
b1110 Z
b1110 g
b1110 t
b1110 #"
b1110 0"
b1110 ="
0"
b1110 #
b1110 +
b1110 7$
#330000
b11010000001110 >
b11101010101110101011 <
b11111011001111101101 =
b100 5$
1"
#340000
b1111101110 5
b1111101110 J"
b1110101100 9
b1110101100 V"
b1111 4
b1111 @
b1111 M
b1111 Z
b1111 g
b1111 t
b1111 #"
b1111 0"
b1111 ="
0"
b1111 #
b1111 +
b1111 7$
#350000
b11100000001111 >
b11101010111110101100 <
b11111011011111101110 =
b100 5$
1"
#360000
b1111101111 5
b1111101111 J"
b1110101101 9
b1110101101 V"
b10000 4
b10000 @
b10000 M
b10000 Z
b10000 g
b10000 t
b10000 #"
b10000 0"
b10000 ="
0"
b10000 #
b10000 +
b10000 7$
#370000
b11110000010000 >
b11101011001110101101 <
b11111011101111101111 =
b100 5$
1"
#380000
b1111110000 5
b1111110000 J"
b1110101110 9
b1110101110 V"
b10001 4
b10001 @
b10001 M
b10001 Z
b10001 g
b10001 t
b10001 #"
b10001 0"
b10001 ="
0"
b10001 #
b10001 +
b10001 7$
#390000
b100000000010001 >
b11101011011110101110 <
b11111011111111110000 =
b100 5$
1"
#400000
b1111110001 5
b1111110001 J"
b1110101111 9
b1110101111 V"
b10010 4
b10010 @
b10010 M
b10010 Z
b10010 g
b10010 t
b10010 #"
b10010 0"
b10010 ="
0"
b10010 #
b10010 +
b10010 7$
