track_view.vcd
$date
	Mon Dec 12 23:49:39 2022
$end
$version
	Icarus Verilog
$end
$timescale
	1ps
$end
$scope module track_view_tb $end
$var wire 12 ! pixel_out [11:0] $end
$var reg 1 " clk_in $end
$var reg 11 # hcount_in [10:0] $end
$var reg 11 $ opponent_x [10:0] $end
$var reg 11 % opponent_y [10:0] $end
$var reg 11 & player_x [10:0] $end
$var reg 11 ' player_y [10:0] $end
$var reg 1 ( rst_in $end
$var reg 10 ) vcount_in [9:0] $end
$scope module uut $end
$var wire 1 " clk_in $end
$var wire 11 * hcount_in [10:0] $end
$var wire 1 + in_opponent $end
$var wire 1 , in_player $end
$var wire 11 - opponent_x [10:0] $end
$var wire 11 . opponent_y [10:0] $end
$var wire 11 / player_x [10:0] $end
$var wire 11 0 player_y [10:0] $end
$var wire 1 ( rst_in $end
$var wire 10 1 vcount_in [9:0] $end
$var wire 4 2 sprite_type [3:0] $end
$var wire 10 3 sprite_addr [9:0] $end
$var wire 10 4 player_addr [9:0] $end
$var wire 80 5 palette_addr [79:0] $end
$var wire 192 6 output_color [191:0] $end
$var wire 10 7 opponent_addr [9:0] $end
$var wire 4 8 obstacle_type [3:0] $end
$var reg 4 9 in_opponent_pipe [3:0] $end
$var reg 4 : in_player_pipe [3:0] $end
$var reg 8 ; obstacle_type_pipe [7:0] $end
$var reg 12 < pixel_out [11:0] $end
$var reg 8 = sprite_type_pipe [7:0] $end
$scope module i0_black_square $end
$var wire 10 > addra [9:0] $end
$var wire 1 " clka $end
$var wire 8 ? dina [7:0] $end
$var wire 1 @ ena $end
$var wire 1 A regcea $end
$var wire 1 ( rsta $end
$var wire 1 B wea $end
$var wire 8 C douta [7:0] $end
$var parameter 168 D INIT_FILE $end
$var parameter 32 E RAM_DEPTH $end
$var parameter 128 F RAM_PERFORMANCE $end
$var parameter 32 G RAM_WIDTH $end
$var reg 8 H ram_data [7:0] $end
$scope function clogb2 $end
$var integer 32 I depth [31:0] $end
$upscope $end
$scope begin output_register $end
$var reg 8 J douta_reg [7:0] $end
$upscope $end
$scope begin use_init_file $end
$upscope $end
$upscope $end
$scope module i1_type $end
$var wire 10 K addra [9:0] $end
$var wire 1 " clka $end
$var wire 8 L dina [7:0] $end
$var wire 1 M ena $end
$var wire 1 N regcea $end
$var wire 1 ( rsta $end
$var wire 1 O wea $end
$var wire 8 P douta [7:0] $end
$var parameter 184 Q INIT_FILE $end
$var parameter 32 R RAM_DEPTH $end
$var parameter 128 S RAM_PERFORMANCE $end
$var parameter 32 T RAM_WIDTH $end
$var reg 8 U ram_data [7:0] $end
$scope function clogb2 $end
$var integer 32 V depth [31:0] $end
$upscope $end
$scope begin output_register $end
$var reg 8 W douta_reg [7:0] $end
$upscope $end
$scope begin use_init_file $end
$upscope $end
$upscope $end
$scope module i2_type $end
$var wire 10 X addra [9:0] $end
$var wire 1 " clka $end
$var wire 8 Y dina [7:0] $end
$var wire 1 Z ena $end
$var wire 1 [ regcea $end
$var wire 1 ( rsta $end
$var wire 1 \ wea $end
$var wire 8 ] douta [7:0] $end
$var parameter 176 ^ INIT_FILE $end
$var parameter 32 _ RAM_DEPTH $end
$var parameter 128 ` RAM_PERFORMANCE $end
$var parameter 32 a RAM_WIDTH $end
$var reg 8 b ram_data [7:0] $end
$scope function clogb2 $end
$var integer 32 c depth [31:0] $end
$upscope $end
$scope begin output_register $end
$var reg 8 d douta_reg [7:0] $end
$upscope $end
$scope begin use_init_file $end
$upscope $end
$upscope $end
$scope module i3_type $end
$var wire 10 e addra [9:0] $end
$var wire 1 " clka $end
$var wire 8 f dina [7:0] $end
$var wire 1 g ena $end
$var wire 1 h regcea $end
$var wire 1 ( rsta $end
$var wire 1 i wea $end
$var wire 8 j douta [7:0] $end
$var parameter 40 k INIT_FILE $end
$var parameter 32 l RAM_DEPTH $end
$var parameter 128 m RAM_PERFORMANCE $end
$var parameter 32 n RAM_WIDTH $end
$var reg 8 o ram_data [7:0] $end
$scope function clogb2 $end
$var integer 32 p depth [31:0] $end
$upscope $end
$scope begin output_register $end
$var reg 8 q douta_reg [7:0] $end
$upscope $end
$scope begin use_init_file $end
$upscope $end
$upscope $end
$scope module i4_type $end
$var wire 10 r addra [9:0] $end
$var wire 1 " clka $end
$var wire 8 s dina [7:0] $end
$var wire 1 t ena $end
$var wire 1 u regcea $end
$var wire 1 ( rsta $end
$var wire 1 v wea $end
$var wire 8 w douta [7:0] $end
$var parameter 40 x INIT_FILE $end
$var parameter 32 y RAM_DEPTH $end
$var parameter 128 z RAM_PERFORMANCE $end
$var parameter 32 { RAM_WIDTH $end
$var reg 8 | ram_data [7:0] $end
$scope function clogb2 $end
$var integer 32 } depth [31:0] $end
$upscope $end
$scope begin output_register $end
$var reg 8 ~ douta_reg [7:0] $end
$upscope $end
$scope begin use_init_file $end
$upscope $end
$upscope $end
$scope module i5_type $end
$var wire 10 !" addra [9:0] $end
$var wire 1 " clka $end
$var wire 8 "" dina [7:0] $end
$var wire 1 #" ena $end
$var wire 1 $" regcea $end
$var wire 1 ( rsta $end
$var wire 1 %" wea $end
$var wire 8 &" douta [7:0] $end
$var parameter 144 '" INIT_FILE $end
$var parameter 32 (" RAM_DEPTH $end
$var parameter 128 )" RAM_PERFORMANCE $end
$var parameter 32 *" RAM_WIDTH $end
$var reg 8 +" ram_data [7:0] $end
$scope function clogb2 $end
$var integer 32 ," depth [31:0] $end
$upscope $end
$scope begin output_register $end
$var reg 8 -" douta_reg [7:0] $end
$upscope $end
$scope begin use_init_file $end
$upscope $end
$upscope $end
$scope module i6_type $end
$var wire 10 ." addra [9:0] $end
$var wire 1 " clka $end
$var wire 8 /" dina [7:0] $end
$var wire 1 0" ena $end
$var wire 1 1" regcea $end
$var wire 1 ( rsta $end
$var wire 1 2" wea $end
$var wire 8 3" douta [7:0] $end
$var parameter 168 4" INIT_FILE $end
$var parameter 32 5" RAM_DEPTH $end
$var parameter 128 6" RAM_PERFORMANCE $end
$var parameter 32 7" RAM_WIDTH $end
$var reg 8 8" ram_data [7:0] $end
$scope function clogb2 $end
$var integer 32 9" depth [31:0] $end
$upscope $end
$scope begin output_register $end
$var reg 8 :" douta_reg [7:0] $end
$upscope $end
$scope begin use_init_file $end
$upscope $end
$upscope $end
$scope module i7_type $end
$var wire 10 ;" addra [9:0] $end
$var wire 1 " clka $end
$var wire 8 <" dina [7:0] $end
$var wire 1 =" ena $end
$var wire 1 >" regcea $end
$var wire 1 ( rsta $end
$var wire 1 ?" wea $end
$var wire 8 @" douta [7:0] $end
$var parameter 40 A" INIT_FILE $end
$var parameter 32 B" RAM_DEPTH $end
$var parameter 128 C" RAM_PERFORMANCE $end
$var parameter 32 D" RAM_WIDTH $end
$var reg 8 E" ram_data [7:0] $end
$scope function clogb2 $end
$var integer 32 F" depth [31:0] $end
$upscope $end
$scope begin output_register $end
$var reg 8 G" douta_reg [7:0] $end
$upscope $end
$scope begin use_init_file $end
$upscope $end
$upscope $end
$scope module i8_mario $end
$var wire 10 H" addra [9:0] $end
$var wire 1 " clka $end
$var wire 8 I" dina [7:0] $end
$var wire 1 , ena $end
$var wire 1 J" regcea $end
$var wire 1 ( rsta $end
$var wire 1 K" wea $end
$var wire 8 L" douta [7:0] $end
$var parameter 176 M" INIT_FILE $end
$var parameter 32 N" RAM_DEPTH $end
$var parameter 128 O" RAM_PERFORMANCE $end
$var parameter 32 P" RAM_WIDTH $end
$var reg 8 Q" ram_data [7:0] $end
$scope function clogb2 $end
$var integer 32 R" depth [31:0] $end
$upscope $end
$scope begin output_register $end
$var reg 8 S" douta_reg [7:0] $end
$upscope $end
$scope begin use_init_file $end
$upscope $end
$upscope $end
$scope module i9_luigi $end
$var wire 10 T" addra [9:0] $end
$var wire 1 " clka $end
$var wire 8 U" dina [7:0] $end
$var wire 1 + ena $end
$var wire 1 V" regcea $end
$var wire 1 ( rsta $end
$var wire 1 W" wea $end
$var wire 8 X" douta [7:0] $end
$var parameter 176 Y" INIT_FILE $end
$var parameter 32 Z" RAM_DEPTH $end
$var parameter 128 [" RAM_PERFORMANCE $end
$var parameter 32 \" RAM_WIDTH $end
$var reg 8 ]" ram_data [7:0] $end
$scope function clogb2 $end
$var integer 32 ^" depth [31:0] $end
$upscope $end
$scope begin output_register $end
$var reg 8 _" douta_reg [7:0] $end
$upscope $end
$scope begin use_init_file $end
$upscope $end
$upscope $end
$scope module p0_black_square_pal $end
$var wire 8 `" addra [7:0] $end
$var wire 1 " clka $end
$var wire 12 a" dina [11:0] $end
$var wire 1 b" ena $end
$var wire 1 c" regcea $end
$var wire 1 ( rsta $end
$var wire 1 d" wea $end
$var wire 12 e" douta [11:0] $end
$var parameter 200 f" INIT_FILE $end
$var parameter 32 g" RAM_DEPTH $end
$var parameter 128 h" RAM_PERFORMANCE $end
$var parameter 32 i" RAM_WIDTH $end
$var reg 12 j" ram_data [11:0] $end
$scope function clogb2 $end
$var integer 32 k" depth [31:0] $end
$upscope $end
$scope begin output_register $end
$var reg 12 l" douta_reg [11:0] $end
$upscope $end
$scope begin use_init_file $end
$upscope $end
$upscope $end
$scope module p1_type $end
$var wire 8 m" addra [7:0] $end
$var wire 1 " clka $end
$var wire 12 n" dina [11:0] $end
$var wire 1 o" ena $end
$var wire 1 p" regcea $end
$var wire 1 ( rsta $end
$var wire 1 q" wea $end
$var wire 12 r" douta [11:0] $end
$var parameter 216 s" INIT_FILE $end
$var parameter 32 t" RAM_DEPTH $end
$var parameter 128 u" RAM_PERFORMANCE $end
$var parameter 32 v" RAM_WIDTH $end
$var reg 12 w" ram_data [11:0] $end
$scope function clogb2 $end
$var integer 32 x" depth [31:0] $end
$upscope $end
$scope begin output_register $end
$var reg 12 y" douta_reg [11:0] $end
$upscope $end
$scope begin use_init_file $end
$upscope $end
$upscope $end
$scope module p2_type $end
$var wire 8 z" addra [7:0] $end
$var wire 1 " clka $end
$var wire 12 {" dina [11:0] $end
$var wire 1 |" ena $end
$var wire 1 }" regcea $end
$var wire 1 ( rsta $end
$var wire 1 ~" wea $end
$var wire 12 !# douta [11:0] $end
$var parameter 208 "# INIT_FILE $end
$var parameter 32 ## RAM_DEPTH $end
$var parameter 128 $# RAM_PERFORMANCE $end
$var parameter 32 %# RAM_WIDTH $end
$var reg 12 &# ram_data [11:0] $end
$scope function clogb2 $end
$var integer 32 '# depth [31:0] $end
$upscope $end
$scope begin output_register $end
$var reg 12 (# douta_reg [11:0] $end
$upscope $end
$scope begin use_init_file $end
$upscope $end
$upscope $end
$scope module p3_type $end
$var wire 8 )# addra [7:0] $end
$var wire 1 " clka $end
$var wire 12 *# dina [11:0] $end
$var wire 1 +# ena $end
$var wire 1 ,# regcea $end
$var wire 1 ( rsta $end
$var wire 1 -# wea $end
$var wire 12 .# douta [11:0] $end
$var parameter 40 /# INIT_FILE $end
$var parameter 32 0# RAM_DEPTH $end
$var parameter 128 1# RAM_PERFORMANCE $end
$var parameter 32 2# RAM_WIDTH $end
$var reg 12 3# ram_data [11:0] $end
$scope function clogb2 $end
$var integer 32 4# depth [31:0] $end
$upscope $end
$scope begin output_register $end
$var reg 12 5# douta_reg [11:0] $end
$upscope $end
$scope begin use_init_file $end
$upscope $end
$upscope $end
$scope module p4_type $end
$var wire 8 6# addra [7:0] $end
$var wire 1 " clka $end
$var wire 12 7# dina [11:0] $end
$var wire 1 8# ena $end
$var wire 1 9# regcea $end
$var wire 1 ( rsta $end
$var wire 1 :# wea $end
$var wire 12 ;# douta [11:0] $end
$var parameter 40 <# INIT_FILE $end
$var parameter 32 =# RAM_DEPTH $end
$var parameter 128 ># RAM_PERFORMANCE $end
$var parameter 32 ?# RAM_WIDTH $end
$var reg 12 @# ram_data [11:0] $end
$scope function clogb2 $end
$var integer 32 A# depth [31:0] $end
$upscope $end
$scope begin output_register $end
$var reg 12 B# douta_reg [11:0] $end
$upscope $end
$scope begin use_init_file $end
$upscope $end
$upscope $end
$scope module p5_type $end
$var wire 8 C# addra [7:0] $end
$var wire 1 " clka $end
$var wire 12 D# dina [11:0] $end
$var wire 1 E# ena $end
$var wire 1 F# regcea $end
$var wire 1 ( rsta $end
$var wire 1 G# wea $end
$var wire 12 H# douta [11:0] $end
$var parameter 176 I# INIT_FILE $end
$var parameter 32 J# RAM_DEPTH $end
$var parameter 128 K# RAM_PERFORMANCE $end
$var parameter 32 L# RAM_WIDTH $end
$var reg 12 M# ram_data [11:0] $end
$scope function clogb2 $end
$var integer 32 N# depth [31:0] $end
$upscope $end
$scope begin output_register $end
$var reg 12 O# douta_reg [11:0] $end
$upscope $end
$scope begin use_init_file $end
$upscope $end
$upscope $end
$scope module p6_type $end
$var wire 8 P# addra [7:0] $end
$var wire 1 " clka $end
$var wire 12 Q# dina [11:0] $end
$var wire 1 R# ena $end
$var wire 1 S# regcea $end
$var wire 1 ( rsta $end
$var wire 1 T# wea $end
$var wire 12 U# douta [11:0] $end
$var parameter 200 V# INIT_FILE $end
$var parameter 32 W# RAM_DEPTH $end
$var parameter 128 X# RAM_PERFORMANCE $end
$var parameter 32 Y# RAM_WIDTH $end
$var reg 12 Z# ram_data [11:0] $end
$scope function clogb2 $end
$var integer 32 [# depth [31:0] $end
$upscope $end
$scope begin output_register $end
$var reg 12 \# douta_reg [11:0] $end
$upscope $end
$scope begin use_init_file $end
$upscope $end
$upscope $end
$scope module p7_type $end
$var wire 8 ]# addra [7:0] $end
$var wire 1 " clka $end
$var wire 12 ^# dina [11:0] $end
$var wire 1 _# ena $end
$var wire 1 `# regcea $end
$var wire 1 ( rsta $end
$var wire 1 a# wea $end
$var wire 12 b# douta [11:0] $end
$var parameter 40 c# INIT_FILE $end
$var parameter 32 d# RAM_DEPTH $end
$var parameter 128 e# RAM_PERFORMANCE $end
$var parameter 32 f# RAM_WIDTH $end
$var reg 12 g# ram_data [11:0] $end
$scope function clogb2 $end
$var integer 32 h# depth [31:0] $end
$upscope $end
$scope begin output_register $end
$var reg 12 i# douta_reg [11:0] $end
$upscope $end
$scope begin use_init_file $end
$upscope $end
$upscope $end
$scope module p8_mario $end
$var wire 8 j# addra [7:0] $end
$var wire 1 " clka $end
$var wire 12 k# dina [11:0] $end
$var wire 1 l# ena $end
$var wire 1 m# regcea $end
$var wire 1 ( rsta $end
$var wire 1 n# wea $end
$var wire 12 o# douta [11:0] $end
$var parameter 208 p# INIT_FILE $end
$var parameter 32 q# RAM_DEPTH $end
$var parameter 128 r# RAM_PERFORMANCE $end
$var parameter 32 s# RAM_WIDTH $end
$var reg 12 t# ram_data [11:0] $end
$scope function clogb2 $end
$var integer 32 u# depth [31:0] $end
$upscope $end
$scope begin output_register $end
$var reg 12 v# douta_reg [11:0] $end
$upscope $end
$scope begin use_init_file $end
$upscope $end
$upscope $end
$scope module p9_luigi $end
$var wire 8 w# addra [7:0] $end
$var wire 1 " clka $end
$var wire 12 x# dina [11:0] $end
$var wire 1 y# ena $end
$var wire 1 z# regcea $end
$var wire 1 ( rsta $end
$var wire 1 {# wea $end
$var wire 12 |# douta [11:0] $end
$var parameter 208 }# INIT_FILE $end
$var parameter 32 ~# RAM_DEPTH $end
$var parameter 128 !$ RAM_PERFORMANCE $end
$var parameter 32 "$ RAM_WIDTH $end
$var reg 12 #$ ram_data [11:0] $end
$scope function clogb2 $end
$var integer 32 $$ depth [31:0] $end
$upscope $end
$scope begin output_register $end
$var reg 12 %$ douta_reg [11:0] $end
$upscope $end
$scope begin use_init_file $end
$upscope $end
$upscope $end
$scope module track $end
$var wire 8 &$ addra [7:0] $end
$var wire 1 " clka $end
$var wire 4 '$ dina [3:0] $end
$var wire 1 ($ ena $end
$var wire 1 )$ regcea $end
$var wire 1 ( rsta $end
$var wire 1 *$ wea $end
$var wire 4 +$ douta [3:0] $end
$var parameter 112 ,$ INIT_FILE $end
$var parameter 32 -$ RAM_DEPTH $end
$var parameter 128 .$ RAM_PERFORMANCE $end
$var parameter 32 /$ RAM_WIDTH $end
$var reg 4 0$ ram_data [3:0] $end
$scope function clogb2 $end
$var integer 32 1$ depth [31:0] $end
$upscope $end
$scope begin output_register $end
$var reg 4 2$ douta_reg [3:0] $end
$upscope $end
$scope begin use_init_file $end
$upscope $end
$upscope $end
$scope module track_obstacles $end
$var wire 8 3$ addra [7:0] $end
$var wire 1 " clka $end
$var wire 4 4$ dina [3:0] $end
$var wire 1 5$ ena $end
$var wire 1 6$ regcea $end
$var wire 1 ( rsta $end
$var wire 1 7$ wea $end
$var wire 4 8$ douta [3:0] $end
$var parameter 192 9$ INIT_FILE $end
$var parameter 32 :$ RAM_DEPTH $end
$var parameter 128 ;$ RAM_PERFORMANCE $end
$var parameter 32 <$ RAM_WIDTH $end
$var reg 4 =$ ram_data [3:0] $end
$scope function clogb2 $end
$var integer 32 >$ depth [31:0] $end
$upscope $end
$scope begin output_register $end
$var reg 4 ?$ douta_reg [3:0] $end
$upscope $end
$scope begin use_init_file $end
$upscope $end
$upscope $end
$scope begin $ivl_for_loop2 $end
$var integer 32 @$ i [31:0] $end
$upscope $end
$upscope $end
$scope begin $ivl_for_loop0 $end
$var integer 32 A$ i [31:0] $end
$scope begin $ivl_for_loop1 $end
$var integer 32 B$ j [31:0] $end
$upscope $end
$upscope $end
$upscope $end
$enddefinitions $end
$comment Show the parameter values. $end
$dumpall
b100 <$
b1001000010010010100011101001000010111110101000001000101010100100100011001001111010100100100110101000001010011100100001101000101 ;$
b100000000 :$
b11001000110000101110100011000010010111101110100011100100110000101100011011010110101111101101111011000100111001101110100011000010110001101101100011001010111001100101110011011010110010101101101 9$
b100 /$
b1001000010010010100011101001000010111110101000001000101010100100100011001001111010100100100110101000001010011100100001101000101 .$
b100000000 -$
b110010001100001011101000110000100101111011101000111001001100001011000110110101100101110011011010110010101101101 ,$
b1100 "$
b1001000010010010100011101001000010111110101000001000101010100100100011001001111010100100100110101000001010011100100001101000101 !$
b100000000 ~#
b110010001100001011101000110000100101111001100000011100101011111011011000111010101101001011001110110100101011111011010010110001101101111011011100101111101110000011000010110110000101110011011010110010101101101 }#
b1100 s#
b1001000010010010100011101001000010111110101000001000101010100100100011001001111010100100100110101000001010011100100001101000101 r#
b100000000 q#
b110010001100001011101000110000100101111001100000011100001011111011011010110000101110010011010010110111101011111011010010110001101101111011011100101111101110000011000010110110000101110011011010110010101101101 p#
b1100 f#
b1001000010010010100011101001000010111110101000001000101010100100100011001001111010100100100110101000001010011100100001101000101 e#
b100000000 d#
b110010001100001011101000110000100101111 c#
b1100 Y#
b1001000010010010100011101001000010111110101000001000101010100100100011001001111010100100100110101000001010011100100001101000101 X#
b100000000 W#
b1100100011000010111010001100001001011110011000000110110010111110110111101101001011011000101111101110011011100000110100101101100011011000101111101110000011000010110110000101110011011010110010101101101 V#
b1100 L#
b1001000010010010100011101001000010111110101000001000101010100100100011001001111010100100100110101000001010011100100001101000101 K#
b100000000 J#
b1100100011000010111010001100001001011110011000000110101010111110110011001101001011011100110100101110011011010000101111101110000011000010110110000101110011011010110010101101101 I#
b1100 ?#
b1001000010010010100011101001000010111110101000001000101010100100100011001001111010100100100110101000001010011100100001101000101 >#
b100000000 =#
b110010001100001011101000110000100101111 <#
b1100 2#
b1001000010010010100011101001000010111110101000001000101010100100100011001001111010100100100110101000001010011100100001101000101 1#
b100000000 0#
b110010001100001011101000110000100101111 /#
b1100 %#
b1001000010010010100011101001000010111110101000001000101010100100100011001001111010100100100110101000001010011100100001101000101 $#
b100000000 ##
b110010001100001011101000110000100101111001100000011001001011111011100100110111101100001011001000101111101101000011011110111001001101001011110100101111101110000011000010110110000101110011011010110010101101101 "#
b1100 v"
b1001000010010010100011101001000010111110101000001000101010100100100011001001111010100100100110101000001010011100100001101000101 u"
b100000000 t"
b11001000110000101110100011000010010111100110000001100010101111101101110011011110111001001101101011000010110110001011111011100110110000101101110011001000101111101110000011000010110110000101110011011010110010101101101 s"
b1100 i"
b1001000010010010100011101001000010111110101000001000101010100100100011001001111010100100100110101000001010011100100001101000101 h"
b100000000 g"
b1100100011000010111010001100001001011110011000000110000010111110111001001101111011000010110010001011111011101100110010101110010011101000101111101110000011000010110110000101110011011010110010101101101 f"
b1000 \"
b1001000010010010100011101001000010111110101000001000101010100100100011001001111010100100100110101000001010011100100001101000101 ["
b10000000000 Z"
b1100100011000010111010001100001001011110011000000111001010111110110110001110101011010010110011101101001010111110110100101100011011011110110111000101110011011010110010101101101 Y"
b1000 P"
b1001000010010010100011101001000010111110101000001000101010100100100011001001111010100100100110101000001010011100100001101000101 O"
b10000000000 N"
b1100100011000010111010001100001001011110011000000111000010111110110110101100001011100100110100101101111010111110110100101100011011011110110111000101110011011010110010101101101 M"
b1000 D"
b1001000010010010100011101001000010111110101000001000101010100100100011001001111010100100100110101000001010011100100001101000101 C"
b10000000000 B"
b110010001100001011101000110000100101111 A"
b1000 7"
b1001000010010010100011101001000010111110101000001000101010100100100011001001111010100100100110101000001010011100100001101000101 6"
b10000000000 5"
b11001000110000101110100011000010010111100110000001101100101111101101111011010010110110001011111011100110111000001101001011011000110110000101110011011010110010101101101 4"
b1000 *"
b1001000010010010100011101001000010111110101000001000101010100100100011001001111010100100100110101000001010011100100001101000101 )"
b10000000000 ("
b11001000110000101110100011000010010111100110000001101010101111101100110011010010110111001101001011100110110100000101110011011010110010101101101 '"
b1000 {
b1001000010010010100011101001000010111110101000001000101010100100100011001001111010100100100110101000001010011100100001101000101 z
b10000000000 y
b110010001100001011101000110000100101111 x
b1000 n
b1001000010010010100011101001000010111110101000001000101010100100100011001001111010100100100110101000001010011100100001101000101 m
b10000000000 l
b110010001100001011101000110000100101111 k
b1000 a
b1001000010010010100011101001000010111110101000001000101010100100100011001001111010100100100110101000001010011100100001101000101 `
b10000000000 _
b1100100011000010111010001100001001011110011000000110010010111110111001001101111011000010110010001011111011010000110111101110010011010010111101000101110011011010110010101101101 ^
b1000 T
b1001000010010010100011101001000010111110101000001000101010100100100011001001111010100100100110101000001010011100100001101000101 S
b10000000000 R
b110010001100001011101000110000100101111001100000011000101011111011011100110111101110010011011010110000101101100010111110111001101100001011011100110010000101110011011010110010101101101 Q
b1000 G
b1001000010010010100011101001000010111110101000001000101010100100100011001001111010100100100110101000001010011100100001101000101 F
b10000000000 E
b11001000110000101110100011000010010111100110000001100000101111101110010011011110110000101100100010111110111011001100101011100100111010000101110011011010110010101101101 D
$end
#0
$dumpvars
b0 B$
b0 A$
b0 @$
b0 ?$
bx >$
b0 =$
b0 8$
07$
16$
15$
b0 4$
bx 3$
b0 2$
bx 1$
b0 0$
b0 +$
0*$
1)$
1($
b0 '$
bx &$
b0 %$
bx $$
b0 #$
b0 |#
0{#
1z#
xy#
b0 x#
b0 w#
b0 v#
bx u#
b0 t#
b0 o#
0n#
1m#
xl#
b0 k#
b0 j#
b0 i#
bx h#
b0 g#
b0 b#
0a#
1`#
0_#
b0 ^#
b0 ]#
b0 \#
bx [#
b0 Z#
b0 U#
0T#
1S#
0R#
b0 Q#
b0 P#
b0 O#
bx N#
b0 M#
b0 H#
0G#
1F#
0E#
b0 D#
b0 C#
b0 B#
bx A#
b0 @#
b0 ;#
0:#
19#
08#
b0 7#
b0 6#
b0 5#
bx 4#
b0 3#
b0 .#
0-#
1,#
0+#
b0 *#
b0 )#
b0 (#
bx '#
b0 &#
b0 !#
0~"
1}"
0|"
b0 {"
b0 z"
b0 y"
bx x"
b0 w"
b0 r"
0q"
1p"
0o"
b0 n"
b0 m"
b0 l"
bx k"
b0 j"
b0 e"
0d"
1c"
1b"
b0 a"
b0 `"
b0 _"
bx ^"
b0 ]"
b0 X"
0W"
1V"
b0 U"
bx T"
b0 S"
bx R"
b0 Q"
b0 L"
0K"
1J"
b0 I"
bx H"
b0 G"
bx F"
b0 E"
b0 @"
0?"
1>"
1="
b0 <"
bx ;"
b0 :"
bx 9"
b0 8"
b0 3"
02"
11"
10"
b0 /"
bx ."
b0 -"
bx ,"
b0 +"
b0 &"
0%"
1$"
1#"
b0 ""
bx !"
b0 ~
bx }
b0 |
b0 w
0v
1u
1t
b0 s
bx r
b0 q
bx p
b0 o
b0 j
0i
1h
1g
b0 f
bx e
b0 d
bx c
b0 b
b0 ]
0\
1[
1Z
b0 Y
bx X
b0 W
bx V
b0 U
b0 P
0O
1N
1M
b0 L
bx K
b0 J
bx I
b0 H
b0 C
0B
1A
1@
b0 ?
bx >
bx =
bx <
bx ;
bx :
bx 9
b0 8
bx 7
bz000000000000000000000000000000000000000000000000000000000000000000000000000000000000000000000000000000000000000000000000 6
b0 5
bx 4
bx 3
b0 2
bx 1
bx 0
bx /
bx .
bx -
x,
x+
bx *
bx )
1(
bx '
bx &
bx %
bx $
bx #
0"
bx !
$end
#10000
bx0000 ;
bx0000 =
bx 0$
bx =$
bx H
b101110111011 j"
bx U
bx b
bx o
bx |
bx +"
bx 8"
bx E"
b100 @$
1"
#20000
0"
b11100000 %
b11100000 .
b11100000 $
b11100000 -
b11110101000 '
b11110101000 0
b11110101000 &
b11110101000 /
0(
#30000
bx ]#
bx P#
bx C#
bx 6#
bx )#
bx z"
bx m"
bx `"
b0 ;
b0 =
bx @"
bx G"
bx 3"
bx :"
bx &"
bx -"
bx w
bx ~
bx j
bx q
bx ]
bx d
bx P
bx W
bz000000000000000000000000000000000000000000000000000000000000000000000000000000000000000000000000000000000000101110111011 6
b101110111011 e"
b101110111011 l"
b0xxxxxxxxxxxxxxxxxxxxxxxxxxxxxxxxxxxxxxxxxxxxxxxxxxxxxxxxxxxxxxxx 5
bx C
bx J
x_#
xR#
xE#
bx 8
bx 8$
bx ?$
x8#
x+#
x|"
xo"
xb"
bx 2
bx +$
bx 2$
b100 @$
1"
#40000
0,
0+
b0 3
b0 >
b0 K
b0 X
b0 e
b0 r
b0 !"
b0 ."
b0 ;"
b10100101 4
b10100101 H"
b1011110111 7
b1011110111 T"
b100011 &$
b100011 3$
0"
b1000000 )
b1000000 1
b1100000 #
b1100000 *
b1100000 B$
b1000000 A$
#50000
b101110111011 !
b101110111011 <
b0xxxx ;
b0xxxx =
bx0 9
bx0 :
b10 0$
b101 =$
b110 H
b10 U
b110 b
b11010 +"
b10000 8"
b100 @$
1"
#60000
b10100110 4
b10100110 H"
b1011111000 7
b1011111000 T"
b1 3
b1 >
b1 K
b1 X
b1 e
b1 r
b1 !"
b1 ."
b1 ;"
0"
b1100001 #
b1100001 *
b1100001 B$
#70000
0y#
0l#
b10000 P#
b11010 C#
b110 z"
b10 m"
b110 `"
bx ;
bx =
bx00 9
bx00 :
b10000 3"
b10000 :"
b11010 &"
b11010 -"
b111 b
b110 ]
b110 d
b10 P
b10 W
b101 H
b0xxxxxxxx0001000000011010xxxxxxxxxxxxxxxx000001100000001000000110 5
b110 C
b110 J
0_#
0R#
1E#
b101 8
b101 8$
b101 ?$
08#
0+#
1|"
0o"
0b"
b10 2
b10 +$
b10 2$
b100 @$
1"
#80000
b10100111 4
b10100111 H"
b1011111001 7
b1011111001 T"
b10 3
b10 >
b10 K
b10 X
b10 e
b10 r
b10 !"
b10 ."
b10 ;"
0"
b1100010 #
b1100010 *
b1100010 B$
#90000
b101 `"
b111 z"
bx !
bx <
bx0101 ;
bx0010 =
bx000 9
bx000 :
b101 C
b101 J
b0xxxxxxxx0001000000011010xxxxxxxxxxxxxxxx000001110000001000000101 5
b111 ]
b111 d
b10101010101 &#
b1100000110 M#
b100 @$
1"
#100000
b10101000 4
b10101000 H"
b1011111010 7
b1011111010 T"
b11 3
b11 >
b11 K
b11 X
b11 e
b11 r
b11 !"
b11 ."
b11 ;"
0"
b1100011 #
b1100011 *
b1100011 B$
#110000
b1010101 ;
b100010 =
b0 9
b0 :
b1100000110 H#
b1100000110 O#
b10001000101 &#
bz000000000000000000000000000000000000000000000000001100000110000000000000000000000000010101010101000000000000101110111011 6
b10101010101 !#
b10101010101 (#
b1 U
b100 @$
1"
#120000
b10101001 4
b10101001 H"
b1011111011 7
b1011111011 T"
b100 3
b100 >
b100 K
b100 X
b100 e
b100 r
b100 !"
b100 ."
b100 ;"
0"
b1100100 #
b1100100 *
b1100100 B$
#130000
b1 m"
b1100000110 !
b1100000110 <
b0xxxxxxxx0001000000011010xxxxxxxxxxxxxxxx000001110000000100000101 5
b1 P
b1 W
b10 U
b110 b
bz000000000000000000000000000000000000000000000000001100000110000000000000000000000000010001000101000000000000101110111011 6
b10001000101 !#
b10001000101 (#
b100 @$
1"
#140000
b10101010 4
b10101010 H"
b1011111100 7
b1011111100 T"
b101 3
b101 >
b101 K
b101 X
b101 e
b101 r
b101 !"
b101 ."
b101 ;"
0"
b1100101 #
b1100101 *
b1100101 B$
#150000
b110 z"
b10 m"
b110 ]
b110 d
b100 U
b0xxxxxxxx0001000000011010xxxxxxxxxxxxxxxx000001100000001000000101 5
b10 P
b10 W
b111 H
b100 @$
1"
#160000
b10101011 4
b10101011 H"
b1011111101 7
b1011111101 T"
b110 3
b110 >
b110 K
b110 X
b110 e
b110 r
b110 !"
b110 ."
b110 ;"
0"
b1100110 #
b1100110 *
b1100110 B$
#170000
b111 `"
b100 m"
b111 C
b111 J
b101 H
b0xxxxxxxx0001000000011010xxxxxxxxxxxxxxxx000001100000010000000111 5
b100 P
b100 W
b11 U
b111 b
b10101010101 &#
b100 @$
1"
#180000
b10101100 4
b10101100 H"
b1011111110 7
b1011111110 T"
b111 3
b111 >
b111 K
b111 X
b111 e
b111 r
b111 !"
b111 ."
b111 ;"
0"
b1100111 #
b1100111 *
b1100111 B$
