track_view.vcd
$date
	Sat Dec 03 17:18:59 2022
$end
$version
	Icarus Verilog
$end
$timescale
	1ps
$end
$scope module track_view_tb $end
$var wire 12 ! pixel_out [11:0] $end
$var reg 1 " clk_in $end
$var reg 11 # hcount_in [10:0] $end
$var reg 11 $ opponent_x [10:0] $end
$var reg 11 % opponent_y [10:0] $end
$var reg 11 & player_x [10:0] $end
$var reg 11 ' player_y [10:0] $end
$var reg 1 ( rst_in $end
$var reg 4 ) sprite_type [3:0] $end
$var reg 10 * vcount_in [9:0] $end
$scope module uut $end
$var wire 1 " clk_in $end
$var wire 11 + hcount_in [10:0] $end
$var wire 1 , in_opponent $end
$var wire 1 - in_player $end
$var wire 11 . opponent_x [10:0] $end
$var wire 11 / opponent_y [10:0] $end
$var wire 11 0 player_x [10:0] $end
$var wire 11 1 player_y [10:0] $end
$var wire 1 ( rst_in $end
$var wire 10 2 vcount_in [9:0] $end
$var wire 4 3 sprite_type [3:0] $end
$var wire 10 4 sprite_addr [9:0] $end
$var wire 10 5 player_addr [9:0] $end
$var wire 12 6 pixel_out [11:0] $end
$var wire 80 7 palette_addr [79:0] $end
$var wire 192 8 output_color [191:0] $end
$var wire 10 9 opponent_addr [9:0] $end
$var reg 2 : in_opponent_pipe [1:0] $end
$var reg 2 ; in_player_pipe [1:0] $end
$var reg 20 < opponent_addr_pipe [19:0] $end
$var reg 20 = player_addr_pipe [19:0] $end
$var reg 20 > sprite_addr_pipe [19:0] $end
$var reg 16 ? sprite_type_pipe [15:0] $end
$scope module i0_black_square $end
$var wire 10 @ addra [9:0] $end
$var wire 1 " clka $end
$var wire 8 A dina [7:0] $end
$var wire 1 B ena $end
$var wire 1 C regcea $end
$var wire 1 ( rsta $end
$var wire 1 D wea $end
$var wire 8 E douta [7:0] $end
$var parameter 128 F INIT_FILE $end
$var parameter 32 G RAM_DEPTH $end
$var parameter 128 H RAM_PERFORMANCE $end
$var parameter 32 I RAM_WIDTH $end
$var reg 8 J ram_data [7:0] $end
$scope function clogb2 $end
$var integer 32 K depth [31:0] $end
$upscope $end
$scope begin output_register $end
$var reg 8 L douta_reg [7:0] $end
$upscope $end
$scope begin use_init_file $end
$upscope $end
$upscope $end
$scope module i1_type $end
$var wire 10 M addra [9:0] $end
$var wire 1 " clka $end
$var wire 8 N dina [7:0] $end
$var wire 1 O ena $end
$var wire 1 P regcea $end
$var wire 1 ( rsta $end
$var wire 1 Q wea $end
$var wire 8 R douta [7:0] $end
$var parameter 184 S INIT_FILE $end
$var parameter 32 T RAM_DEPTH $end
$var parameter 128 U RAM_PERFORMANCE $end
$var parameter 32 V RAM_WIDTH $end
$var reg 8 W ram_data [7:0] $end
$scope function clogb2 $end
$var integer 32 X depth [31:0] $end
$upscope $end
$scope begin output_register $end
$var reg 8 Y douta_reg [7:0] $end
$upscope $end
$scope begin use_init_file $end
$upscope $end
$upscope $end
$scope module i2_type $end
$var wire 10 Z addra [9:0] $end
$var wire 1 " clka $end
$var wire 8 [ dina [7:0] $end
$var wire 1 \ ena $end
$var wire 1 ] regcea $end
$var wire 1 ( rsta $end
$var wire 1 ^ wea $end
$var wire 8 _ douta [7:0] $end
$var parameter 40 ` INIT_FILE $end
$var parameter 32 a RAM_DEPTH $end
$var parameter 128 b RAM_PERFORMANCE $end
$var parameter 32 c RAM_WIDTH $end
$var reg 8 d ram_data [7:0] $end
$scope function clogb2 $end
$var integer 32 e depth [31:0] $end
$upscope $end
$scope begin output_register $end
$var reg 8 f douta_reg [7:0] $end
$upscope $end
$scope begin use_init_file $end
$upscope $end
$upscope $end
$scope module i3_type $end
$var wire 10 g addra [9:0] $end
$var wire 1 " clka $end
$var wire 8 h dina [7:0] $end
$var wire 1 i ena $end
$var wire 1 j regcea $end
$var wire 1 ( rsta $end
$var wire 1 k wea $end
$var wire 8 l douta [7:0] $end
$var parameter 40 m INIT_FILE $end
$var parameter 32 n RAM_DEPTH $end
$var parameter 128 o RAM_PERFORMANCE $end
$var parameter 32 p RAM_WIDTH $end
$var reg 8 q ram_data [7:0] $end
$scope function clogb2 $end
$var integer 32 r depth [31:0] $end
$upscope $end
$scope begin output_register $end
$var reg 8 s douta_reg [7:0] $end
$upscope $end
$scope begin use_init_file $end
$upscope $end
$upscope $end
$scope module i4_type $end
$var wire 10 t addra [9:0] $end
$var wire 1 " clka $end
$var wire 8 u dina [7:0] $end
$var wire 1 v ena $end
$var wire 1 w regcea $end
$var wire 1 ( rsta $end
$var wire 1 x wea $end
$var wire 8 y douta [7:0] $end
$var parameter 40 z INIT_FILE $end
$var parameter 32 { RAM_DEPTH $end
$var parameter 128 | RAM_PERFORMANCE $end
$var parameter 32 } RAM_WIDTH $end
$var reg 8 ~ ram_data [7:0] $end
$scope function clogb2 $end
$var integer 32 !" depth [31:0] $end
$upscope $end
$scope begin output_register $end
$var reg 8 "" douta_reg [7:0] $end
$upscope $end
$scope begin use_init_file $end
$upscope $end
$upscope $end
$scope module i5_type $end
$var wire 10 #" addra [9:0] $end
$var wire 1 " clka $end
$var wire 8 $" dina [7:0] $end
$var wire 1 %" ena $end
$var wire 1 &" regcea $end
$var wire 1 ( rsta $end
$var wire 1 '" wea $end
$var wire 8 (" douta [7:0] $end
$var parameter 40 )" INIT_FILE $end
$var parameter 32 *" RAM_DEPTH $end
$var parameter 128 +" RAM_PERFORMANCE $end
$var parameter 32 ," RAM_WIDTH $end
$var reg 8 -" ram_data [7:0] $end
$scope function clogb2 $end
$var integer 32 ." depth [31:0] $end
$upscope $end
$scope begin output_register $end
$var reg 8 /" douta_reg [7:0] $end
$upscope $end
$scope begin use_init_file $end
$upscope $end
$upscope $end
$scope module i6_type $end
$var wire 10 0" addra [9:0] $end
$var wire 1 " clka $end
$var wire 8 1" dina [7:0] $end
$var wire 1 2" ena $end
$var wire 1 3" regcea $end
$var wire 1 ( rsta $end
$var wire 1 4" wea $end
$var wire 8 5" douta [7:0] $end
$var parameter 40 6" INIT_FILE $end
$var parameter 32 7" RAM_DEPTH $end
$var parameter 128 8" RAM_PERFORMANCE $end
$var parameter 32 9" RAM_WIDTH $end
$var reg 8 :" ram_data [7:0] $end
$scope function clogb2 $end
$var integer 32 ;" depth [31:0] $end
$upscope $end
$scope begin output_register $end
$var reg 8 <" douta_reg [7:0] $end
$upscope $end
$scope begin use_init_file $end
$upscope $end
$upscope $end
$scope module i7_type $end
$var wire 10 =" addra [9:0] $end
$var wire 1 " clka $end
$var wire 8 >" dina [7:0] $end
$var wire 1 ?" ena $end
$var wire 1 @" regcea $end
$var wire 1 ( rsta $end
$var wire 1 A" wea $end
$var wire 8 B" douta [7:0] $end
$var parameter 40 C" INIT_FILE $end
$var parameter 32 D" RAM_DEPTH $end
$var parameter 128 E" RAM_PERFORMANCE $end
$var parameter 32 F" RAM_WIDTH $end
$var reg 8 G" ram_data [7:0] $end
$scope function clogb2 $end
$var integer 32 H" depth [31:0] $end
$upscope $end
$scope begin output_register $end
$var reg 8 I" douta_reg [7:0] $end
$upscope $end
$scope begin use_init_file $end
$upscope $end
$upscope $end
$scope module i8_mario $end
$var wire 10 J" addra [9:0] $end
$var wire 1 " clka $end
$var wire 8 K" dina [7:0] $end
$var wire 1 - ena $end
$var wire 1 L" regcea $end
$var wire 1 ( rsta $end
$var wire 1 M" wea $end
$var wire 8 N" douta [7:0] $end
$var parameter 176 O" INIT_FILE $end
$var parameter 32 P" RAM_DEPTH $end
$var parameter 128 Q" RAM_PERFORMANCE $end
$var parameter 32 R" RAM_WIDTH $end
$var reg 8 S" ram_data [7:0] $end
$scope function clogb2 $end
$var integer 32 T" depth [31:0] $end
$upscope $end
$scope begin output_register $end
$var reg 8 U" douta_reg [7:0] $end
$upscope $end
$scope begin use_init_file $end
$upscope $end
$upscope $end
$scope module i9_luigi $end
$var wire 10 V" addra [9:0] $end
$var wire 1 " clka $end
$var wire 8 W" dina [7:0] $end
$var wire 1 , ena $end
$var wire 1 X" regcea $end
$var wire 1 ( rsta $end
$var wire 1 Y" wea $end
$var wire 8 Z" douta [7:0] $end
$var parameter 176 [" INIT_FILE $end
$var parameter 32 \" RAM_DEPTH $end
$var parameter 128 ]" RAM_PERFORMANCE $end
$var parameter 32 ^" RAM_WIDTH $end
$var reg 8 _" ram_data [7:0] $end
$scope function clogb2 $end
$var integer 32 `" depth [31:0] $end
$upscope $end
$scope begin output_register $end
$var reg 8 a" douta_reg [7:0] $end
$upscope $end
$scope begin use_init_file $end
$upscope $end
$upscope $end
$scope module p0_black_square_pal $end
$var wire 8 b" addra [7:0] $end
$var wire 1 " clka $end
$var wire 12 c" dina [11:0] $end
$var wire 1 d" ena $end
$var wire 1 e" regcea $end
$var wire 1 ( rsta $end
$var wire 1 f" wea $end
$var wire 12 g" douta [11:0] $end
$var parameter 160 h" INIT_FILE $end
$var parameter 32 i" RAM_DEPTH $end
$var parameter 128 j" RAM_PERFORMANCE $end
$var parameter 32 k" RAM_WIDTH $end
$var reg 12 l" ram_data [11:0] $end
$scope function clogb2 $end
$var integer 32 m" depth [31:0] $end
$upscope $end
$scope begin output_register $end
$var reg 12 n" douta_reg [11:0] $end
$upscope $end
$scope begin use_init_file $end
$upscope $end
$upscope $end
$scope module p1_type $end
$var wire 8 o" addra [7:0] $end
$var wire 1 " clka $end
$var wire 12 p" dina [11:0] $end
$var wire 1 q" ena $end
$var wire 1 r" regcea $end
$var wire 1 ( rsta $end
$var wire 1 s" wea $end
$var wire 12 t" douta [11:0] $end
$var parameter 216 u" INIT_FILE $end
$var parameter 32 v" RAM_DEPTH $end
$var parameter 128 w" RAM_PERFORMANCE $end
$var parameter 32 x" RAM_WIDTH $end
$var reg 12 y" ram_data [11:0] $end
$scope function clogb2 $end
$var integer 32 z" depth [31:0] $end
$upscope $end
$scope begin output_register $end
$var reg 12 {" douta_reg [11:0] $end
$upscope $end
$scope begin use_init_file $end
$upscope $end
$upscope $end
$scope module p2_type $end
$var wire 8 |" addra [7:0] $end
$var wire 1 " clka $end
$var wire 12 }" dina [11:0] $end
$var wire 1 ~" ena $end
$var wire 1 !# regcea $end
$var wire 1 ( rsta $end
$var wire 1 "# wea $end
$var wire 12 ## douta [11:0] $end
$var parameter 40 $# INIT_FILE $end
$var parameter 32 %# RAM_DEPTH $end
$var parameter 128 &# RAM_PERFORMANCE $end
$var parameter 32 '# RAM_WIDTH $end
$var reg 12 (# ram_data [11:0] $end
$scope function clogb2 $end
$var integer 32 )# depth [31:0] $end
$upscope $end
$scope begin output_register $end
$var reg 12 *# douta_reg [11:0] $end
$upscope $end
$scope begin use_init_file $end
$upscope $end
$upscope $end
$scope module p3_type $end
$var wire 8 +# addra [7:0] $end
$var wire 1 " clka $end
$var wire 12 ,# dina [11:0] $end
$var wire 1 -# ena $end
$var wire 1 .# regcea $end
$var wire 1 ( rsta $end
$var wire 1 /# wea $end
$var wire 12 0# douta [11:0] $end
$var parameter 40 1# INIT_FILE $end
$var parameter 32 2# RAM_DEPTH $end
$var parameter 128 3# RAM_PERFORMANCE $end
$var parameter 32 4# RAM_WIDTH $end
$var reg 12 5# ram_data [11:0] $end
$scope function clogb2 $end
$var integer 32 6# depth [31:0] $end
$upscope $end
$scope begin output_register $end
$var reg 12 7# douta_reg [11:0] $end
$upscope $end
$scope begin use_init_file $end
$upscope $end
$upscope $end
$scope module p4_type $end
$var wire 8 8# addra [7:0] $end
$var wire 1 " clka $end
$var wire 12 9# dina [11:0] $end
$var wire 1 :# ena $end
$var wire 1 ;# regcea $end
$var wire 1 ( rsta $end
$var wire 1 <# wea $end
$var wire 12 =# douta [11:0] $end
$var parameter 40 ># INIT_FILE $end
$var parameter 32 ?# RAM_DEPTH $end
$var parameter 128 @# RAM_PERFORMANCE $end
$var parameter 32 A# RAM_WIDTH $end
$var reg 12 B# ram_data [11:0] $end
$scope function clogb2 $end
$var integer 32 C# depth [31:0] $end
$upscope $end
$scope begin output_register $end
$var reg 12 D# douta_reg [11:0] $end
$upscope $end
$scope begin use_init_file $end
$upscope $end
$upscope $end
$scope module p5_type $end
$var wire 8 E# addra [7:0] $end
$var wire 1 " clka $end
$var wire 12 F# dina [11:0] $end
$var wire 1 G# ena $end
$var wire 1 H# regcea $end
$var wire 1 ( rsta $end
$var wire 1 I# wea $end
$var wire 12 J# douta [11:0] $end
$var parameter 40 K# INIT_FILE $end
$var parameter 32 L# RAM_DEPTH $end
$var parameter 128 M# RAM_PERFORMANCE $end
$var parameter 32 N# RAM_WIDTH $end
$var reg 12 O# ram_data [11:0] $end
$scope function clogb2 $end
$var integer 32 P# depth [31:0] $end
$upscope $end
$scope begin output_register $end
$var reg 12 Q# douta_reg [11:0] $end
$upscope $end
$scope begin use_init_file $end
$upscope $end
$upscope $end
$scope module p6_type $end
$var wire 8 R# addra [7:0] $end
$var wire 1 " clka $end
$var wire 12 S# dina [11:0] $end
$var wire 1 T# ena $end
$var wire 1 U# regcea $end
$var wire 1 ( rsta $end
$var wire 1 V# wea $end
$var wire 12 W# douta [11:0] $end
$var parameter 40 X# INIT_FILE $end
$var parameter 32 Y# RAM_DEPTH $end
$var parameter 128 Z# RAM_PERFORMANCE $end
$var parameter 32 [# RAM_WIDTH $end
$var reg 12 \# ram_data [11:0] $end
$scope function clogb2 $end
$var integer 32 ]# depth [31:0] $end
$upscope $end
$scope begin output_register $end
$var reg 12 ^# douta_reg [11:0] $end
$upscope $end
$scope begin use_init_file $end
$upscope $end
$upscope $end
$scope module p7_type $end
$var wire 8 _# addra [7:0] $end
$var wire 1 " clka $end
$var wire 12 `# dina [11:0] $end
$var wire 1 a# ena $end
$var wire 1 b# regcea $end
$var wire 1 ( rsta $end
$var wire 1 c# wea $end
$var wire 12 d# douta [11:0] $end
$var parameter 40 e# INIT_FILE $end
$var parameter 32 f# RAM_DEPTH $end
$var parameter 128 g# RAM_PERFORMANCE $end
$var parameter 32 h# RAM_WIDTH $end
$var reg 12 i# ram_data [11:0] $end
$scope function clogb2 $end
$var integer 32 j# depth [31:0] $end
$upscope $end
$scope begin output_register $end
$var reg 12 k# douta_reg [11:0] $end
$upscope $end
$scope begin use_init_file $end
$upscope $end
$upscope $end
$scope module p8_mario $end
$var wire 8 l# addra [7:0] $end
$var wire 1 " clka $end
$var wire 12 m# dina [11:0] $end
$var wire 1 n# ena $end
$var wire 1 o# regcea $end
$var wire 1 ( rsta $end
$var wire 1 p# wea $end
$var wire 12 q# douta [11:0] $end
$var parameter 208 r# INIT_FILE $end
$var parameter 32 s# RAM_DEPTH $end
$var parameter 128 t# RAM_PERFORMANCE $end
$var parameter 32 u# RAM_WIDTH $end
$var reg 12 v# ram_data [11:0] $end
$scope function clogb2 $end
$var integer 32 w# depth [31:0] $end
$upscope $end
$scope begin output_register $end
$var reg 12 x# douta_reg [11:0] $end
$upscope $end
$scope begin use_init_file $end
$upscope $end
$upscope $end
$scope module p9_luigi $end
$var wire 8 y# addra [7:0] $end
$var wire 1 " clka $end
$var wire 12 z# dina [11:0] $end
$var wire 1 {# ena $end
$var wire 1 |# regcea $end
$var wire 1 ( rsta $end
$var wire 1 }# wea $end
$var wire 12 ~# douta [11:0] $end
$var parameter 208 !$ INIT_FILE $end
$var parameter 32 "$ RAM_DEPTH $end
$var parameter 128 #$ RAM_PERFORMANCE $end
$var parameter 32 $$ RAM_WIDTH $end
$var reg 12 %$ ram_data [11:0] $end
$scope function clogb2 $end
$var integer 32 &$ depth [31:0] $end
$upscope $end
$scope begin output_register $end
$var reg 12 '$ douta_reg [11:0] $end
$upscope $end
$scope begin use_init_file $end
$upscope $end
$upscope $end
$scope module track $end
$var wire 8 ($ addra [7:0] $end
$var wire 1 " clka $end
$var wire 4 )$ dina [3:0] $end
$var wire 1 *$ ena $end
$var wire 1 +$ regcea $end
$var wire 1 ( rsta $end
$var wire 1 ,$ wea $end
$var wire 4 -$ douta [3:0] $end
$var parameter 112 .$ INIT_FILE $end
$var parameter 32 /$ RAM_DEPTH $end
$var parameter 128 0$ RAM_PERFORMANCE $end
$var parameter 32 1$ RAM_WIDTH $end
$var reg 4 2$ ram_data [3:0] $end
$scope function clogb2 $end
$var integer 32 3$ depth [31:0] $end
$upscope $end
$scope begin output_register $end
$var reg 4 4$ douta_reg [3:0] $end
$upscope $end
$scope begin use_init_file $end
$upscope $end
$upscope $end
$scope begin $ivl_for_loop2 $end
$var integer 32 5$ i [31:0] $end
$upscope $end
$upscope $end
$scope begin $ivl_for_loop0 $end
$var integer 32 6$ i [31:0] $end
$scope begin $ivl_for_loop1 $end
$var integer 32 7$ j [31:0] $end
$upscope $end
$upscope $end
$upscope $end
$enddefinitions $end
$comment Show the parameter values. $end
$dumpall
b100 1$
b1001000010010010100011101001000010111110101000001000101010100100100011001001111010100100100110101000001010011100100001101000101 0$
b100000000 /$
b110010001100001011101000110000100101111011101000111001001100001011000110110101100101110011011010110010101101101 .$
b1100 $$
b1001000010010010100011101001000010111110101000001000101010100100100011001001111010100100100110101000001010011100100001101000101 #$
b100000000 "$
b110010001100001011101000110000100101111001100000011100101011111011011000111010101101001011001110110100101011111011010010110001101101111011011100101111101110000011000010110110000101110011011010110010101101101 !$
b1100 u#
b1001000010010010100011101001000010111110101000001000101010100100100011001001111010100100100110101000001010011100100001101000101 t#
b100000000 s#
b110010001100001011101000110000100101111001100000011100001011111011011010110000101110010011010010110111101011111011010010110001101101111011011100101111101110000011000010110110000101110011011010110010101101101 r#
b1100 h#
b1001000010010010100011101001000010111110101000001000101010100100100011001001111010100100100110101000001010011100100001101000101 g#
b100000000 f#
b110010001100001011101000110000100101111 e#
b1100 [#
b1001000010010010100011101001000010111110101000001000101010100100100011001001111010100100100110101000001010011100100001101000101 Z#
b100000000 Y#
b110010001100001011101000110000100101111 X#
b1100 N#
b1001000010010010100011101001000010111110101000001000101010100100100011001001111010100100100110101000001010011100100001101000101 M#
b100000000 L#
b110010001100001011101000110000100101111 K#
b1100 A#
b1001000010010010100011101001000010111110101000001000101010100100100011001001111010100100100110101000001010011100100001101000101 @#
b100000000 ?#
b110010001100001011101000110000100101111 >#
b1100 4#
b1001000010010010100011101001000010111110101000001000101010100100100011001001111010100100100110101000001010011100100001101000101 3#
b100000000 2#
b110010001100001011101000110000100101111 1#
b1100 '#
b1001000010010010100011101001000010111110101000001000101010100100100011001001111010100100100110101000001010011100100001101000101 &#
b100000000 %#
b110010001100001011101000110000100101111 $#
b1100 x"
b1001000010010010100011101001000010111110101000001000101010100100100011001001111010100100100110101000001010011100100001101000101 w"
b100000000 v"
b11001000110000101110100011000010010111100110000001100010101111101101110011011110111001001101101011000010110110001011111011100110110000101101110011001000101111101110000011000010110110000101110011011010110010101101101 u"
b1100 k"
b1001000010010010100011101001000010111110101000001000101010100100100011001001111010100100100110101000001010011100100001101000101 j"
b100000000 i"
b110010001100001011101000110000100101111001100000011000001011111011100100110111101100001011001000101111101110000011000010110110000101110011011010110010101101101 h"
b1000 ^"
b1001000010010010100011101001000010111110101000001000101010100100100011001001111010100100100110101000001010011100100001101000101 ]"
b10000000000 \"
b1100100011000010111010001100001001011110011000000111001010111110110110001110101011010010110011101101001010111110110100101100011011011110110111000101110011011010110010101101101 ["
b1000 R"
b1001000010010010100011101001000010111110101000001000101010100100100011001001111010100100100110101000001010011100100001101000101 Q"
b10000000000 P"
b1100100011000010111010001100001001011110011000000111000010111110110110101100001011100100110100101101111010111110110100101100011011011110110111000101110011011010110010101101101 O"
b1000 F"
b1001000010010010100011101001000010111110101000001000101010100100100011001001111010100100100110101000001010011100100001101000101 E"
b10000000000 D"
b110010001100001011101000110000100101111 C"
b1000 9"
b1001000010010010100011101001000010111110101000001000101010100100100011001001111010100100100110101000001010011100100001101000101 8"
b10000000000 7"
b110010001100001011101000110000100101111 6"
b1000 ,"
b1001000010010010100011101001000010111110101000001000101010100100100011001001111010100100100110101000001010011100100001101000101 +"
b10000000000 *"
b110010001100001011101000110000100101111 )"
b1000 }
b1001000010010010100011101001000010111110101000001000101010100100100011001001111010100100100110101000001010011100100001101000101 |
b10000000000 {
b110010001100001011101000110000100101111 z
b1000 p
b1001000010010010100011101001000010111110101000001000101010100100100011001001111010100100100110101000001010011100100001101000101 o
b10000000000 n
b110010001100001011101000110000100101111 m
b1000 c
b1001000010010010100011101001000010111110101000001000101010100100100011001001111010100100100110101000001010011100100001101000101 b
b10000000000 a
b110010001100001011101000110000100101111 `
b1000 V
b1001000010010010100011101001000010111110101000001000101010100100100011001001111010100100100110101000001010011100100001101000101 U
b10000000000 T
b110010001100001011101000110000100101111001100000011000101011111011011100110111101110010011011010110000101101100010111110111001101100001011011100110010000101110011011010110010101101101 S
b1000 I
b1001000010010010100011101001000010111110101000001000101010100100100011001001111010100100100110101000001010011100100001101000101 H
b10000000000 G
b1100100011000010111010001100001001011110011000000110000010111110111001001101111011000010110010000101110011011010110010101101101 F
$end
#0
$dumpvars
b0 7$
b0 6$
b0 5$
b0 4$
bx 3$
b0 2$
b0 -$
0,$
1+$
1*$
b0 )$
bx ($
b0 '$
bx &$
b0 %$
b0 ~#
0}#
1|#
x{#
b0 z#
b0 y#
b0 x#
bx w#
b0 v#
b0 q#
0p#
1o#
xn#
b0 m#
b0 l#
b0 k#
bx j#
b0 i#
b0 d#
0c#
1b#
xa#
b0 `#
b0 _#
b0 ^#
bx ]#
b0 \#
b0 W#
0V#
1U#
xT#
b0 S#
b0 R#
b0 Q#
bx P#
b0 O#
b0 J#
0I#
1H#
xG#
b0 F#
b0 E#
b0 D#
bx C#
b0 B#
b0 =#
0<#
1;#
x:#
b0 9#
b0 8#
b0 7#
bx 6#
b0 5#
b0 0#
0/#
1.#
x-#
b0 ,#
b0 +#
b0 *#
bx )#
b0 (#
b0 ##
0"#
1!#
x~"
b0 }"
b0 |"
b0 {"
bx z"
b0 y"
b0 t"
0s"
1r"
xq"
b0 p"
b0 o"
b0 n"
bx m"
b0 l"
b0 g"
0f"
1e"
xd"
b0 c"
b0 b"
b0 a"
bx `"
b0 _"
b0 Z"
0Y"
1X"
b0 W"
bx V"
b0 U"
bx T"
b0 S"
b0 N"
0M"
1L"
b0 K"
bx J"
b0 I"
bx H"
b0 G"
b0 B"
0A"
1@"
0?"
b0 >"
bx ="
b0 <"
bx ;"
b0 :"
b0 5"
04"
13"
02"
b0 1"
bx 0"
b0 /"
bx ."
b0 -"
b0 ("
0'"
1&"
0%"
b0 $"
bx #"
b0 ""
bx !"
b0 ~
b0 y
0x
1w
0v
b0 u
bx t
b0 s
bx r
b0 q
b0 l
0k
1j
0i
b0 h
bx g
b0 f
bx e
b0 d
b0 _
0^
1]
0\
b0 [
bx Z
b0 Y
bx X
b0 W
b0 R
0Q
1P
0O
b0 N
bx M
b0 L
bx K
b0 J
b0 E
0D
1C
xB
b0 A
bx @
bx ?
bx >
bx =
bx <
bx ;
bx :
bx 9
bz000000000000000000000000000000000000000000000000000000000000000000000000000000000000000000000000000000000000000000000000 8
b0 7
bx 6
bx 5
bx 4
b0 3
bx 2
bx 1
bx 0
bx /
bx .
x-
x,
bx +
bx *
bx )
1(
bx '
bx &
bx %
bx $
bx #
0"
bx !
$end
#10000
bx0000 ?
bx 2$
b100 5$
1"
#20000
0"
b11100000 %
b11100000 /
b11100000 $
b11100000 .
b11110101000 '
b11110101000 1
b11110101000 &
b11110101000 0
0(
#30000
x?"
x2"
x%"
xv
xi
x\
xO
1d"
0q"
0~"
0-#
0:#
0G#
0T#
0a#
0n#
0{#
bx00000000 ?
bx 3
bx -$
bx 4$
b100 5$
1"
#40000
0-
0,
b0 4
b0 @
b0 M
b0 Z
b0 g
b0 t
b0 #"
b0 0"
b0 ="
b10100101 5
b10100101 J"
b1011110111 9
b1011110111 V"
b0 ($
0"
b0 )
b0 *
b0 2
b0 #
b0 +
#50000
bx0000000000 >
bx1011110111 <
bx0 :
bx0010100101 =
bx0 ;
bx00000000xxxx ?
b1 2$
b110011001100 l"
b100 5$
1"
#60000
b10100110 5
b10100110 J"
b1011111000 9
b1011111000 V"
b1 4
b1 @
b1 M
b1 Z
b1 g
b1 t
b1 #"
b1 0"
b1 ="
0"
b1 #
b1 +
b1 7$
#70000
0?"
02"
0%"
0v
0i
0\
1O
0B
b110011001100 !
b110011001100 6
xd"
xq"
x~"
x-#
x:#
xG#
xT#
xa#
xn#
x{#
b1 >
b10111101111011111000 <
b0 :
b101001010010100110 =
b0 ;
b0xxxxxxxx ?
bz000000000000000000000000000000000000000000000000000000000000000000000000000000000000000000000000000000000000110011001100 8
b110011001100 g"
b110011001100 n"
b1 3
b1 -$
b1 4$
b100 5$
1"
#80000
b10100111 5
b10100111 J"
b1011111001 9
b1011111001 V"
b10 4
b10 @
b10 M
b10 Z
b10 g
b10 t
b10 #"
b10 0"
b10 ="
0"
b10 #
b10 +
b10 7$
#90000
b10000000010 >
b10111110001011111001 <
b101001100010100111 =
b0xxxxxxxx0001 ?
b10 W
b100 5$
1"
#100000
b10101000 5
b10101000 J"
b1011111010 9
b1011111010 V"
b11 4
b11 @
b11 M
b11 Z
b11 g
b11 t
b11 #"
b11 0"
b11 ="
0"
b11 #
b11 +
b11 7$
#110000
bx !
bx 6
0d"
1q"
0~"
0-#
0:#
0G#
0T#
0a#
0n#
0{#
b10 o"
b100000000011 >
b10111110011011111010 <
b101001110010101000 =
bx00010001 ?
b1 W
b1000000000 7
b10 R
b10 Y
b100 5$
1"
#120000
b10101001 5
b10101001 J"
b1011111011 9
b1011111011 V"
b100 4
b100 @
b100 M
b100 Z
b100 g
b100 t
b100 #"
b100 0"
b100 ="
0"
b100 #
b100 +
b100 7$
#130000
b1 o"
b110000000100 >
b10111110101011111011 <
b101010000010101001 =
bx000100010001 ?
b100000000 7
b1 R
b1 Y
b10 W
b101110010110 y"
b100 5$
1"
#140000
b10101010 5
b10101010 J"
b1011111100 9
b1011111100 V"
b101 4
b101 @
b101 M
b101 Z
b101 g
b101 t
b101 #"
b101 0"
b101 ="
0"
b101 #
b101 +
b101 7$
#150000
b101110010110 !
b101110010110 6
b10 o"
b1000000000101 >
b10111110111011111100 <
b101010010010101010 =
b1000100010001 ?
b110010010110 y"
bz000000000000000000000000000000000000000000000000000000000000000000000000000000000000000000000000101110010110110011001100 8
b101110010110 t"
b101110010110 {"
b100 W
b1000000000 7
b10 R
b10 Y
b100 5$
1"
#160000
b10101011 5
b10101011 J"
b1011111101 9
b1011111101 V"
b110 4
b110 @
b110 M
b110 Z
b110 g
b110 t
b110 #"
b110 0"
b110 ="
0"
b110 #
b110 +
b110 7$
#170000
b100 o"
b1010000000110 >
b10111111001011111101 <
b101010100010101011 =
b10000000000 7
b100 R
b100 Y
b11 W
b110010010110 !
b110010010110 6
bz000000000000000000000000000000000000000000000000000000000000000000000000000000000000000000000000110010010110110011001100 8
b110010010110 t"
b110010010110 {"
b101110010110 y"
b100 5$
1"
#180000
b10101100 5
b10101100 J"
b1011111110 9
b1011111110 V"
b111 4
b111 @
b111 M
b111 Z
b111 g
b111 t
b111 #"
b111 0"
b111 ="
0"
b111 #
b111 +
b111 7$
#190000
b11 o"
b1100000000111 >
b10111111011011111110 <
b101010110010101100 =
b101110000101 y"
b101110010110 !
b101110010110 6
bz000000000000000000000000000000000000000000000000000000000000000000000000000000000000000000000000101110010110110011001100 8
b101110010110 t"
b101110010110 {"
b1 W
b1100000000 7
b11 R
b11 Y
b100 5$
1"
#200000
b10101101 5
b10101101 J"
b1011111111 9
b1011111111 V"
b1000 4
b1000 @
b1000 M
b1000 Z
b1000 g
b1000 t
b1000 #"
b1000 0"
b1000 ="
0"
b1000 #
b1000 +
b1000 7$
#210000
b1 o"
b1110000001000 >
b10111111101011111111 <
b101011000010101101 =
b100000000 7
b1 R
b1 Y
b10 W
b101110000101 !
b101110000101 6
bz000000000000000000000000000000000000000000000000000000000000000000000000000000000000000000000000101110000101110011001100 8
b101110000101 t"
b101110000101 {"
b101110010101 y"
b100 5$
1"
#220000
b10101110 5
b10101110 J"
b1011100000 9
b1011100000 V"
b1001 4
b1001 @
b1001 M
b1001 Z
b1001 g
b1001 t
b1001 #"
b1001 0"
b1001 ="
0"
b1001 #
b1001 +
b1001 7$
#230000
b10 o"
b10000000001001 >
b10111111111011100000 <
b101011010010101110 =
b110010010110 y"
b101110010101 !
b101110010101 6
bz000000000000000000000000000000000000000000000000000000000000000000000000000000000000000000000000101110010101110011001100 8
b101110010101 t"
b101110010101 {"
b1000000000 7
b10 R
b10 Y
b100 5$
1"
#240000
b10101111 5
b10101111 J"
b1011100001 9
b1011100001 V"
b1010 4
b1010 @
b1010 M
b1010 Z
b1010 g
b1010 t
b1010 #"
b1010 0"
b1010 ="
0"
b1010 #
b1010 +
b1010 7$
#250000
b10010000001010 >
b10111000001011100001 <
b101011100010101111 =
b110010010110 !
b110010010110 6
bz000000000000000000000000000000000000000000000000000000000000000000000000000000000000000000000000110010010110110011001100 8
b110010010110 t"
b110010010110 {"
b101110010110 y"
b100 5$
1"
#260000
b10110000 5
b10110000 J"
b1011100010 9
b1011100010 V"
b1011 4
b1011 @
b1011 M
b1011 Z
b1011 g
b1011 t
b1011 #"
b1011 0"
b1011 ="
0"
b1011 #
b1011 +
b1011 7$
#270000
b10100000001011 >
b10111000011011100010 <
b101011110010110000 =
b101110010110 !
b101110010110 6
bz000000000000000000000000000000000000000000000000000000000000000000000000000000000000000000000000101110010110110011001100 8
b101110010110 t"
b101110010110 {"
b1 W
b100 5$
1"
#280000
b10110001 5
b10110001 J"
b1011100011 9
b1011100011 V"
b1100 4
b1100 @
b1100 M
b1100 Z
b1100 g
b1100 t
b1100 #"
b1100 0"
b1100 ="
0"
b1100 #
b1100 +
b1100 7$
#290000
b1 o"
b10110000001100 >
b10111000101011100011 <
b101100000010110001 =
b100000000 7
b1 R
b1 Y
b10 W
b100 5$
1"
