track_view.vcd
$date
	Tue Nov 15 19:22:30 2022
$end
$version
	Icarus Verilog
$end
$timescale
	1ps
$end
$scope module track_view_tb $end
$var wire 12 ! pixel_out [11:0] $end
$var reg 1 " clk_in $end
$var reg 11 # hcount_in [10:0] $end
$var reg 9 $ opponent_x [8:0] $end
$var reg 9 % opponent_y [8:0] $end
$var reg 9 & player_x [8:0] $end
$var reg 9 ' player_y [8:0] $end
$var reg 1 ( rst_in $end
$var reg 4 ) sprite_type [3:0] $end
$var reg 10 * vcount_in [9:0] $end
$scope module uut $end
$var wire 1 " clk_in $end
$var wire 11 + hcount_in [10:0] $end
$var wire 1 , in_opponent $end
$var wire 1 - in_player $end
$var wire 9 . opponent_x [8:0] $end
$var wire 9 / opponent_y [8:0] $end
$var wire 9 0 player_x [8:0] $end
$var wire 9 1 player_y [8:0] $end
$var wire 1 ( rst_in $end
$var wire 4 2 sprite_type [3:0] $end
$var wire 10 3 vcount_in [9:0] $end
$var wire 10 4 sprite_addr [9:0] $end
$var wire 12 5 pixel_out [11:0] $end
$var wire 80 6 palette_addr [79:0] $end
$var wire 192 7 output_color [191:0] $end
$var reg 16 8 sprite_type_pipe [15:0] $end
$scope module i10_luigi $end
$var wire 10 9 addra [9:0] $end
$var wire 1 " clka $end
$var wire 8 : dina [7:0] $end
$var wire 1 , ena $end
$var wire 1 ; regcea $end
$var wire 1 ( rsta $end
$var wire 1 < wea $end
$var wire 8 = douta [7:0] $end
$var parameter 152 > INIT_FILE $end
$var parameter 32 ? RAM_DEPTH $end
$var parameter 128 @ RAM_PERFORMANCE $end
$var parameter 32 A RAM_WIDTH $end
$var reg 8 B ram_data [7:0] $end
$scope function clogb2 $end
$var integer 32 C depth [31:0] $end
$upscope $end
$scope begin output_register $end
$var reg 8 D douta_reg [7:0] $end
$upscope $end
$scope begin use_init_file $end
$upscope $end
$upscope $end
$scope module i1_black_square $end
$var wire 10 E addra [9:0] $end
$var wire 1 " clka $end
$var wire 8 F dina [7:0] $end
$var wire 1 G ena $end
$var wire 1 H regcea $end
$var wire 1 ( rsta $end
$var wire 1 I wea $end
$var wire 8 J douta [7:0] $end
$var parameter 168 K INIT_FILE $end
$var parameter 32 L RAM_DEPTH $end
$var parameter 128 M RAM_PERFORMANCE $end
$var parameter 32 N RAM_WIDTH $end
$var reg 8 O ram_data [7:0] $end
$scope function clogb2 $end
$var integer 32 P depth [31:0] $end
$upscope $end
$scope begin output_register $end
$var reg 8 Q douta_reg [7:0] $end
$upscope $end
$scope begin use_init_file $end
$upscope $end
$upscope $end
$scope module i2_type $end
$var wire 10 R addra [9:0] $end
$var wire 1 " clka $end
$var wire 8 S dina [7:0] $end
$var wire 1 T ena $end
$var wire 1 U regcea $end
$var wire 1 ( rsta $end
$var wire 1 V wea $end
$var wire 8 W douta [7:0] $end
$var parameter 160 X INIT_FILE $end
$var parameter 32 Y RAM_DEPTH $end
$var parameter 128 Z RAM_PERFORMANCE $end
$var parameter 32 [ RAM_WIDTH $end
$var reg 8 \ ram_data [7:0] $end
$scope function clogb2 $end
$var integer 32 ] depth [31:0] $end
$upscope $end
$scope begin output_register $end
$var reg 8 ^ douta_reg [7:0] $end
$upscope $end
$scope begin use_init_file $end
$upscope $end
$upscope $end
$scope module i3_type $end
$var wire 10 _ addra [9:0] $end
$var wire 1 " clka $end
$var wire 8 ` dina [7:0] $end
$var wire 1 a ena $end
$var wire 1 b regcea $end
$var wire 1 ( rsta $end
$var wire 1 c wea $end
$var wire 8 d douta [7:0] $end
$var parameter 40 e INIT_FILE $end
$var parameter 32 f RAM_DEPTH $end
$var parameter 128 g RAM_PERFORMANCE $end
$var parameter 32 h RAM_WIDTH $end
$var reg 8 i ram_data [7:0] $end
$scope function clogb2 $end
$var integer 32 j depth [31:0] $end
$upscope $end
$scope begin output_register $end
$var reg 8 k douta_reg [7:0] $end
$upscope $end
$scope begin use_init_file $end
$upscope $end
$upscope $end
$scope module i4_type $end
$var wire 10 l addra [9:0] $end
$var wire 1 " clka $end
$var wire 8 m dina [7:0] $end
$var wire 1 n ena $end
$var wire 1 o regcea $end
$var wire 1 ( rsta $end
$var wire 1 p wea $end
$var wire 8 q douta [7:0] $end
$var parameter 40 r INIT_FILE $end
$var parameter 32 s RAM_DEPTH $end
$var parameter 128 t RAM_PERFORMANCE $end
$var parameter 32 u RAM_WIDTH $end
$var reg 8 v ram_data [7:0] $end
$scope function clogb2 $end
$var integer 32 w depth [31:0] $end
$upscope $end
$scope begin output_register $end
$var reg 8 x douta_reg [7:0] $end
$upscope $end
$scope begin use_init_file $end
$upscope $end
$upscope $end
$scope module i5_type $end
$var wire 10 y addra [9:0] $end
$var wire 1 " clka $end
$var wire 8 z dina [7:0] $end
$var wire 1 { ena $end
$var wire 1 | regcea $end
$var wire 1 ( rsta $end
$var wire 1 } wea $end
$var wire 8 ~ douta [7:0] $end
$var parameter 40 !" INIT_FILE $end
$var parameter 32 "" RAM_DEPTH $end
$var parameter 128 #" RAM_PERFORMANCE $end
$var parameter 32 $" RAM_WIDTH $end
$var reg 8 %" ram_data [7:0] $end
$scope function clogb2 $end
$var integer 32 &" depth [31:0] $end
$upscope $end
$scope begin output_register $end
$var reg 8 '" douta_reg [7:0] $end
$upscope $end
$scope begin use_init_file $end
$upscope $end
$upscope $end
$scope module i6_type $end
$var wire 10 (" addra [9:0] $end
$var wire 1 " clka $end
$var wire 8 )" dina [7:0] $end
$var wire 1 *" ena $end
$var wire 1 +" regcea $end
$var wire 1 ( rsta $end
$var wire 1 ," wea $end
$var wire 8 -" douta [7:0] $end
$var parameter 40 ." INIT_FILE $end
$var parameter 32 /" RAM_DEPTH $end
$var parameter 128 0" RAM_PERFORMANCE $end
$var parameter 32 1" RAM_WIDTH $end
$var reg 8 2" ram_data [7:0] $end
$scope function clogb2 $end
$var integer 32 3" depth [31:0] $end
$upscope $end
$scope begin output_register $end
$var reg 8 4" douta_reg [7:0] $end
$upscope $end
$scope begin use_init_file $end
$upscope $end
$upscope $end
$scope module i7_type $end
$var wire 10 5" addra [9:0] $end
$var wire 1 " clka $end
$var wire 8 6" dina [7:0] $end
$var wire 1 7" ena $end
$var wire 1 8" regcea $end
$var wire 1 ( rsta $end
$var wire 1 9" wea $end
$var wire 8 :" douta [7:0] $end
$var parameter 40 ;" INIT_FILE $end
$var parameter 32 <" RAM_DEPTH $end
$var parameter 128 =" RAM_PERFORMANCE $end
$var parameter 32 >" RAM_WIDTH $end
$var reg 8 ?" ram_data [7:0] $end
$scope function clogb2 $end
$var integer 32 @" depth [31:0] $end
$upscope $end
$scope begin output_register $end
$var reg 8 A" douta_reg [7:0] $end
$upscope $end
$scope begin use_init_file $end
$upscope $end
$upscope $end
$scope module i8_type $end
$var wire 10 B" addra [9:0] $end
$var wire 1 " clka $end
$var wire 8 C" dina [7:0] $end
$var wire 1 D" ena $end
$var wire 1 E" regcea $end
$var wire 1 ( rsta $end
$var wire 1 F" wea $end
$var wire 8 G" douta [7:0] $end
$var parameter 40 H" INIT_FILE $end
$var parameter 32 I" RAM_DEPTH $end
$var parameter 128 J" RAM_PERFORMANCE $end
$var parameter 32 K" RAM_WIDTH $end
$var reg 8 L" ram_data [7:0] $end
$scope function clogb2 $end
$var integer 32 M" depth [31:0] $end
$upscope $end
$scope begin output_register $end
$var reg 8 N" douta_reg [7:0] $end
$upscope $end
$scope begin use_init_file $end
$upscope $end
$upscope $end
$scope module i9_mario $end
$var wire 10 O" addra [9:0] $end
$var wire 1 " clka $end
$var wire 8 P" dina [7:0] $end
$var wire 1 - ena $end
$var wire 1 Q" regcea $end
$var wire 1 ( rsta $end
$var wire 1 R" wea $end
$var wire 8 S" douta [7:0] $end
$var parameter 152 T" INIT_FILE $end
$var parameter 32 U" RAM_DEPTH $end
$var parameter 128 V" RAM_PERFORMANCE $end
$var parameter 32 W" RAM_WIDTH $end
$var reg 8 X" ram_data [7:0] $end
$scope function clogb2 $end
$var integer 32 Y" depth [31:0] $end
$upscope $end
$scope begin output_register $end
$var reg 8 Z" douta_reg [7:0] $end
$upscope $end
$scope begin use_init_file $end
$upscope $end
$upscope $end
$scope module p10_luigi $end
$var wire 8 [" addra [7:0] $end
$var wire 1 " clka $end
$var wire 12 \" dina [11:0] $end
$var wire 1 ]" ena $end
$var wire 1 ^" regcea $end
$var wire 1 ( rsta $end
$var wire 1 _" wea $end
$var wire 12 `" douta [11:0] $end
$var parameter 184 a" INIT_FILE $end
$var parameter 32 b" RAM_DEPTH $end
$var parameter 128 c" RAM_PERFORMANCE $end
$var parameter 32 d" RAM_WIDTH $end
$var reg 12 e" ram_data [11:0] $end
$scope function clogb2 $end
$var integer 32 f" depth [31:0] $end
$upscope $end
$scope begin output_register $end
$var reg 12 g" douta_reg [11:0] $end
$upscope $end
$scope begin use_init_file $end
$upscope $end
$upscope $end
$scope module p1_black_square_pal $end
$var wire 8 h" addra [7:0] $end
$var wire 1 " clka $end
$var wire 12 i" dina [11:0] $end
$var wire 1 j" ena $end
$var wire 1 k" regcea $end
$var wire 1 ( rsta $end
$var wire 1 l" wea $end
$var wire 12 m" douta [11:0] $end
$var parameter 200 n" INIT_FILE $end
$var parameter 32 o" RAM_DEPTH $end
$var parameter 128 p" RAM_PERFORMANCE $end
$var parameter 32 q" RAM_WIDTH $end
$var reg 12 r" ram_data [11:0] $end
$scope function clogb2 $end
$var integer 32 s" depth [31:0] $end
$upscope $end
$scope begin output_register $end
$var reg 12 t" douta_reg [11:0] $end
$upscope $end
$scope begin use_init_file $end
$upscope $end
$upscope $end
$scope module p2_type $end
$var wire 8 u" addra [7:0] $end
$var wire 1 " clka $end
$var wire 12 v" dina [11:0] $end
$var wire 1 w" ena $end
$var wire 1 x" regcea $end
$var wire 1 ( rsta $end
$var wire 1 y" wea $end
$var wire 12 z" douta [11:0] $end
$var parameter 192 {" INIT_FILE $end
$var parameter 32 |" RAM_DEPTH $end
$var parameter 128 }" RAM_PERFORMANCE $end
$var parameter 32 ~" RAM_WIDTH $end
$var reg 12 !# ram_data [11:0] $end
$scope function clogb2 $end
$var integer 32 "# depth [31:0] $end
$upscope $end
$scope begin output_register $end
$var reg 12 ## douta_reg [11:0] $end
$upscope $end
$scope begin use_init_file $end
$upscope $end
$upscope $end
$scope module p3_type $end
$var wire 8 $# addra [7:0] $end
$var wire 1 " clka $end
$var wire 12 %# dina [11:0] $end
$var wire 1 &# ena $end
$var wire 1 '# regcea $end
$var wire 1 ( rsta $end
$var wire 1 (# wea $end
$var wire 12 )# douta [11:0] $end
$var parameter 40 *# INIT_FILE $end
$var parameter 32 +# RAM_DEPTH $end
$var parameter 128 ,# RAM_PERFORMANCE $end
$var parameter 32 -# RAM_WIDTH $end
$var reg 12 .# ram_data [11:0] $end
$scope function clogb2 $end
$var integer 32 /# depth [31:0] $end
$upscope $end
$scope begin output_register $end
$var reg 12 0# douta_reg [11:0] $end
$upscope $end
$scope begin use_init_file $end
$upscope $end
$upscope $end
$scope module p4_type $end
$var wire 8 1# addra [7:0] $end
$var wire 1 " clka $end
$var wire 12 2# dina [11:0] $end
$var wire 1 3# ena $end
$var wire 1 4# regcea $end
$var wire 1 ( rsta $end
$var wire 1 5# wea $end
$var wire 12 6# douta [11:0] $end
$var parameter 40 7# INIT_FILE $end
$var parameter 32 8# RAM_DEPTH $end
$var parameter 128 9# RAM_PERFORMANCE $end
$var parameter 32 :# RAM_WIDTH $end
$var reg 12 ;# ram_data [11:0] $end
$scope function clogb2 $end
$var integer 32 <# depth [31:0] $end
$upscope $end
$scope begin output_register $end
$var reg 12 =# douta_reg [11:0] $end
$upscope $end
$scope begin use_init_file $end
$upscope $end
$upscope $end
$scope module p5_type $end
$var wire 8 ># addra [7:0] $end
$var wire 1 " clka $end
$var wire 12 ?# dina [11:0] $end
$var wire 1 @# ena $end
$var wire 1 A# regcea $end
$var wire 1 ( rsta $end
$var wire 1 B# wea $end
$var wire 12 C# douta [11:0] $end
$var parameter 40 D# INIT_FILE $end
$var parameter 32 E# RAM_DEPTH $end
$var parameter 128 F# RAM_PERFORMANCE $end
$var parameter 32 G# RAM_WIDTH $end
$var reg 12 H# ram_data [11:0] $end
$scope function clogb2 $end
$var integer 32 I# depth [31:0] $end
$upscope $end
$scope begin output_register $end
$var reg 12 J# douta_reg [11:0] $end
$upscope $end
$scope begin use_init_file $end
$upscope $end
$upscope $end
$scope module p6_type $end
$var wire 8 K# addra [7:0] $end
$var wire 1 " clka $end
$var wire 12 L# dina [11:0] $end
$var wire 1 M# ena $end
$var wire 1 N# regcea $end
$var wire 1 ( rsta $end
$var wire 1 O# wea $end
$var wire 12 P# douta [11:0] $end
$var parameter 40 Q# INIT_FILE $end
$var parameter 32 R# RAM_DEPTH $end
$var parameter 128 S# RAM_PERFORMANCE $end
$var parameter 32 T# RAM_WIDTH $end
$var reg 12 U# ram_data [11:0] $end
$scope function clogb2 $end
$var integer 32 V# depth [31:0] $end
$upscope $end
$scope begin output_register $end
$var reg 12 W# douta_reg [11:0] $end
$upscope $end
$scope begin use_init_file $end
$upscope $end
$upscope $end
$scope module p7_type $end
$var wire 8 X# addra [7:0] $end
$var wire 1 " clka $end
$var wire 12 Y# dina [11:0] $end
$var wire 1 Z# ena $end
$var wire 1 [# regcea $end
$var wire 1 ( rsta $end
$var wire 1 \# wea $end
$var wire 12 ]# douta [11:0] $end
$var parameter 40 ^# INIT_FILE $end
$var parameter 32 _# RAM_DEPTH $end
$var parameter 128 `# RAM_PERFORMANCE $end
$var parameter 32 a# RAM_WIDTH $end
$var reg 12 b# ram_data [11:0] $end
$scope function clogb2 $end
$var integer 32 c# depth [31:0] $end
$upscope $end
$scope begin output_register $end
$var reg 12 d# douta_reg [11:0] $end
$upscope $end
$scope begin use_init_file $end
$upscope $end
$upscope $end
$scope module p8_type $end
$var wire 8 e# addra [7:0] $end
$var wire 1 " clka $end
$var wire 12 f# dina [11:0] $end
$var wire 1 g# ena $end
$var wire 1 h# regcea $end
$var wire 1 ( rsta $end
$var wire 1 i# wea $end
$var wire 12 j# douta [11:0] $end
$var parameter 40 k# INIT_FILE $end
$var parameter 32 l# RAM_DEPTH $end
$var parameter 128 m# RAM_PERFORMANCE $end
$var parameter 32 n# RAM_WIDTH $end
$var reg 12 o# ram_data [11:0] $end
$scope function clogb2 $end
$var integer 32 p# depth [31:0] $end
$upscope $end
$scope begin output_register $end
$var reg 12 q# douta_reg [11:0] $end
$upscope $end
$scope begin use_init_file $end
$upscope $end
$upscope $end
$scope module p9_mario $end
$var wire 8 r# addra [7:0] $end
$var wire 1 " clka $end
$var wire 12 s# dina [11:0] $end
$var wire 1 t# ena $end
$var wire 1 u# regcea $end
$var wire 1 ( rsta $end
$var wire 1 v# wea $end
$var wire 12 w# douta [11:0] $end
$var parameter 184 x# INIT_FILE $end
$var parameter 32 y# RAM_DEPTH $end
$var parameter 128 z# RAM_PERFORMANCE $end
$var parameter 32 {# RAM_WIDTH $end
$var reg 12 |# ram_data [11:0] $end
$scope function clogb2 $end
$var integer 32 }# depth [31:0] $end
$upscope $end
$scope begin output_register $end
$var reg 12 ~# douta_reg [11:0] $end
$upscope $end
$scope begin use_init_file $end
$upscope $end
$upscope $end
$scope begin $ivl_for_loop2 $end
$var integer 32 !$ i [31:0] $end
$upscope $end
$upscope $end
$scope begin $ivl_for_loop0 $end
$var integer 32 "$ i [31:0] $end
$scope begin $ivl_for_loop1 $end
$var integer 32 #$ j [31:0] $end
$upscope $end
$upscope $end
$upscope $end
$enddefinitions $end
$comment Show the parameter values. $end
$dumpall
b1100 {#
b1001000010010010100011101001000010111110101000001000101010100100100011001001111010100100100110101000001010011100100001101000101 z#
b100000000 y#
b110010001100001011101000110000100101111011100100110010101100100010111110111001101110001011101010110000101110010011001010101111101110000011000010110110000101110011011010110010101101101 x#
b1100 n#
b1001000010010010100011101001000010111110101000001000101010100100100011001001111010100100100110101000001010011100100001101000101 m#
b100000000 l#
b110010001100001011101000110000100101111 k#
b1100 a#
b1001000010010010100011101001000010111110101000001000101010100100100011001001111010100100100110101000001010011100100001101000101 `#
b100000000 _#
b110010001100001011101000110000100101111 ^#
b1100 T#
b1001000010010010100011101001000010111110101000001000101010100100100011001001111010100100100110101000001010011100100001101000101 S#
b100000000 R#
b110010001100001011101000110000100101111 Q#
b1100 G#
b1001000010010010100011101001000010111110101000001000101010100100100011001001111010100100100110101000001010011100100001101000101 F#
b100000000 E#
b110010001100001011101000110000100101111 D#
b1100 :#
b1001000010010010100011101001000010111110101000001000101010100100100011001001111010100100100110101000001010011100100001101000101 9#
b100000000 8#
b110010001100001011101000110000100101111 7#
b1100 -#
b1001000010010010100011101001000010111110101000001000101010100100100011001001111010100100100110101000001010011100100001101000101 ,#
b100000000 +#
b110010001100001011101000110000100101111 *#
b1100 ~"
b1001000010010010100011101001000010111110101000001000101010100100100011001001111010100100100110101000001010011100100001101000101 }"
b100000000 |"
b11001000110000101110100011000010010111101100111011100100110010101111001010111110111001101110001011101010110000101110010011001010101111101110000011000010110110000101110011011010110010101101101 {"
b1100 q"
b1001000010010010100011101001000010111110101000001000101010100100100011001001111010100100100110101000001010011100100001101000101 p"
b100000000 o"
b1100100011000010111010001100001001011110110001001101100011000010110001101101011010111110111001101110001011101010110000101110010011001010101111101110000011000010110110000101110011011010110010101101101 n"
b1100 d"
b1001000010010010100011101001000010111110101000001000101010100100100011001001111010100100100110101000001010011100100001101000101 c"
b100000000 b"
b110010001100001011101000110000100101111011100100110010101100100010111110111001101110001011101010110000101110010011001010101111101110000011000010110110000101110011011010110010101101101 a"
b1000 W"
b1001000010010010100011101001000010111110101000001000101010100100100011001001111010100100100110101000001010011100100001101000101 V"
b10000000000 U"
b1100100011000010111010001100001001011110111001001100101011001000101111101110011011100010111010101100001011100100110010100101110011011010110010101101101 T"
b1000 K"
b1001000010010010100011101001000010111110101000001000101010100100100011001001111010100100100110101000001010011100100001101000101 J"
b10000000000 I"
b110010001100001011101000110000100101111 H"
b1000 >"
b1001000010010010100011101001000010111110101000001000101010100100100011001001111010100100100110101000001010011100100001101000101 ="
b10000000000 <"
b110010001100001011101000110000100101111 ;"
b1000 1"
b1001000010010010100011101001000010111110101000001000101010100100100011001001111010100100100110101000001010011100100001101000101 0"
b10000000000 /"
b110010001100001011101000110000100101111 ."
b1000 $"
b1001000010010010100011101001000010111110101000001000101010100100100011001001111010100100100110101000001010011100100001101000101 #"
b10000000000 ""
b110010001100001011101000110000100101111 !"
b1000 u
b1001000010010010100011101001000010111110101000001000101010100100100011001001111010100100100110101000001010011100100001101000101 t
b10000000000 s
b110010001100001011101000110000100101111 r
b1000 h
b1001000010010010100011101001000010111110101000001000101010100100100011001001111010100100100110101000001010011100100001101000101 g
b10000000000 f
b110010001100001011101000110000100101111 e
b1000 [
b1001000010010010100011101001000010111110101000001000101010100100100011001001111010100100100110101000001010011100100001101000101 Z
b10000000000 Y
b110010001100001011101000110000100101111011001110111001001100101011110010101111101110011011100010111010101100001011100100110010100101110011011010110010101101101 X
b1000 N
b1001000010010010100011101001000010111110101000001000101010100100100011001001111010100100100110101000001010011100100001101000101 M
b10000000000 L
b11001000110000101110100011000010010111101100010011011000110000101100011011010110101111101110011011100010111010101100001011100100110010100101110011011010110010101101101 K
b1000 A
b1001000010010010100011101001000010111110101000001000101010100100100011001001111010100100100110101000001010011100100001101000101 @
b10000000000 ?
b1100100011000010111010001100001001011110111001001100101011001000101111101110011011100010111010101100001011100100110010100101110011011010110010101101101 >
$end
#0
$dumpvars
b0 #$
b0 "$
b0 !$
b0 ~#
bx }#
b0 |#
b0 w#
0v#
1u#
xt#
b0 s#
b0 r#
b0 q#
bx p#
b0 o#
b0 j#
0i#
1h#
xg#
b0 f#
b0 e#
b0 d#
bx c#
b0 b#
b0 ]#
0\#
1[#
xZ#
b0 Y#
b0 X#
b0 W#
bx V#
b0 U#
b0 P#
0O#
1N#
xM#
b0 L#
b0 K#
b0 J#
bx I#
b0 H#
b0 C#
0B#
1A#
x@#
b0 ?#
b0 >#
b0 =#
bx <#
b0 ;#
b0 6#
05#
14#
x3#
b0 2#
b0 1#
b0 0#
bx /#
b0 .#
b0 )#
0(#
1'#
x&#
b0 %#
b0 $#
b0 ##
bx "#
b0 !#
b0 z"
0y"
1x"
xw"
b0 v"
b0 u"
b0 t"
bx s"
b0 r"
b0 m"
0l"
1k"
xj"
b0 i"
b0 h"
b0 g"
bx f"
b0 e"
b0 `"
0_"
1^"
x]"
b0 \"
b0 ["
b0 Z"
bx Y"
b0 X"
b0 S"
0R"
1Q"
b0 P"
bx O"
b0 N"
bx M"
b0 L"
b0 G"
0F"
1E"
xD"
b0 C"
bx B"
b0 A"
bx @"
b0 ?"
b0 :"
09"
18"
x7"
b0 6"
bx 5"
b0 4"
bx 3"
b0 2"
b0 -"
0,"
1+"
x*"
b0 )"
bx ("
b0 '"
bx &"
b0 %"
b0 ~
0}
1|
x{
b0 z
bx y
b0 x
bx w
b0 v
b0 q
0p
1o
xn
b0 m
bx l
b0 k
bx j
b0 i
b0 d
0c
1b
xa
b0 `
bx _
b0 ^
bx ]
b0 \
b0 W
0V
1U
xT
b0 S
bx R
b0 Q
bx P
b0 O
b0 J
0I
1H
xG
b0 F
bx E
b0 D
bx C
b0 B
b0 =
0<
1;
b0 :
bx 9
bx 8
bz000000000000000000000000000000000000000000000000000000000000000000000000000000000000000000000000000000000000000000000000 7
b0 6
bx 5
bx 4
bx 3
bx 2
bx 1
bx 0
bx /
bx .
x-
x,
bx +
bx *
bx )
1(
bx '
bx &
bx %
bx $
bx #
0"
bx !
$end
#10000
b100 !$
1"
#20000
0"
b101000 %
b101000 /
b101000 $
b101000 .
b0 '
b0 1
b0 &
b0 0
0(
#30000
b100 !$
1"
#40000
0G
0T
0a
0n
0{
0*"
07"
0D"
1-
0,
b0 4
b0 9
b0 E
b0 R
b0 _
b0 l
b0 y
b0 ("
b0 5"
b0 B"
b0 O"
0"
b1 )
b1 2
b0 *
b0 3
b0 #
b0 +
#50000
bx1001 8
b100 !$
1"
#60000
b100000 4
b100000 9
b100000 E
b100000 R
b100000 _
b100000 l
b100000 y
b100000 ("
b100000 5"
b100000 B"
b100000 O"
0"
b1 *
b1 3
b1 #$
#70000
0j"
0w"
0&#
03#
0@#
0M#
0Z#
0g#
1t#
0]"
bx10011001 8
b100 !$
1"
#80000
b1000000 4
b1000000 9
b1000000 E
b1000000 R
b1000000 _
b1000000 l
b1000000 y
b1000000 ("
b1000000 5"
b1000000 B"
b1000000 O"
0"
b10 *
b10 3
b10 #$
#90000
bx100110011001 8
b110100000010 |#
b100 !$
1"
#100000
b1100000 4
b1100000 9
b1100000 E
b1100000 R
b1100000 _
b1100000 l
b1100000 y
b1100000 ("
b1100000 5"
b1100000 B"
b1100000 O"
0"
b11 *
b11 3
b11 #$
#110000
b110100000010 !
b110100000010 5
b1001100110011001 8
bz000000000000110100000010000000000000000000000000000000000000000000000000000000000000000000000000000000000000000000000000 7
b110100000010 w#
b110100000010 ~#
b100 !$
1"
#120000
b10000000 4
b10000000 9
b10000000 E
b10000000 R
b10000000 _
b10000000 l
b10000000 y
b10000000 ("
b10000000 5"
b10000000 B"
b10000000 O"
0"
b100 *
b100 3
b100 #$
#130000
b100 !$
1"
#140000
b10100000 4
b10100000 9
b10100000 E
b10100000 R
b10100000 _
b10100000 l
b10100000 y
b10100000 ("
b10100000 5"
b10100000 B"
b10100000 O"
0"
b101 *
b101 3
b101 #$
#150000
b100 !$
1"
#160000
b11000000 4
b11000000 9
b11000000 E
b11000000 R
b11000000 _
b11000000 l
b11000000 y
b11000000 ("
b11000000 5"
b11000000 B"
b11000000 O"
0"
b110 *
b110 3
b110 #$
#170000
b100 !$
1"
#180000
b11100000 4
b11100000 9
b11100000 E
b11100000 R
b11100000 _
b11100000 l
b11100000 y
b11100000 ("
b11100000 5"
b11100000 B"
b11100000 O"
0"
b111 *
b111 3
b111 #$
#190000
b100 !$
1"
#200000
b100000000 4
b100000000 9
b100000000 E
b100000000 R
b100000000 _
b100000000 l
b100000000 y
b100000000 ("
b100000000 5"
b100000000 B"
b100000000 O"
0"
b1000 *
b1000 3
b1000 #$
#210000
b100 !$
1"
#220000
b100100000 4
b100100000 9
b100100000 E
b100100000 R
b100100000 _
b100100000 l
b100100000 y
b100100000 ("
b100100000 5"
b100100000 B"
b100100000 O"
0"
b1001 *
b1001 3
b1001 #$
#230000
b100 !$
1"
#240000
b101000000 4
b101000000 9
b101000000 E
b101000000 R
b101000000 _
b101000000 l
b101000000 y
b101000000 ("
b101000000 5"
b101000000 B"
b101000000 O"
0"
b1010 *
b1010 3
b1010 #$
#250000
b100 !$
1"
#260000
b101100000 4
b101100000 9
b101100000 E
b101100000 R
b101100000 _
b101100000 l
b101100000 y
b101100000 ("
b101100000 5"
b101100000 B"
b101100000 O"
0"
b1011 *
b1011 3
b1011 #$
#270000
b100 !$
1"
#280000
b110000000 4
b110000000 9
b110000000 E
b110000000 R
b110000000 _
b110000000 l
b110000000 y
b110000000 ("
b110000000 5"
b110000000 B"
b110000000 O"
0"
b1100 *
b1100 3
b1100 #$
#290000
b100 !$
1"
#300000
b110100000 4
b110100000 9
b110100000 E
b110100000 R
b110100000 _
b110100000 l
b110100000 y
b110100000 ("
b110100000 5"
b110100000 B"
b110100000 O"
0"
b1101 *
b1101 3
b1101 #$
#310000
b100 !$
1"
#320000
b111000000 4
b111000000 9
b111000000 E
b111000000 R
b111000000 _
b111000000 l
b111000000 y
b111000000 ("
b111000000 5"
b111000000 B"
b111000000 O"
0"
b1110 *
b1110 3
b1110 #$
#330000
b100 !$
1"
#340000
b111100000 4
b111100000 9
b111100000 E
b111100000 R
b111100000 _
b111100000 l
b111100000 y
b111100000 ("
b111100000 5"
b111100000 B"
b111100000 O"
0"
b1111 *
b1111 3
b1111 #$
#350000
b100 !$
1"
#360000
b1000000000 4
b1000000000 9
b1000000000 E
b1000000000 R
b1000000000 _
b1000000000 l
b1000000000 y
b1000000000 ("
b1000000000 5"
b1000000000 B"
b1000000000 O"
0"
b10000 *
b10000 3
b10000 #$
#370000
b100 !$
1"
#380000
b1000100000 4
b1000100000 9
b1000100000 E
b1000100000 R
b1000100000 _
b1000100000 l
b1000100000 y
b1000100000 ("
b1000100000 5"
b1000100000 B"
b1000100000 O"
0"
b10001 *
b10001 3
b10001 #$
#390000
b100 !$
1"
#400000
b1001000000 4
b1001000000 9
b1001000000 E
b1001000000 R
b1001000000 _
b1001000000 l
b1001000000 y
b1001000000 ("
b1001000000 5"
b1001000000 B"
b1001000000 O"
0"
b10010 *
b10010 3
b10010 #$
#410000
b100 !$
1"
#420000
b1001100000 4
b1001100000 9
b1001100000 E
b1001100000 R
b1001100000 _
b1001100000 l
b1001100000 y
b1001100000 ("
b1001100000 5"
b1001100000 B"
b1001100000 O"
0"
b10011 *
b10011 3
b10011 #$
#430000
b100 !$
1"
#440000
b1010000000 4
b1010000000 9
b1010000000 E
b1010000000 R
b1010000000 _
b1010000000 l
b1010000000 y
b1010000000 ("
b1010000000 5"
b1010000000 B"
b1010000000 O"
0"
b10100 *
b10100 3
b10100 #$
#450000
b100 !$
1"
#460000
b1010100000 4
b1010100000 9
b1010100000 E
b1010100000 R
b1010100000 _
b1010100000 l
b1010100000 y
b1010100000 ("
b1010100000 5"
b1010100000 B"
b1010100000 O"
0"
b10101 *
b10101 3
b10101 #$
#470000
b100 !$
1"
#480000
b1011000000 4
b1011000000 9
b1011000000 E
b1011000000 R
b1011000000 _
b1011000000 l
b1011000000 y
b1011000000 ("
b1011000000 5"
b1011000000 B"
b1011000000 O"
0"
b10110 *
b10110 3
b10110 #$
#490000
b100 !$
1"
#500000
b1011100000 4
b1011100000 9
b1011100000 E
b1011100000 R
b1011100000 _
b1011100000 l
b1011100000 y
b1011100000 ("
b1011100000 5"
b1011100000 B"
b1011100000 O"
0"
b10111 *
b10111 3
b10111 #$
#510000
b100 !$
1"
#520000
b1100000000 4
b1100000000 9
b1100000000 E
b1100000000 R
b1100000000 _
b1100000000 l
b1100000000 y
b1100000000 ("
b1100000000 5"
b1100000000 B"
b1100000000 O"
0"
b11000 *
b11000 3
b11000 #$
#530000
b100 !$
1"
#540000
b1100100000 4
b1100100000 9
b1100100000 E
b1100100000 R
b1100100000 _
b1100100000 l
b1100100000 y
b1100100000 ("
b1100100000 5"
b1100100000 B"
b1100100000 O"
0"
b11001 *
b11001 3
b11001 #$
#550000
b100 !$
1"
#560000
b1101000000 4
b1101000000 9
b1101000000 E
b1101000000 R
b1101000000 _
b1101000000 l
b1101000000 y
b1101000000 ("
b1101000000 5"
b1101000000 B"
b1101000000 O"
0"
b11010 *
b11010 3
b11010 #$
#570000
b100 !$
1"
#580000
b1101100000 4
b1101100000 9
b1101100000 E
b1101100000 R
b1101100000 _
b1101100000 l
b1101100000 y
b1101100000 ("
b1101100000 5"
b1101100000 B"
b1101100000 O"
0"
b11011 *
b11011 3
b11011 #$
#590000
b100 !$
1"
#600000
b1110000000 4
b1110000000 9
b1110000000 E
b1110000000 R
b1110000000 _
b1110000000 l
b1110000000 y
b1110000000 ("
b1110000000 5"
b1110000000 B"
b1110000000 O"
0"
b11100 *
b11100 3
b11100 #$
#610000
b100 !$
1"
#620000
b1110100000 4
b1110100000 9
b1110100000 E
b1110100000 R
b1110100000 _
b1110100000 l
b1110100000 y
b1110100000 ("
b1110100000 5"
b1110100000 B"
b1110100000 O"
0"
b11101 *
b11101 3
b11101 #$
#630000
b100 !$
1"
#640000
b1111000000 4
b1111000000 9
b1111000000 E
b1111000000 R
b1111000000 _
b1111000000 l
b1111000000 y
b1111000000 ("
b1111000000 5"
b1111000000 B"
b1111000000 O"
0"
b11110 *
b11110 3
b11110 #$
#650000
b100 !$
1"
